0
0.0059813
0.0049552
0.0037831
0.0024622
0.0028864
0.0086116
0.014052
0.014264
0.0077626
-0.0010116
-0.010181
-0.0075429
0.0021062
0.00035874
-0.0013866
0.0041855
0.004375
0.0001418
0.0055293
0.011922
0.0066876
-0.012547
-0.012476
-0.00052248
-0.0023577
0.0053012
0.0060486
0.0020398
-0.010764
-0.023148
-0.017569
0.0021896
0.0080533
0.009228
0.035347
0.025718
-0.0028181
-0.018497
-0.028047
1.8469e-05
0.035288
0.0079686
-0.024695
-0.0074974
0.010447
0.013313
0.015028
0.023454
-0.00697
-0.042923
-0.0028419
0.031993
0.024085
0.018132
0.013983
-0.014618
-0.038172
-0.032047
-0.027234
-0.016094
0.030979
0.047656
0.053311
0.031505
-0.026057
-0.016116
0.0030835
0.0033063
0.010661
0.0257
0.032243
0.040394
0.035251
0.028848
0.0011695
-0.04428
-0.03615
-0.030206
0.0042831
0.029321
0.050633
0.011926
-0.018876
0.036347
0.059403
0.021814
-0.013281
0.02554
0.026867
0.0086903
-0.013991
-0.0013633
0.010691
0.003159
-0.030194
-0.028019
-0.018156
-0.05296
-0.039287
0.010739
0.050733
0.0097197
-0.052187
-0.021118
0.037849
0.059216
0.012096
-0.0030821
0.037503
0.045644
-0.00219
-0.051051
0.015395
0.069336
0.010162
-0.060628
0.0067206
0.11255
0.13038
0.037321
-0.02722
-0.036483
-0.077178
-0.080172
0.016669
0.085171
0.071933
0.0088812
-0.0019175
0.0030826
-0.050359
-0.059949
-0.022797
0.016016
0.023299
0.055216
0.035641
-0.040868
-0.043489
0.0099873
-0.015247
-0.042145
-0.043633
-0.017827
-0.0036542
0.015332
0.056862
0.060891
0.043016
0.042841
0.070261
0.019172
0.0011762
0.03991
0.0402
-0.0052164
0.00052
0.009144
-0.007428
-0.0010949
0.027516
0.038233
0.006363
-0.027908
-0.07072
-0.11683
-0.16045
-0.18822
-0.22749
-0.26819
-0.30484
-0.33396
-0.34661
-0.35678
-0.35852
-0.37184
-0.38636
-0.39191
-0.41691
-0.46489
-0.49458
-0.48196
-0.46514
-0.46043
-0.44432
-0.34263
-0.12893
0.10872
0.31792
0.47302
0.57168
0.66083
0.67809
0.62585
0.58595
0.51162
0.55716
0.20247
-0.44823
-0.58959
-0.5117
-0.41809
-0.36819
-0.27013
-0.05315
0.20521
0.38429
0.47027
0.63951
0.8403
0.84331
0.66675
0.56776
0.55243
0.48901
0.4158
0.37989
0.28073
0.004762
-0.23988
-0.29459
-0.21673
-0.059638
0.043807
0.11765
0.17148
0.24167
0.24279
0.102
-0.01673
-0.035822
-0.029696
-0.043949
-0.088948
-0.13657
-0.16729
-0.057519
0.11096
0.18412
0.19026
0.1014
0.038656
0.024316
-0.033358
-0.086711
-0.10273
-0.11651
-0.14161
-0.19416
-0.24801
-0.27439
-0.28227
-0.26935
-0.24401
-0.15068
-0.021104
0.039936
0.045791
0.023558
-0.01871
-0.072487
-0.10884
-0.15326
-0.17285
-0.19331
-0.17459
-0.078569
-0.0059086
0.026488
0.036301
0.057254
0.13706
0.13401
0.035044
-0.012273
-0.035836
-0.072868
-0.14997
-0.11951
-0.027935
0.00193
-0.010074
-0.07242
-0.13258
-0.16124
-0.11444
-0.066937
-0.046671
-0.0097554
0.056922
0.088774
0.082517
0.080992
0.08552
0.089831
0.049012
0.025215
0.017204
-0.0097869
-0.070872
-0.10721
-0.1028
-0.1106
-0.13838
-0.16223
-0.16967
-0.16975
-0.15558
-0.1291
-0.062835
0.0455
0.13864
0.18926
0.18653
0.14083
0.096623
0.050505
0.0099521
-0.033942
-0.06824
-0.09562
-0.11657
-0.12374
-0.094482
-0.029256
0.026262
0.06308
0.074346
0.076369
0.064746
0.032983
-0.02083
-0.086679
-0.16635
-0.23952
-0.28418
-0.21517
-0.058546
0.075176
0.15607
0.17583
0.14079
0.056607
-0.02315
-0.044408
-0.010005
0.041994
0.10715
0.1608
0.21315
0.24755
0.25052
0.23286
0.19251
0.16054
0.15813
0.17129
0.17202
0.14573
0.12929
0.12164
0.087572
0.069288
0.10393
0.14915
0.14061
0.10506
0.089654
0.069495
0.032343
0.00023767
0.015738
0.060591
0.079014
0.050151
-0.013012
-0.069939
-0.10424
-0.11476
-0.12165
-0.14117
-0.17604
-0.20521
-0.22225
-0.23699
-0.17075
-0.0042922
0.15519
0.27049
0.3322
0.34378
0.31715
0.19467
0.045907
-0.084664
-0.17785
-0.20278
-0.21504
-0.23343
-0.26831
-0.28663
-0.27325
-0.24087
-0.23488
-0.2234
-0.19304
-0.1859
-0.19758
-0.19682
-0.15406
-0.099532
-0.054526
-0.015889
0.016405
0.040786
0.038568
0.014976
0.026888
0.079562
0.11589
0.12133
0.12599
0.1412
0.15473
0.11359
0.037278
-0.010992
-0.039881
-0.072251
-0.09941
-0.10769
-0.10602
-0.080918
-0.033027
0.039782
0.11508
0.15443
0.16484
0.17014
0.18049
0.18488
0.17984
0.15991
0.12603
0.086206
0.045359
0.0011204
-0.025832
-0.036351
-0.04508
-0.053841
-0.067702
-0.075052
-0.064486
-0.040711
-0.02844
-0.020028
-0.0058176
0.0068048
0.0081164
-0.0027304
-0.015051
-0.010763
0.0059097
0.010286
0.0063093
0.0085062
0.032591
0.061923
0.068992
0.051301
0.014188
-0.029572
-0.053135
-0.059192
-0.058852
-0.064623
-0.050891
0.011208
0.065749
0.082074
0.085292
0.068897
0.035089
0.023118
0.026887
0.020402
-0.019155
-0.046025
-0.052342
-0.068456
-0.088277
-0.092481
-0.075159
-0.063569
-0.063948
-0.065572
-0.062625
-0.061179
-0.042467
-0.0065324
0.0055259
-0.0077251
-0.02335
-0.029682
-0.041156
-0.059247
-0.070421
-0.067053
-0.037701
-5.2037e-05
0.032576
0.061653
0.079736
0.082475
0.056303
0.017292
-0.02107
-0.057335
-0.073986
-0.056961
-0.014442
0.008274
0.017414
0.02845
0.039938
0.044406
0.044249
0.048124
0.048327
0.041658
0.032794
0.027622
0.018295
0.0020323
-0.016012
-0.031152
-0.049929
-0.070526
-0.079832
-0.076132
-0.049743
0.0027671
0.056107
0.096196
0.11935
0.12612
0.10807
0.075091
0.056213
0.039461
0.009027
-0.036278
-0.084449
-0.10591
-0.10528
-0.068681
-0.01443
0.035261
0.073573
0.08749
0.0825
0.045609
-0.0099253
-0.065134
-0.086659
-0.083456
-0.072828
-0.054003
-0.033997
-0.023721
-0.019947
-0.011318
-0.0010005
0.0029568
-0.0044782
-0.018377
-0.024294
-0.018312
-0.014123
-0.011745
-0.011372
-0.011961
-0.015039
-0.01548
-0.0072621
0.0012169
0.0034586
-0.0021271
-0.0082158
-0.0027906
0.013927
0.035208
0.049957
0.054657
0.062273
0.074443
0.08258
0.081384
0.074297
0.06749
0.055671
0.040474
0.031328
0.030315
0.027972
0.020191
0.012333
0.0094368
0.0059981
-0.0055628
-0.028264
-0.053861
-0.072208
-0.085129
-0.094531
-0.087751
-0.044201
-0.00075353
0.017007
0.027809
0.038315
0.047411
0.047864
0.035614
0.022194
0.012417
0.0041075
0.0033912
0.0096721
0.01656
0.019037
0.019198
0.017401
0.010504
0.0028866
0.0014471
0.0014642
-0.0087616
-0.031613
-0.048599
-0.046672
-0.022404
-0.0021186
0.0017622
0.0052698
0.0099533
0.0085955
-0.0059643
-0.028444
-0.04668
-0.053264
-0.048602
-0.040806
-0.036719
-0.031863
-0.02319
-0.015086
-0.014958
-0.024359
-0.030476
-0.029213
-0.026776
-0.027323
-0.024019
-0.0080444
0.0018249
-0.0038374
-0.011737
-0.010303
-0.0020848
0.0075386
0.017449
0.019226
0.0082019
-0.0057673
-0.014273
-0.014597
-0.009487
0.012088
0.039548
0.050382
0.048273
0.045427
0.049896
0.052644
0.048654
0.044407
0.045756
0.04034
0.026931
0.012138
0.00098986
-0.0039533
-0.0059314
-0.012265
-0.029648
-0.047811
-0.057997
-0.056774
-0.045199
-0.025369
-0.0071737
0.0014471
0.0025831
0.006263
0.018029
0.030418
0.031486
0.02242
0.01181
-0.0003869
-0.012677
-0.015916
-0.0026164
0.014115
0.022386
0.023565
0.023611
0.021303
0.01629
0.0096688
0.00036615
-0.0077482
-0.01851
-0.02802
-0.029171
-0.022929
-0.020955
-0.022729
-0.017553
-0.010934
-0.0065234
-0.010349
-0.01097
-0.0082928
-0.010352
-0.012304
-0.0103
-0.0088986
-0.013188
-0.018336
-0.02151
-0.020652
-0.014424
-0.0052342
0.006058
0.022853
0.037002
0.045584
0.04472
0.040734
0.034738
0.022929
0.0053931
-0.012267
-0.022446
-0.028587
-0.033385
-0.03748
-0.038798
-0.033422
-0.020783
-0.003839
0.0063985
0.0040421
-0.003548
-0.0062573
-0.00025895
0.0076621
0.017737
0.024704
0.023056
0.013422
0.0052487
0.0015489
0.0013355
0.0052695
0.010533
0.015886
0.024013
0.032805
0.033924
0.024327
0.01065
0.0052371
0.0089068
0.011239
0.0032709
-0.0086531
-0.016077
-0.019608
-0.019616
-0.013118
-0.0026148
0.0040385
0.001372
-0.0039516
0.00017509
0.012183
0.019956
0.023755
0.027173
0.02649
0.019877
0.0049666
-0.010834
-0.020413
-0.022024
-0.01698
-0.0063197
0.0053479
0.014255
0.012636
-0.0046008
-0.023077
-0.030455
-0.03168
-0.031584
-0.02929
-0.021577
-0.010403
0.002859
0.017889
0.025857
0.023119
0.0175
0.015178
0.015841
0.021121
0.026163
0.027788
0.02742
0.028868
0.030918
0.030138
0.025663
0.017655
0.0083374
-0.0041496
-0.017317
-0.025403
-0.030119
-0.034987
-0.035221
-0.025518
-0.016756
-0.011388
-0.0030475
0.0065893
0.013245
0.013169
0.013742
0.016127
0.018423
0.017693
0.01016
0.0063003
0.0069784
0.0049372
-0.00071065
-0.0073357
-0.010852
-0.013635
-0.012816
-0.010643
-0.0089461
-0.0067196
-0.0036689
0.00058027
0.0073549
0.014627
0.021397
0.029232
0.034813
0.035365
0.027727
0.016872
0.0068672
-0.00028006
-0.0069133
-0.014809
-0.022074
-0.027804
-0.026943
-0.020871
-0.013239
-0.0061778
0.00022562
0.0015831
-0.0036303
-0.0081041
-0.010288
-0.0084124
-0.0051281
-0.00029857
0.0036844
0.0022461
-0.0026531
-0.0087457
-0.011022
-0.0061042
0.0023791
0.0095516
0.012296
0.0085589
0.0039932
0.004957
0.0070173
0.0034523
-0.0069916
-0.016195
-0.01999
-0.01747
-0.0077438
0.0019736
0.0060066
0.0022743
-0.0037805
-0.0051607
-0.0026373
-0.0047988
-0.01029
-0.017791
-0.025576
-0.027118
-0.017911
6.9067e-05
0.013028
0.013405
0.0041641
-0.0084412
-0.017738
-0.019894
-0.01741
-0.012243
-0.0087966
-0.0078542
-0.0045576
0.0015582
0.0079158
0.013064
0.019939
0.027602
0.032181
0.034395
0.03142
0.024581
0.017944
0.016797
0.01911
0.018672
0.016011
0.010869
0.0057992
0.0038764
0.003754
0.0040099
0.001826
-0.0033475
-0.0085628
-0.013394
-0.017903
-0.023585
-0.025612
-0.021261
-0.014983
-0.011054
-0.0087907
-0.0048709
-0.0020007
-0.0020956
-0.00099916
0.0019588
0.0077411
0.011011
0.0072892
0.0043383
0.0037068
0.00088139
-0.0051836
-0.0085833
-0.0067891
-0.0024929
1.9428e-06
-0.0015281
-0.0035936
-0.005189
-0.010151
-0.017896
-0.024217
-0.029325
-0.031464
-0.027943
-0.02225
-0.019231
-0.014845
-0.0062745
0.0021374
0.0093753
0.017095
0.022299
0.02251
0.017814
0.012751
0.011865
0.014271
0.01908
0.02395
0.028038
0.029555
0.027214
0.02284
0.022577
0.025831
0.028748
0.027473
0.021563
0.013408
0.0047667
0.0005847
-0.0059045
-0.015607
-0.024253
-0.028206
-0.026099
-0.018837
-0.010372
-0.0025844
-0.0010268
-0.0070612
-0.013143
-0.016969
-0.022017
-0.025945
-0.021059
-0.013542
-0.0081035
-0.0052781
-0.0031361
-0.0020752
-0.0035256
-0.00273
-0.0012704
-0.0035195
-0.0048617
-0.0027677
0.0020141
0.0081433
0.012046
0.011565
0.0083903
0.0063727
0.0016522
-0.002645
-0.0057957
-0.0098247
-0.0089138
-0.0073573
-0.00536
-0.0044247
-0.0048673
-0.0066941
-0.0075111
-0.0048274
-0.0044999
-0.0043061
-0.0075415
-0.010309
-0.010468
-0.008749
-0.0047567
-0.0020679
-0.0014568
-0.0019291
0.00118
0.0060199
0.011047
0.01327
0.011283
0.007032
0.0029398
0.0040446
0.0025442
2.0792e-05
-0.0013133
-0.0051158
-0.0062194
-0.0036122
-0.0008428
-0.0013894
-0.0030142
-0.0056254
-0.0075561
-0.0078335
-0.0065054
-0.0071744
-0.011213
-0.014759
-0.0097099
0.0015959
0.0070825
0.0068215
0.003174
-0.0018891
-0.0087679
-0.0080773
-0.0044236
-0.000829
0.00079391
-0.00094306
-0.00034116
-0.0013488
-0.0029766
-0.001726
-0.00017962
-5.5081e-05
-0.0027661
-0.0085454
-0.0094112
-0.0082177
-0.0094865
-0.011917
-0.0080614
-0.0031795
-0.0041841
-0.0048705
-0.0040431
-0.0080822
-0.010225
-0.0060318
7.401e-05
0.0062778
0.011244
0.018038
0.021087
0.017154
0.0095638
0.0050351
0.0037959
0.0037073
0.0054129
0.0043073
-0.001526
-0.0076591
-0.0031169
0.0061326
0.011671
0.01014
0.0095632
0.010536
0.0057935
0.001473
-0.004549
-0.013171
-0.02382
-0.028726
-0.024822
-0.015615
-0.0028601
0.0084447
0.016729
0.023816
0.027275
0.023957
0.014854
0.0052775
-0.0031853
-0.0055118
-0.0038715
-0.0030513
-0.00052255
0.0037983
0.0080825
0.0094351
0.010003
0.0076209
0.0068315
0.008019
0.010874
0.011644
0.0078603
0.0028349
-0.0031329
-0.0070598
-0.0088548
-0.0081284
-0.0073327
-0.0089166
-0.0086165
-0.0059419
-0.00020833
0.004644
0.0073267
0.0050482
0.00070319
-0.0016763
0.0026538
0.017766
0.031808
0.027306
0.0053034
-0.008035
-0.0068455
0.00094646
0.0087711
0.016529
0.016851
0.012914
0.011295
0.0073358
0.0030162
0.0071668
0.014236
0.011685
0.0038932
-0.0032395
-0.012647
-0.021518
-0.02642
-0.023227
-0.015176
-0.0050346
0.0018342
-0.00049528
-0.004722
-0.0059937
-0.0026102
0.0031204
0.0044812
0.0033003
0.0041756
0.0090035
0.011824
0.0094628
0.01065
0.012244
0.01181
0.0063853
-9.3587e-05
-0.0084656
-0.011838
-0.0083734
-0.0031324
-0.00051794
-0.0056963
-0.01136
-0.015238
-0.017386
-0.015467
-0.01026
-0.0086317
-0.0065802
-0.0034119
-0.00029969
0.0010653
0.0023578
0.0047122
0.0027958
-0.0002905
0.0010214
0.0042499
0.0058944
0.010115
0.010103
0.0085541
0.0048344
-0.001778
-0.0068299
-0.0088095
-0.0083411
-0.0075504
-0.0063996
-0.0048806
-0.0033943
-0.0026688
0.0046468
0.013373
0.016709
0.015011
0.010639
0.0047091
-0.00022138
-0.0034495
-0.0057555
-0.0032348
0.00083621
0.0051225
0.0072932
0.0097037
0.012025
0.010592
0.0065873
0.0019536
-0.00093786
0.0018092
0.0076347
0.012111
0.014361
0.012569
0.0071561
0.0015902
-0.0017286
-0.0044885
-0.0091497
-0.012552
-0.011566
-0.00986
-0.0088622
-0.0090629
-0.0096135
-0.011237
-0.013799
-0.013896
-0.013263
-0.01137
-0.0063471
-0.0011469
0.0025171
0.0052306
0.0078349
0.0064346
0.0043999
0.00032323
-0.0015258
-0.0047304
-0.0073608
-0.0061294
-0.0066993
-0.0074855
-0.010492
-0.012783
-0.014192
-0.014555
-0.013619
-0.012906
-0.010758
-0.007906
-0.0063044
-0.0033441
0.00060556
0.006739
0.0097381
0.0087591
0.0060145
0.0040166
0.0054122
0.0077033
0.010606
0.010974
0.0063301
0.00093856
-0.00022299
0.001905
0.0062861
0.010327
0.011193
0.0099945
0.0079669
0.0062648
0.0049625
0.0015396
0.0012124
-0.0017342
-0.0050979
-0.0055414
-0.0048659
-0.003762
-0.0024185
-0.00094944
-0.0016316
-0.0019639
-0.00082126
0.0017963
0.0044812
0.0048771
0.0048396
0.0048827
0.004378
0.0050596
0.0041877
0.004498
0.0038485
-0.00096157
-0.0060991
-0.008658
-0.0085854
-0.008931
-0.010892
-0.013454
-0.014944
-0.013659
-0.0086157
-0.0024822
0.0018704
0.003369
0.0017535
0.00098975
0.0012858
0.003937
0.0069421
0.0082816
0.011753
0.013162
0.015018
0.013873
0.013491
0.011985
0.0094357
0.010951
0.011424
0.011786
0.011071
0.0086228
0.003624
-0.00072096
-0.0043469
-0.0076229
-0.0093067
-0.0098073
-0.011714
-0.012594
-0.012406
-0.011662
-0.0092748
-0.0075223
-0.0089347
-0.0073964
-0.0069311
-0.0083068
-0.0081342
-0.0042295
0.0010829
0.005874
0.0066892
0.0053808
0.0054432
0.0055372
0.0089136
0.010332
0.011403
0.0097874
0.0067041
0.0039187
0.00082622
-0.0014431
-0.0053495
-0.0073332
-0.0072463
-0.0058946
-0.0017859
0.0010479
0.0016968
-0.00084381
-0.0048022
-0.007653
-0.007716
-0.005279
-0.0045261
-0.0032295
-0.0010108
0.001265
0.0035204
0.0041316
0.0049835
0.0036546
0.0036415
0.0031664
0.0034552
0.0027883
-0.0011079
-0.0031518
-0.0058139
-0.0073212
-0.0074924
-0.0044333
-0.0011008
0.0038525
0.0075512
0.010246
0.011853
0.012355
0.012223
0.010311
0.0085671
0.0080205
0.0076239
0.0062777
0.0032444
-0.0015913
-0.006226
-0.0089839
-0.0075334
-0.0035358
-0.00097138
-0.001214
-0.0018095
-0.0043798
-0.0056546
-0.0043703
-0.0033971
-0.004626
-0.0042985
-0.0045503
-0.0059179
-0.0066308
-0.008996
-0.0098965
-0.011395
-0.012651
-0.012094
-0.010898
-0.010528
-0.010245
-0.0071977
-0.0027065
0.0025517
0.0067583
0.0071297
0.0057488
0.0050267
0.0041547
0.0047158
0.0066438
0.006295
0.0047968
0.0043195
0.004289
0.0033456
0.0028592
0.0023891
0.0020434
0.0050903
0.0039827
0.0012237
-0.00152
-0.0054673
-0.007191
-0.007243
-0.0049846
-0.0019316
-0.0015919
-0.0034237
-0.0042692
-0.0037979
-0.0036805
-0.0053502
-0.0066618
-0.0073727
-0.0095401
-0.010379
-0.0078345
-0.0037289
0.00093459
0.0030532
0.0044037
0.005639
0.0066081
0.0062828
0.0072213
0.0097999
0.010986
0.0093369
0.0069104
0.0068727
0.0047879
0.0021685
0.00016531
-0.0009801
-0.0026794
-0.0065839
-0.010114
-0.013871
-0.015261
-0.014424
-0.012198
-0.0092867
-0.0064521
-0.003391
-0.00098687
0.0021762
0.0055504
0.0065908
0.0057248
0.0054056
0.0062338
0.0072569
0.0072753
0.0078761
0.0064929
0.005321
0.0039501
0.0010533
-0.0013927
-0.0030175
-0.0024943
-0.0023546
-0.0017681
0.00071459
0.0038572
0.0043804
0.0043784
0.0062766
0.0066611
0.0056604
0.003347
0.0029411
0.0052605
0.0058041
0.0063222
0.0064976
0.0062232
0.005551
0.0028276
0.0031192
0.0028927
0.0028131
0.0017808
0.00069855
0.0013044
0.0016613
0.0034503
0.0057075
0.0065326
0.0077188
0.0089703
0.0079981
0.0068863
0.0049951
0.0018279
0.0017982
0.0039208
0.0055833
0.0023488
-0.0014692
-0.004057
-0.0051067
-0.006442
-0.0074448
-0.0063555
-0.0063087
-0.0028653
0.00013541
0.0016959
0.00047993
0.00051448
-0.00015885
0.0019565
0.0027377
0.00058433
-0.0013742
-0.0048638
-0.0034563
-0.001088
0.00021028
1.7352e-05
-5.2437e-06
-0.0017068
-0.0031166
-0.0020743
-0.0016216
-0.0024112
-0.0046778
-0.0062396
-0.0056982
-0.0050904
-0.0066104
-0.009537
-0.009169
-0.0087887
-0.0077832
-0.004856
-0.00012645
0.002406
0.0047865
0.0055176
0.0056571
0.0059007
0.0043511
0.0065429
0.0065763
0.0057274
0.0030711
-0.00078065
-0.0028841
-0.0055986
-0.0054101
-0.0042945
-0.0039286
-0.0024723
-0.0010894
0.002874
0.0065743
0.0074737
0.0084037
0.0085799
0.0086683
0.0075165
0.0041665
0.002524
0.00024302
-0.0048807
-0.0078084
-0.0087084
-0.0068604
-0.0054746
-0.0051668
-0.0049111
-0.0068087
-0.0065672
-0.0048264
-0.0027806
-0.0029125
-0.0032658
-0.0027867
-0.0024749
-0.0026405
-0.0018738
0.00084411
0.0025563
0.0030231
0.0047853
0.0049359
0.0046367
0.0051137
0.0046839
0.0053312
0.0048728
0.0026417
0.0012613
0.001368
0.0026069
0.00554
0.0048725
0.0027393
0.00060093
-0.00014511
0.0024616
0.0031915
0.0035939
0.0017779
0.0011145
0.002235
-0.00085297
-0.0029862
-0.0038914
-0.0045172
-0.0070615
-0.0081646
-0.0058139
-0.003347
-0.0023234
-0.00055217
0.0021442
0.0037676
0.0028481
0.00034959
-0.0019418
-0.0050707
-0.0020336
0.0023345
0.0048993
0.0021203
-0.0022683
-0.0034877
-0.0035698
-0.002122
-0.0018532
-0.0033471
-0.0037332
-0.0036766
-0.0032977
-0.0021946
-0.0022217
-0.0027323
-0.0064732
-0.0077447
-0.0065009
-0.0040892
-0.0011828
0.00032213
0.0010253
0.003488
0.0035986
0.0038458
0.0030425
0.00064383
-0.0024066
-0.0046421
-0.0055403
-0.0053176
-0.0049378
-0.0045294
-0.0018587
-0.0015768
-0.0015999
-0.0016393
-0.00085357
0.00071553
0.00021811
-0.0017106
-0.00090767
-0.00028542
0.00065368
-0.00035572
-0.0022137
-0.0040018
-0.0040646
-0.0031581
-0.0017886
-0.0016187
-0.0033342
-0.0054985
-0.0069567
-0.0069507
-0.006737
-0.0043001
-0.0032726
-0.0012177
-0.00023984
-0.00046897
-0.00064468
0.0013211
0.0022914
0.0022276
0.0020276
0.0017775
0.0019847
0.0019901
0.0025245
0.0023173
0.003749
0.0050269
0.0057563
0.0063097
0.0073742
0.007567
0.0076095
0.0077153
0.0075825
0.0076497
0.0057313
0.0039663
0.0026147
0.00039441
-0.00074548
-0.0016472
-0.0012429
-0.0011406
-0.0017741
-0.0022296
-0.0027996
-0.0043381
-0.0070779
-0.0090034
-0.0089978
-0.0083352
-0.0060726
-0.0043566
-0.0039234
-0.0024961
-0.0021182
-0.0031019
-0.0029522
-0.0027687
-0.0038543
-0.0026361
-0.00069038
0.0014887
0.0030699
0.0027354
0.0027194
0.0026762
0.0033169
0.0030717
0.00251
0.0026649
0.0027022
0.0034291
0.0047439
0.0034709
0.0033078
0.0037855
0.0026136
0.0023834
0.0026515
0.0035641
0.0026008
0.0024756
0.0022275
0.0027501
0.0036884
0.0036755
0.0030062
0.0022936
0.0020989
0.0015011
0.00091796
0.00059985
0.0003694
0.00027642
0.00066516
0.0013215
0.0011673
0.00062398
0.00038081
0.00040954
0.00058609
0.00020425
0.00029223
0.00040612
0.00039041
0.00034134
0.00016762
-0.00026062
-0.00078016
-0.00041358
0.00025248
0.00064388
0.00064581
0.00098028
0.0010851
0.00035325
0.00012519
0.0004067
0.00036426
-0.00041749
-0.00073948
-0.00076269
-0.00020047
0.00010495
0.00080125
0.0019399
0.0016519
0.0015559
0.0014126
0.0010973
0.00088148
0.00048313
0.00047233
0.00043052
0.00037399
0.00041143
0.0006939
0.00080857
0.00052646
0.0005146
0.00065095
0.00042538
0.00021718
4.8584e-05
-4.1755e-05
-0.00018547
-0.00053007
-0.00057076
-0.00057552
-0.00060065
-0.00070692
-0.00086975
-0.0010233
-0.0011825
-0.0011707
-0.0012678
-0.0010984
-0.0008448
-0.00069527
-0.00066344
-0.00053518
-0.00044139
-0.00052035
-0.00056266
-0.00057821
-0.00054787
-0.00054374
-0.00045993
-0.00048761
-0.00052798
-0.00052452
-0.00049799
-0.00044457
-0.00040456
-0.00036539
-0.00035228
-0.00034824
-0.00033849
-0.00030641
-0.00029594
-0.00029045
-0.00029878
-0.00029881
-0.00028854
-0.00027969
-0.00026887
-0.00026377
-0.00025313
-0.00024609
-0.00024165
-0.00024006
-0.00024154
-0.0002456
