0.0000035953900
0.0000351832000
0.0000399591000
0.0000235834000
0.0000025366700
0.0000593140000
0.0001166130000
0.0001938820000
0.0001693410000
0.0000321170000
-0.0004674630000
-0.0011284600000
-0.0014714500000
-0.0009976570000
-0.0006810440000
-0.0005732480000
-0.0003951740000
-0.0000554925000
0.0003123640000
0.0004943530000
0.0002599590000
0.0001628000000
0.0002807840000
0.0007997480000
0.0018087600000
0.0052732100000
0.0084696200000
0.0076348000000
0.0034294400000
0.0012522000000
0.0034608200000
0.0041642600000
0.0017049600000
-0.0011354000000
-0.0020592200000
-0.0001416400000
0.0011038900000
-0.0015398400000
-0.0027811200000
0.0007595990000
0.0038612900000
0.0010995400000
-0.0010863500000
0.0006714460000
-0.0014808000000
-0.0089218000000
-0.0217169000000
-0.0253940000000
-0.0198790000000
-0.0154096000000
-0.0118109000000
0.0017260600000
0.0206833000000
0.0274936000000
0.0176889000000
0.0101347000000
0.0142594000000
0.0202814000000
0.0233986000000
0.0243875000000
0.0223002000000
0.0124251000000
-0.0073681500000
-0.0215683000000
-0.0217013000000
-0.0229882000000
-0.0255826000000
-0.0232880000000
-0.0076528000000
0.0115310000000
0.0206014000000
0.0178662000000
0.0136428000000
0.0032700800000
-0.0131713000000
-0.0288567000000
-0.0388103000000
-0.0402433000000
-0.0324304000000
-0.0155180000000
0.0006924260000
0.0111037000000
0.0189076000000
0.0221999000000
0.0144662000000
0.0148966000000
0.0171089000000
0.0095806400000
-0.0013592200000
-0.0061261400000
0.0002119790000
0.0071196100000
0.0122963000000
0.0163787000000
0.0158221000000
0.0074077100000
-0.0145105000000
-0.0430580000000
-0.0598272000000
-0.0669358000000
-0.0717889000000
-0.0556691000000
-0.0084086500000
0.0286209000000
0.0368866000000
0.0261948000000
0.0288621000000
0.0299455000000
0.0052827000000
-0.0261300000000
-0.0359339000000
-0.0380039000000
-0.0327805000000
-0.0048686100000
0.0234295000000
0.0432331000000
0.0404164000000
0.0294568000000
0.0173288000000
-0.0004967090000
-0.0241478000000
-0.0335088000000
-0.0342017000000
-0.0305926000000
-0.0126847000000
0.0263850000000
0.0525677000000
0.0530148000000
0.0421982000000
0.0407114000000
0.0431756000000
0.0318992000000
0.0141771000000
-0.0005376960000
0.0002647920000
0.0055898600000
0.0126528000000
0.0138619000000
0.0052311400000
0.0047546800000
0.0148650000000
0.0161096000000
0.0077147500000
0.0094015700000
0.0141692000000
0.0054197100000
-0.0059878600000
0.0005132870000
0.0270886000000
0.0492022000000
0.0585904000000
0.0619306000000
0.0596478000000
0.0291313000000
-0.0118499000000
-0.0226140000000
-0.0197184000000
-0.0171685000000
-0.0114427000000
-0.0045540700000
-0.0049579500000
-0.0124794000000
-0.0246055000000
-0.0343854000000
-0.0439220000000
-0.0687828000000
-0.0853506000000
-0.0768937000000
-0.0458681000000
-0.0089585600000
0.0274789000000
0.0494680000000
0.0591808000000
0.0599727000000
0.0478654000000
0.0245535000000
0.0097169400000
0.0116540000000
0.0004279680000
-0.0123141000000
-0.0321426000000
-0.0577469000000
-0.0672222000000
-0.0584302000000
-0.0408269000000
-0.0278968000000
-0.0270596000000
-0.0290303000000
-0.0344075000000
-0.0456165000000
-0.0521799000000
-0.0254309000000
0.0099396400000
0.0396073000000
0.0621942000000
0.1022580000000
0.1285850000000
0.1218470000000
0.0827649000000
0.0033995000000
-0.0559356000000
-0.1051580000000
-0.1436460000000
-0.1469990000000
-0.1254750000000
-0.0540017000000
0.0496781000000
0.1098310000000
0.1224470000000
0.1182580000000
0.0917286000000
0.0331272000000
-0.0264444000000
-0.0723798000000
-0.0954853000000
-0.1004250000000
-0.0795519000000
-0.0284099000000
0.0187799000000
0.0326882000000
0.0298551000000
0.0105662000000
0.0058622200000
0.0032417100000
-0.0084750200000
-0.0012407700000
0.0155356000000
0.0180453000000
0.0000089274100
-0.0358122000000
-0.0634504000000
-0.0869401000000
-0.1096170000000
-0.1202420000000
-0.0950751000000
-0.0544980000000
-0.0222425000000
-0.0038297600000
0.0204794000000
0.0414498000000
0.0511375000000
0.0606381000000
0.0853555000000
0.0952152000000
0.0742419000000
0.0359158000000
0.0113245000000
0.0089014200000
0.0035228300000
-0.0056504400000
-0.0286411000000
-0.0498585000000
-0.0525592000000
-0.0162176000000
0.0332193000000
0.0700709000000
0.0732108000000
0.0549782000000
0.0253249000000
0.0011657700000
-0.0091039600000
-0.0232439000000
-0.0474822000000
-0.0687400000000
-0.0859021000000
-0.0913619000000
-0.0849904000000
-0.0558749000000
0.0133615000000
0.0925805000000
0.1324950000000
0.1564390000000
0.1806590000000
0.1839190000000
0.1604380000000
0.1021930000000
0.0157413000000
-0.0401231000000
-0.0694336000000
-0.0867184000000
-0.0780475000000
-0.0491896000000
-0.0232122000000
-0.0067920600000
-0.0128597000000
-0.0150669000000
0.0043725900000
0.0235502000000
0.0314845000000
0.0320926000000
0.0407672000000
0.0490875000000
0.0448887000000
0.0337488000000
0.0093504500000
-0.0255342000000
-0.0552630000000
-0.0685389000000
-0.0680268000000
-0.0547060000000
-0.0259031000000
-0.0093854000000
-0.0001424990000
0.0165546000000
0.0249553000000
0.0196925000000
-0.0147972000000
-0.0472145000000
-0.0417635000000
-0.0186301000000
-0.0059602700000
0.0009348350000
0.0064875800000
0.0048687400000
-0.0075933300000
-0.0264915000000
-0.0409804000000
-0.0442941000000
-0.0375569000000
0.0023323600000
0.0592976000000
0.1043730000000
0.1169560000000
0.1104790000000
0.0671645000000
0.0044014300000
-0.0529707000000
-0.0815816000000
-0.0828807000000
-0.0803631000000
-0.0497877000000
0.0138018000000
0.0734813000000
0.1073710000000
0.1030650000000
0.0655491000000
0.0273224000000
0.0053750300000
-0.0116242000000
-0.0245062000000
-0.0235502000000
-0.0169465000000
-0.0123204000000
-0.0081383100000
0.0094605700000
0.0288393000000
0.0445648000000
0.0494164000000
0.0477106000000
0.0415524000000
0.0361120000000
0.0418162000000
0.0533477000000
0.0600380000000
0.0704504000000
0.0885597000000
0.0916620000000
0.0512917000000
-0.0054930800000
-0.0573759000000
-0.0855623000000
-0.0852543000000
-0.0723956000000
-0.0393636000000
-0.0181169000000
-0.0135189000000
-0.0057176800000
0.0000172761000
-0.0010659800000
-0.0102516000000
-0.0234957000000
-0.0296215000000
-0.0157809000000
0.0050146100000
0.0202221000000
0.0272293000000
0.0269857000000
0.0188050000000
-0.0071523900000
-0.0407709000000
-0.0657633000000
-0.0829879000000
-0.0917759000000
-0.0885563000000
-0.0751631000000
-0.0620607000000
-0.0639771000000
-0.0703774000000
-0.0697343000000
-0.0530046000000
-0.0341624000000
-0.0321232000000
-0.0415564000000
-0.0498428000000
-0.0555458000000
-0.0638725000000
-0.0816897000000
-0.0867692000000
-0.0683802000000
-0.0352409000000
-0.0156177000000
-0.0167004000000
0.0060141400000
0.0766141000000
0.1022350000000
0.0742610000000
0.0108035000000
-0.0340476000000
-0.0533178000000
-0.0509629000000
-0.0340048000000
-0.0253238000000
-0.0136436000000
-0.0045991300000
-0.0057015800000
-0.0080936900000
0.0074189500000
0.0286765000000
0.0492636000000
0.0603911000000
0.0644057000000
0.0639381000000
0.0560010000000
0.0410044000000
0.0157169000000
-0.0150443000000
-0.0410395000000
-0.0361799000000
0.0015222700000
0.0208227000000
0.0180938000000
0.0085558200000
-0.0099995200000
-0.0294097000000
-0.0448569000000
-0.0512552000000
-0.0452729000000
-0.0337102000000
-0.0232282000000
-0.0175453000000
-0.0142764000000
-0.0204404000000
-0.0326124000000
-0.0555416000000
-0.0689788000000
-0.0434624000000
0.0173607000000
0.0769270000000
0.1096030000000
0.1012260000000
0.0707341000000
0.0359585000000
0.0305514000000
0.0289402000000
0.0206332000000
0.0130658000000
0.0081189700000
0.0025194300000
0.0070259900000
0.0097980600000
0.0147010000000
0.0308528000000
0.0482840000000
0.0541991000000
0.0550953000000
0.0509920000000
0.0527996000000
0.0433096000000
0.0237765000000
-0.0021410600000
-0.0247259000000
-0.0399128000000
-0.0453904000000
-0.0437765000000
-0.0311858000000
0.0006068740000
0.0234269000000
0.0303648000000
0.0303152000000
0.0242448000000
-0.0076374700000
-0.0433973000000
-0.0719204000000
-0.0966316000000
-0.0721750000000
-0.0564587000000
-0.0717846000000
-0.0789423000000
-0.0867384000000
-0.0960347000000
-0.1095590000000
-0.1213180000000
-0.1161790000000
-0.0980945000000
-0.0583947000000
-0.0012191800000
0.0772169000000
0.1510280000000
0.2565710000000
0.3127260000000
0.3184900000000
0.2861070000000
0.2321200000000
0.1759000000000
0.1133050000000
0.0557975000000
-0.0124037000000
-0.0706150000000
-0.1127490000000
-0.1618830000000
-0.1440570000000
-0.0131355000000
0.0754752000000
0.1020020000000
0.0720462000000
0.0481782000000
-0.0227218000000
-0.0880841000000
-0.0797150000000
-0.1169490000000
-0.1172430000000
-0.0876157000000
-0.0466264000000
0.0239849000000
0.0841171000000
0.0891375000000
0.0779069000000
0.0543005000000
0.0281243000000
0.0140821000000
0.0209722000000
0.0189321000000
-0.0018623200000
-0.0366374000000
-0.0709656000000
-0.1013090000000
-0.1178680000000
-0.1147630000000
-0.0974180000000
-0.0638152000000
-0.0270744000000
0.0018308800000
0.0298565000000
0.0534768000000
0.0534807000000
0.0343810000000
0.0409459000000
0.0305037000000
0.0156108000000
0.0107532000000
0.0433359000000
0.0626534000000
0.0499757000000
0.0420509000000
0.0233932000000
0.0264690000000
0.0252420000000
0.0313364000000
0.0331888000000
0.0185839000000
0.0005005700000
-0.0074509100000
0.0013626000000
0.0141731000000
0.0204421000000
0.0143418000000
0.0133762000000
0.0269231000000
0.0285254000000
-0.0044622800000
-0.0566008000000
-0.0622696000000
-0.0250605000000
0.0090231300000
0.0222849000000
0.0322733000000
0.0477468000000
0.0573593000000
0.0504887000000
0.0297783000000
-0.0322244000000
-0.0777016000000
-0.0696649000000
-0.0428271000000
0.0219264000000
0.0504618000000
0.0472495000000
0.0399822000000
0.0161292000000
-0.0202374000000
-0.0528437000000
-0.0840200000000
-0.1002850000000
-0.1014440000000
-0.0932642000000
-0.0633176000000
-0.0256413000000
-0.0034612100000
-0.0067516500000
-0.0191372000000
-0.0141315000000
0.0013869800000
0.0151074000000
0.0089812200000
-0.0048474700000
-0.0133610000000
-0.0081524800000
-0.0148663000000
-0.0248441000000
-0.0370999000000
-0.0578899000000
-0.0697312000000
-0.0706851000000
-0.0649316000000
-0.0502453000000
-0.0338425000000
-0.0239521000000
-0.0128739000000
0.0045600300000
0.0245181000000
0.0311902000000
0.0204207000000
0.0061935000000
0.0068940300000
0.0176664000000
0.0194642000000
0.0085856200000
-0.0024085600000
-0.0164462000000
-0.0320977000000
-0.0433258000000
-0.0532655000000
-0.0624999000000
-0.0590652000000
-0.0342898000000
0.0009158990000
0.0290743000000
0.0601743000000
0.0810518000000
0.0847881000000
0.0911862000000
0.1196820000000
0.1449470000000
0.1447360000000
0.1221790000000
0.0795465000000
0.0277358000000
0.0024261700000
-0.0124495000000
-0.0140989000000
-0.0107904000000
-0.0340635000000
-0.0438036000000
-0.0515750000000
-0.0655509000000
-0.0815101000000
-0.0914983000000
-0.0790461000000
-0.0537459000000
-0.0379397000000
-0.0279042000000
-0.0202931000000
-0.0203159000000
-0.0171427000000
-0.0239560000000
-0.0287703000000
-0.0226799000000
-0.0258187000000
-0.0213765000000
-0.0097881900000
-0.0032178600000
-0.0052672600000
-0.0178621000000
-0.0122406000000
-0.0049066600000
-0.0098769800000
0.0208642000000
0.0913271000000
0.1213610000000
0.1053310000000
0.0506586000000
0.0313975000000
0.0165062000000
0.0027931500000
-0.0046905800000
-0.0173798000000
-0.0260501000000
-0.0276199000000
-0.0137641000000
-0.0018766800000
0.0153853000000
0.0263041000000
0.0386148000000
0.0629171000000
0.0807763000000
0.0793633000000
0.0701900000000
0.0420039000000
0.0171757000000
0.0090816800000
0.0087942100000
0.0148191000000
0.0313299000000
0.0503644000000
0.0644549000000
0.0710485000000
0.0744663000000
0.0758589000000
0.0777752000000
0.0780025000000
0.0726441000000
0.0551574000000
0.0309549000000
0.0025787100000
-0.0170298000000
-0.0274821000000
-0.0287480000000
-0.0208557000000
0.0055450000000
0.0285891000000
0.0371158000000
0.0359974000000
0.0455185000000
0.0652192000000
0.0758742000000
0.0720347000000
0.0623829000000
0.0445129000000
0.0196552000000
-0.0257041000000
-0.0646544000000
-0.0943563000000
-0.1138930000000
-0.1283420000000
-0.1351500000000
-0.1235140000000
-0.1067390000000
-0.1107480000000
-0.0906882000000
-0.0707713000000
-0.0666879000000
-0.0151295000000
0.0011262700000
0.0164678000000
0.0437650000000
0.0355343000000
0.0595678000000
0.0449948000000
0.0375810000000
0.0282579000000
0.0263215000000
0.0427798000000
0.0660963000000
0.0872412000000
0.0773726000000
0.0531364000000
0.0176349000000
-0.0044877400000
-0.0130253000000
-0.0095516000000
-0.0201433000000
-0.0325706000000
-0.0366602000000
-0.0357286000000
-0.0474733000000
-0.0603944000000
-0.0616984000000
-0.0413297000000
-0.0194576000000
-0.0085220200000
-0.0166130000000
-0.0286523000000
-0.0380271000000
-0.0308321000000
-0.0390174000000
-0.0589767000000
-0.0764532000000
-0.0900355000000
-0.0993868000000
-0.1005530000000
-0.0966749000000
-0.0764554000000
-0.0485696000000
-0.0225065000000
-0.0095760000000
-0.0102528000000
-0.0236781000000
-0.0573564000000
-0.0831174000000
-0.0865435000000
-0.0853959000000
-0.0841193000000
-0.0827675000000
-0.0797674000000
-0.0742183000000
-0.0664684000000
-0.0613808000000
-0.0559593000000
-0.0544438000000
-0.0552575000000
-0.0578531000000
-0.0565992000000
-0.0476297000000
-0.0364976000000
-0.0263388000000
-0.0153593000000
-0.0008533320000
0.0156235000000
0.0228477000000
0.0232103000000
0.0190587000000
0.0146599000000
0.0085324900000
-0.0026098800000
-0.0202857000000
-0.0361833000000
-0.0516706000000
-0.0618369000000
-0.0574146000000
-0.0377232000000
-0.0167872000000
-0.0000392039000
0.0161568000000
0.0319944000000
0.0362159000000
0.0333291000000
0.0260151000000
0.0179589000000
0.0100832000000
0.0061267400000
0.0020818000000
-0.0027008500000
-0.0058330700000
-0.0080664500000
-0.0092998100000
-0.0012632300000
0.0170554000000
0.0344217000000
0.0468715000000
0.0550323000000
0.0572246000000
0.0547720000000
0.0386971000000
0.0285568000000
0.0271040000000
0.0293331000000
0.0324355000000
0.0393879000000
0.0471775000000
0.0604846000000
0.0714133000000
0.0698719000000
0.0532578000000
0.0324338000000
0.0124379000000
-0.0055207500000
-0.0138522000000
-0.0133630000000
0.0076314100000
0.0430839000000
0.0744415000000
0.1042480000000
0.1147220000000
0.1069110000000
0.0784489000000
0.0412803000000
0.0067728900000
-0.0261011000000
-0.0368497000000
-0.0078904200000
0.0259193000000
0.0567716000000
0.0875551000000
0.1146750000000
0.1192130000000
0.1127910000000
0.0962568000000
0.0629083000000
0.0280323000000
0.0112351000000
0.0174183000000
0.0494673000000
0.0867967000000
0.1133310000000
0.1163290000000
0.1013930000000
0.0804569000000
0.0557821000000
0.0285287000000
0.0081624900000
0.0038741400000
0.0085582700000
0.0231714000000
0.0495965000000
0.0831365000000
0.1113810000000
0.1253480000000
0.1233530000000
0.1168070000000
0.0942708000000
0.0650828000000
0.0430927000000
0.0300392000000
0.0246085000000
0.0291290000000
0.0270335000000
0.0112418000000
-0.0046517600000
-0.0188041000000
-0.0323521000000
-0.0391071000000
-0.0421736000000
-0.0479488000000
-0.0530893000000
-0.0548879000000
-0.0508157000000
-0.0377085000000
-0.0242549000000
-0.0200739000000
-0.0214853000000
-0.0296183000000
-0.0360493000000
-0.0391443000000
-0.0369998000000
-0.0350074000000
-0.0349009000000
-0.0339181000000
-0.0355279000000
-0.0388645000000
-0.0436280000000
-0.0460207000000
-0.0430342000000
-0.0424016000000
-0.0438979000000
-0.0423080000000
-0.0357951000000
-0.0310354000000
-0.0304933000000
-0.0332062000000
-0.0349636000000
-0.0349902000000
-0.0317340000000
-0.0283356000000
-0.0294658000000
-0.0347013000000
-0.0400176000000
-0.0463331000000
-0.0519651000000
-0.0563454000000
-0.0566998000000
-0.0423936000000
-0.0146733000000
0.0101737000000
0.0155858000000
0.0037071200000
-0.0189020000000
-0.0390440000000
-0.0565327000000
-0.0746297000000
-0.0869331000000
-0.0910413000000
-0.0890201000000
-0.0827711000000
-0.0703479000000
-0.0534988000000
-0.0406752000000
-0.0369500000000
-0.0413218000000
-0.0470873000000
-0.0489539000000
-0.0475016000000
-0.0511574000000
-0.0563418000000
-0.0515404000000
-0.0399194000000
-0.0210983000000
-0.0118941000000
-0.0100932000000
-0.0113616000000
-0.0168073000000
-0.0201825000000
-0.0149507000000
-0.0095418100000
-0.0109096000000
-0.0157809000000
-0.0211268000000
-0.0291199000000
-0.0311457000000
-0.0245286000000
-0.0220616000000
-0.0248866000000
-0.0175349000000
-0.0078965100000
-0.0050894000000
-0.0075762400000
-0.0183660000000
-0.0354834000000
-0.0342570000000
-0.0381392000000
-0.0521236000000
-0.0578551000000
-0.0562997000000
-0.0418775000000
-0.0224586000000
-0.0078161600000
-0.0007710000000
0.0058938400000
0.0195738000000
0.0320504000000
0.0398694000000
0.0386419000000
0.0302696000000
0.0293069000000
0.0229554000000
0.0111643000000
-0.0031603300000
-0.0101849000000
-0.0044147000000
0.0006640320000
0.0040967600000
0.0084900700000
0.0136124000000
0.0181050000000
0.0215767000000
0.0213412000000
0.0205217000000
0.0188910000000
0.0184042000000
0.0183799000000
0.0208236000000
0.0262053000000
0.0319948000000
0.0367507000000
0.0422783000000
0.0458379000000
0.0481404000000
0.0482390000000
0.0484699000000
0.0432540000000
0.0371708000000
0.0319215000000
0.0275410000000
0.0261450000000
0.0244481000000
0.0200177000000
0.0154146000000
0.0139317000000
0.0172163000000
0.0255495000000
0.0344667000000
0.0420124000000
0.0456600000000
0.0452973000000
0.0417765000000
0.0360179000000
0.0313833000000
0.0266233000000
0.0297376000000
0.0375260000000
0.0423490000000
0.0379221000000
0.0286537000000
0.0217815000000
0.0229301000000
0.0264460000000
0.0313429000000
0.0379231000000
0.0422291000000
0.0446823000000
0.0440114000000
0.0404053000000
0.0367002000000
0.0291637000000
0.0212287000000
0.0179671000000
0.0179890000000
0.0258203000000
0.0300270000000
0.0312394000000
0.0332360000000
0.0355758000000
0.0352689000000
0.0340623000000
0.0309881000000
0.0323418000000
0.0367586000000
0.0415421000000
0.0416352000000
0.0414478000000
0.0406884000000
0.0374331000000
0.0295615000000
0.0176508000000
0.0074575900000
0.0062671100000
0.0046233400000
-0.0023079000000
-0.0078474600000
-0.0124287000000
-0.0111682000000
-0.0040292200000
-0.0077236100000
-0.0160479000000
-0.0217306000000
-0.0197196000000
-0.0188595000000
-0.0261242000000
-0.0334912000000
-0.0387263000000
-0.0373105000000
-0.0315961000000
-0.0230406000000
-0.0135525000000
-0.0050006600000
0.0021668900000
0.0059584500000
0.0050207700000
0.0006785670000
-0.0040294800000
-0.0032600200000
0.0015214800000
0.0011025200000
-0.0031305100000
-0.0094408600000
-0.0173122000000
-0.0265375000000
-0.0376841000000
-0.0482156000000
-0.0565533000000
-0.0582619000000
-0.0533165000000
-0.0441815000000
-0.0382868000000
-0.0360374000000
-0.0247254000000
-0.0158992000000
-0.0098695500000
-0.0089166000000
-0.0092518600000
-0.0046506300000
-0.0051950300000
-0.0148314000000
-0.0264650000000
-0.0371575000000
-0.0445124000000
-0.0484740000000
-0.0453418000000
-0.0372700000000
-0.0297714000000
-0.0297914000000
-0.0293458000000
-0.0267880000000
-0.0329252000000
-0.0399288000000
-0.0461041000000
-0.0473960000000
-0.0517922000000
-0.0571698000000
-0.0586090000000
-0.0564889000000
-0.0503887000000
-0.0516844000000
-0.0483766000000
-0.0396018000000
-0.0321776000000
-0.0256380000000
-0.0199701000000
-0.0194677000000
-0.0161652000000
-0.0110891000000
-0.0073760500000
-0.0041669500000
-0.0017833700000
-0.0027827000000
-0.0049136700000
-0.0043058500000
-0.0031454400000
0.0005431930000
0.0035940800000
0.0058120000000
0.0082937800000
0.0107996000000
0.0123744000000
0.0142456000000
0.0128057000000
0.0089658900000
0.0038330800000
0.0016723200000
0.0039794200000
0.0068137100000
0.0076231700000
0.0058490100000
0.0045830600000
0.0025520700000
-0.0028764800000
-0.0080581100000
-0.0115525000000
-0.0093206100000
-0.0042981100000
0.0049678800000
0.0132968000000
0.0167479000000
0.0169270000000
0.0156167000000
0.0138193000000
0.0113135000000
0.0094722200000
0.0128653000000
0.0197654000000
0.0266539000000
0.0306209000000
0.0294224000000
0.0249136000000
0.0176940000000
0.0061395300000
-0.0074078700000
-0.0149261000000
-0.0139608000000
-0.0047707800000
0.0106172000000
0.0238738000000
0.0374768000000
0.0409557000000
0.0376806000000
0.0353996000000
0.0338289000000
0.0308497000000
0.0267871000000
0.0249756000000
0.0269080000000
0.0287326000000
0.0293362000000
0.0306752000000
0.0303469000000
0.0269246000000
0.0212587000000
0.0146702000000
0.0114561000000
0.0090501600000
0.0075931300000
0.0099365700000
0.0110056000000
0.0096187300000
0.0084144500000
0.0106558000000
0.0138568000000
0.0170986000000
0.0204487000000
0.0210575000000
0.0171762000000
0.0139388000000
0.0104735000000
0.0092581000000
0.0111159000000
0.0138100000000
0.0162254000000
0.0170744000000
0.0218230000000
0.0283595000000
0.0279334000000
0.0235131000000
0.0180104000000
0.0101179000000
0.0025198700000
-0.0042159000000
-0.0080448300000
-0.0052879400000
0.0040625900000
0.0175584000000
0.0246763000000
0.0287015000000
0.0307978000000
0.0307798000000
0.0299943000000
0.0290910000000
0.0278407000000
0.0228684000000
0.0171304000000
0.0124263000000
0.0077245600000
0.0041162300000
-0.0009701470000
-0.0094908400000
-0.0165960000000
-0.0147019000000
-0.0062796200000
0.0010325500000
0.0081699500000
0.0119135000000
0.0134787000000
0.0125960000000
0.0086364100000
0.0015979600000
-0.0059146600000
-0.0086025400000
-0.0090929800000
-0.0102356000000
-0.0082104700000
-0.0051087500000
-0.0035936700000
-0.0075280800000
-0.0121119000000
-0.0203328000000
-0.0289655000000
-0.0361495000000
-0.0383934000000
-0.0364017000000
-0.0311926000000
-0.0262075000000
-0.0229387000000
-0.0223379000000
-0.0243971000000
-0.0316833000000
-0.0387464000000
-0.0458613000000
-0.0472144000000
-0.0452895000000
-0.0405109000000
-0.0336296000000
-0.0277360000000
-0.0238811000000
-0.0198607000000
-0.0179363000000
-0.0166740000000
-0.0138736000000
-0.0142633000000
-0.0143178000000
-0.0138949000000
-0.0139869000000
-0.0167661000000
-0.0215322000000
-0.0233229000000
-0.0250609000000
-0.0234210000000
-0.0184171000000
-0.0122824000000
-0.0074422800000
-0.0063382600000
-0.0072965700000
-0.0121003000000
-0.0159169000000
-0.0181051000000
-0.0216673000000
-0.0205408000000
-0.0187659000000
-0.0144017000000
-0.0088960100000
-0.0054040900000
-0.0067207300000
-0.0117431000000
-0.0171788000000
-0.0182200000000
-0.0166197000000
-0.0139641000000
-0.0115873000000
-0.0070517400000
-0.0013077000000
0.0014780900000
0.0006972620000
-0.0014178900000
-0.0029584400000
-0.0024626300000
-0.0021800600000
-0.0014054100000
0.0001417510000
0.0017810400000
0.0039018700000
0.0053380000000
0.0055559500000
0.0052487300000
0.0072998000000
0.0099898500000
0.0130583000000
0.0147275000000
0.0141129000000
0.0114076000000
0.0097887200000
0.0091501100000
0.0093700700000
0.0104013000000
0.0105652000000
0.0115317000000
0.0152338000000
0.0189822000000
0.0220367000000
0.0214341000000
0.0184769000000
0.0163266000000
0.0133993000000
0.0107575000000
0.0082954800000
0.0064395600000
0.0050236600000
0.0038790500000
0.0095381300000
0.0153753000000
0.0168776000000
0.0170628000000
0.0167666000000
0.0190936000000
0.0206223000000
0.0209183000000
0.0194851000000
0.0180892000000
0.0160092000000
0.0123751000000
0.0103786000000
0.0102488000000
0.0107129000000
0.0119900000000
0.0140861000000
0.0149201000000
0.0147763000000
0.0121367000000
0.0084955100000
0.0070488900000
0.0070861200000
0.0077480800000
0.0067469300000
0.0076061300000
0.0094772800000
0.0109816000000
0.0126501000000
0.0115078000000
0.0088088100000
0.0075553600000
0.0083235400000
0.0103873000000
0.0128544000000
0.0149880000000
0.0178013000000
0.0184339000000
0.0202267000000
0.0229323000000
0.0241772000000
0.0219502000000
0.0163770000000
0.0105786000000
0.0050187800000
0.0010850700000
-0.0001416160000
-0.0006546230000
-0.0002988770000
-0.0018968000000
-0.0038213500000
-0.0049836400000
-0.0057485300000
-0.0056462100000
-0.0038635600000
-0.0023323700000
0.0000734956000
0.0020251800000
0.0072137400000
0.0146111000000
0.0183786000000
0.0165447000000
0.0138948000000
0.0100120000000
0.0045681900000
-0.0006296310000
-0.0030592000000
-0.0027926600000
-0.0015708200000
0.0013704400000
0.0025265800000
0.0008812280000
-0.0015078900000
-0.0052553400000
-0.0088949500000
-0.0119359000000
-0.0127456000000
-0.0141997000000
-0.0107343000000
-0.0056880700000
-0.0028968400000
-0.0025859500000
-0.0029295700000
-0.0056770500000
-0.0102029000000
-0.0169418000000
-0.0192281000000
-0.0184167000000
-0.0162733000000
-0.0124796000000
-0.0082016000000
-0.0047415200000
-0.0028349800000
-0.0030555700000
-0.0049214300000
-0.0072453900000
-0.0094024400000
-0.0125009000000
-0.0120775000000
-0.0075340300000
-0.0031706700000
0.0018879600000
0.0066638100000
0.0111049000000
0.0113303000000
0.0083752100000
0.0005640300000
-0.0094242600000
-0.0186531000000
-0.0249678000000
-0.0236784000000
-0.0202838000000
-0.0154022000000
-0.0097617700000
-0.0041949200000
0.0007957610000
0.0043007700000
0.0061309500000
0.0049124600000
0.0010219000000
-0.0030436600000
-0.0059204200000
-0.0040237200000
-0.0004167490000
0.0006223240000
0.0011831100000
-0.0000931316000
-0.0050781000000
-0.0098064300000
-0.0115927000000
-0.0136888000000
-0.0154839000000
-0.0136821000000
-0.0089673400000
-0.0055076300000
-0.0033480400000
-0.0042589400000
-0.0067641900000
-0.0066243400000
-0.0059559800000
-0.0055383500000
-0.0042194200000
-0.0031667700000
-0.0030963200000
-0.0057504400000
-0.0046495800000
-0.0008026520000
0.0015258500000
0.0000796297000
-0.0016361100000
-0.0012948900000
0.0022154000000
0.0064926600000
0.0084617300000
0.0085996100000
0.0052758300000
0.0019438400000
-0.0007922330000
-0.0024318200000
-0.0030084400000
-0.0050874000000
-0.0078673900000
-0.0102075000000
-0.0117678000000
-0.0109458000000
-0.0087330700000
-0.0051041700000
-0.0029099300000
-0.0023441500000
-0.0030388900000
-0.0050118700000
-0.0057756700000
-0.0037800900000
-0.0020477900000
0.0014263500000
0.0067516500000
0.0109915000000
0.0130782000000
0.0125588000000
0.0090680200000
0.0027958100000
-0.0042818300000
-0.0124795000000
-0.0159744000000
-0.0164970000000
-0.0133857000000
-0.0088568300000
-0.0039172100000
-0.0009371820000
0.0019299700000
0.0026705100000
0.0025614800000
0.0040026400000
0.0029185700000
0.0016418900000
-0.0004752510000
-0.0052621000000
-0.0080420300000
-0.0101117000000
-0.0094139800000
-0.0098161000000
-0.0103080000000
-0.0097494300000
-0.0099046600000
-0.0112663000000
-0.0125749000000
-0.0148743000000
-0.0163746000000
-0.0149070000000
-0.0134421000000
-0.0104149000000
-0.0110940000000
-0.0148376000000
-0.0192409000000
-0.0231630000000
-0.0272174000000
-0.0265230000000
-0.0239217000000
-0.0179187000000
-0.0094992100000
-0.0020483800000
0.0025819500000
0.0031953300000
-0.0004597090000
-0.0053473900000
-0.0112967000000
-0.0157529000000
-0.0151489000000
-0.0140087000000
-0.0134406000000
-0.0132170000000
-0.0122671000000
-0.0112167000000
-0.0063579900000
-0.0005496930000
0.0050085000000
0.0109131000000
0.0163143000000
0.0185113000000
0.0163268000000
0.0141459000000
0.0121462000000
0.0107854000000
0.0081622900000
0.0060947100000
0.0039901900000
0.0034084600000
0.0032366400000
0.0045443000000
0.0068903700000
0.0132203000000
0.0196153000000
0.0232818000000
0.0254833000000
0.0267648000000
0.0278060000000
0.0270546000000
0.0261594000000
0.0261430000000
0.0249793000000
0.0256683000000
0.0264813000000
0.0270653000000
0.0281149000000
0.0276646000000
0.0249737000000
0.0221911000000
0.0184808000000
0.0140824000000
0.0094326800000
0.0065787000000
0.0043316700000
0.0052255000000
0.0077712600000
0.0108307000000
0.0125660000000
0.0120760000000
0.0095092600000
0.0074069300000
0.0047300100000
0.0034057500000
0.0029270900000
0.0030232700000
0.0059031100000
0.0096562600000
0.0118927000000
0.0125021000000
0.0078563600000
0.0034407800000
0.0007883750000
-0.0022999700000
-0.0061850800000
-0.0071492100000
-0.0042032300000
-0.0012762200000
0.0016613600000
0.0049026000000
0.0069035900000
0.0043362800000
-0.0001628570000
-0.0041266500000
-0.0053252700000
-0.0051050500000
-0.0046811400000
-0.0036308600000
-0.0044337500000
-0.0065815300000
-0.0085326000000
-0.0080096300000
-0.0061954600000
-0.0051142000000
-0.0051132800000
-0.0055320900000
-0.0058791500000
-0.0076746900000
-0.0109232000000
-0.0111255000000
-0.0104821000000
-0.0081994200000
-0.0064868500000
-0.0065559300000
-0.0058611500000
-0.0060223400000
-0.0054067900000
-0.0045166200000
-0.0056747300000
-0.0082847500000
-0.0083135300000
-0.0077099300000
-0.0075590700000
-0.0071260400000
-0.0047691800000
-0.0034769400000
-0.0035948100000
-0.0054533700000
-0.0073894700000
-0.0081235300000
-0.0055762100000
-0.0018531100000
0.0010274100000
0.0035527400000
0.0038190800000
0.0040354700000
0.0049775300000
0.0042936600000
0.0038770700000
0.0032559200000
0.0018341700000
-0.0004815330000
-0.0017725700000
-0.0034620500000
-0.0044041400000
-0.0042229200000
-0.0017781000000
0.0033962100000
0.0066226600000
0.0092904000000
0.0105623000000
0.0086664500000
0.0075938000000
0.0068641100000
0.0061733300000
0.0076540600000
0.0086629000000
0.0091940000000
0.0099852400000
0.0105312000000
0.0118013000000
0.0105276000000
0.0078751900000
0.0033780800000
-0.0008262050000
-0.0015928100000
-0.0003043070000
0.0025686600000
0.0046340700000
0.0028128800000
0.0005296170000
-0.0015305800000
-0.0028131500000
-0.0016144200000
0.0016307000000
0.0025580500000
0.0017255500000
0.0024052300000
0.0028220700000
0.0027675600000
0.0017294300000
-0.0002504430000
-0.0028439500000
-0.0042913800000
-0.0056504400000
-0.0069900100000
-0.0094452700000
-0.0130171000000
-0.0149151000000
-0.0153155000000
-0.0146368000000
-0.0128427000000
-0.0092886200000
-0.0052056800000
-0.0027617200000
-0.0008439600000
0.0006630770000
0.0002997130000
-0.0010966100000
-0.0028767000000
-0.0054250700000
-0.0075398900000
-0.0078958400000
-0.0062873000000
-0.0045638100000
-0.0022777800000
-0.0010614500000
-0.0011291000000
0.0004025340000
0.0002797580000
-0.0009894760000
-0.0029881900000
-0.0054723800000
-0.0063350200000
-0.0065972100000
-0.0057233500000
-0.0044437400000
-0.0026556700000
-0.0023489700000
-0.0000839289000
0.0013754600000
0.0016766000000
-0.0003068670000
-0.0006835870000
-0.0010147200000
-0.0018487800000
-0.0019707500000
-0.0020856600000
-0.0021657100000
-0.0027032900000
-0.0033036600000
-0.0038680500000
-0.0031570600000
-0.0027154400000
0.0001101640000
0.0025676800000
0.0041842000000
0.0047223400000
0.0047764700000
0.0032034200000
0.0026757100000
0.0017566700000
0.0001391910000
0.0012323000000
0.0031845900000
0.0051048700000
0.0074554900000
0.0089799000000
0.0101008000000
0.0086328700000
0.0058112500000
0.0033333500000
0.0026628700000
0.0040572400000
0.0049008900000
0.0078762600000
0.0114862000000
0.0139792000000
0.0155213000000
0.0155489000000
0.0138014000000
0.0101329000000
0.0064584700000
0.0042564100000
0.0032241200000
0.0023070200000
0.0021445400000
0.0040594600000
0.0076096800000
0.0086880500000
0.0068396900000
0.0031722400000
0.0009106350000
0.0002913010000
0.0001257170000
0.0005892430000
0.0015603800000
0.0040197200000
0.0059065100000
0.0066506300000
0.0058225800000
0.0027805500000
-0.0007790540000
-0.0028648800000
-0.0037462500000
-0.0037397500000
-0.0038675700000
-0.0027394600000
-0.0017097600000
-0.0006119640000
-0.0001048090000
-0.0013194300000
-0.0028792900000
-0.0040700600000
-0.0051925500000
-0.0054262900000
-0.0059729800000
-0.0076213800000
-0.0081935700000
-0.0074488200000
-0.0072118700000
-0.0072344200000
-0.0069078000000
-0.0066740500000
-0.0064286200000
-0.0068329000000
-0.0072783500000
-0.0082606400000
-0.0088362300000
-0.0089979500000
-0.0075857100000
-0.0062410400000
-0.0043549700000
-0.0032928400000
-0.0028226700000
-0.0022443700000
-0.0023028500000
-0.0023210300000
-0.0022220700000
-0.0022475300000
-0.0027962100000
-0.0022799800000
-0.0018585200000
-0.0012663400000
-0.0009159160000
-0.0013229200000
-0.0017768700000
-0.0013042200000
-0.0009384870000
-0.0004869320000
0.0002080440000
0.0002143440000
0.0001146980000
-0.0000957897000
-0.0002220280000
0.0003183110000
0.0007680190000
0.0012334000000
0.0015485500000
0.0016814700000
0.0016283300000
0.0013628000000
0.0010434600000
0.0008791030000
0.0005472090000
0.0003877020000
0.0006474510000
0.0008764060000
0.0009808690000
0.0010336700000
0.0010768700000
0.0010615600000
0.0010281200000
0.0009387910000
0.0008244790000
0.0007772370000
0.0007816710000
0.0007865960000
0.0007960690000
0.0007729240000
0.0007118610000
0.0006374970000
0.0005704490000
0.0005042870000
0.0004967050000
0.0004974470000
0.0004985970000
0.0004903960000
0.0004918010000
0.0004844660000
0.0004547240000
0.0004313930000
0.0004025530000
0.0003745510000
0.0003575650000
0.0003402160000
0.0003218890000
0.0003073190000
0.0002942120000
0.0002817070000
0.0002710420000
0.0002598970000
0.0002478110000
0.0002383780000
0.0002295890000
0.0002227340000
0.0002164630000
0.0002106270000
0.0002050260000
0.0001995940000
0.0001942150000
0.0001889260000
0.0001838040000
0.0001787860000
0.0001738320000
0.0001688850000
0.0001639210000
0.0001589080000
0.0000000000000
