0.0008409080000
0.0008448420000
0.0008095480000
0.0008245240000
0.0007679660000
0.0007195880000
0.0006332850000
0.0005902330000
0.0005823910000
0.0006990400000
0.0008040320000
0.0009489180000
0.0008869920000
0.0007872040000
0.0006812080000
0.0006239820000
0.0004705360000
0.0004448930000
0.0005937980000
0.0006089930000
0.0008068930000
0.0006878890000
0.0004552710000
0.0002017260000
-0.0004115640000
-0.0009473250000
-0.0011396400000
-0.0007400510000
0.0000840168000
0.0004375230000
0.0003790790000
0.0004587270000
0.0000956932000
-0.0006795320000
-0.0016774300000
-0.0016368900000
-0.0007138040000
0.0008939420000
0.0029711300000
0.0042292200000
0.0051387000000
0.0053261800000
0.0044356300000
0.0036342300000
0.0027951000000
0.0016753800000
0.0005826540000
-0.0006369070000
-0.0015381000000
-0.0006231490000
0.0016011100000
0.0031849000000
0.0032139000000
0.0024681700000
0.0014780900000
-0.0001390020000
-0.0003884220000
0.0001632840000
-0.0006147120000
-0.0027031700000
-0.0033652700000
-0.0046838600000
-0.0067383800000
-0.0068528000000
-0.0032522500000
0.0026096200000
0.0087148700000
0.0126877000000
0.0111481000000
0.0074146700000
0.0055993500000
0.0053677500000
0.0075584100000
0.0094073100000
0.0082325700000
0.0026095100000
-0.0041718300000
-0.0086458700000
-0.0081459700000
-0.0049539900000
0.0022750900000
0.0093866500000
0.0151056000000
0.0176408000000
0.0175268000000
0.0145427000000
0.0082145900000
0.0006969910000
-0.0073008800000
-0.0139278000000
-0.0173942000000
-0.0180048000000
-0.0152385000000
-0.0073545500000
0.0027866300000
0.0090295000000
0.0088583400000
0.0052005600000
0.0008821900000
-0.0007675960000
-0.0032984800000
-0.0064995200000
-0.0083882600000
-0.0088356000000
-0.0066133100000
-0.0035081600000
-0.0002696020000
0.0029462500000
0.0018753100000
-0.0040117000000
-0.0123452000000
-0.0200975000000
-0.0266216000000
-0.0270661000000
-0.0206595000000
-0.0075832900000
0.0053958800000
0.0138275000000
0.0194386000000
0.0182804000000
0.0089019200000
-0.0006689210000
-0.0087465900000
-0.0143637000000
-0.0196794000000
-0.0221067000000
-0.0185755000000
-0.0111585000000
-0.0032780800000
0.0023470400000
0.0053822200000
0.0034435400000
-0.0025378700000
-0.0104470000000
-0.0178144000000
-0.0196811000000
-0.0157050000000
-0.0072875100000
0.0017733400000
0.0100023000000
0.0166469000000
0.0207350000000
0.0200932000000
0.0147668000000
0.0111828000000
0.0101795000000
0.0081844900000
0.0067485000000
0.0091136600000
0.0133827000000
0.0171562000000
0.0157423000000
0.0095011500000
-0.0001692530000
-0.0095268300000
-0.0144147000000
-0.0134909000000
-0.0095637700000
-0.0060377900000
-0.0010747800000
0.0029841500000
0.0059041000000
0.0052382100000
0.0032811700000
0.0023391800000
0.0006154800000
-0.0017393200000
-0.0021867000000
0.0005442360000
0.0079946700000
0.0178452000000
0.0277165000000
0.0332296000000
0.0348318000000
0.0319091000000
0.0281252000000
0.0222669000000
0.0161699000000
0.0077205500000
-0.0014093300000
-0.0119613000000
-0.0229312000000
-0.0311600000000
-0.0349468000000
-0.0336790000000
-0.0255949000000
-0.0162442000000
-0.0086765500000
-0.0019244400000
0.0027541300000
0.0052286800000
0.0089495400000
0.0118243000000
0.0146569000000
0.0158431000000
0.0139050000000
0.0116647000000
0.0099477600000
0.0107860000000
0.0137939000000
0.0137003000000
0.0082390700000
-0.0005950110000
-0.0117026000000
-0.0200883000000
-0.0185955000000
-0.0058972800000
0.0151923000000
0.0366175000000
0.0559332000000
0.0651138000000
0.0645262000000
0.0550519000000
0.0303742000000
0.0007412380000
-0.0271071000000
-0.0513602000000
-0.0604106000000
-0.0571375000000
-0.0393834000000
-0.0144237000000
0.0085465900000
0.0240864000000
0.0284460000000
0.0181128000000
-0.0039551900000
-0.0286096000000
-0.0449609000000
-0.0517774000000
-0.0477839000000
-0.0348528000000
-0.0068213500000
0.0190881000000
0.0302450000000
0.0361933000000
0.0347952000000
0.0241442000000
0.0094160400000
-0.0029097500000
-0.0076487000000
-0.0084880600000
-0.0104814000000
-0.0150997000000
-0.0219529000000
-0.0332821000000
-0.0471707000000
-0.0603644000000
-0.0642787000000
-0.0575590000000
-0.0376409000000
-0.0147889000000
0.0045484600000
0.0166868000000
0.0269960000000
0.0363840000000
0.0418328000000
0.0439488000000
0.0383969000000
0.0215376000000
0.0022195400000
-0.0117020000000
-0.0167498000000
-0.0106186000000
0.0001466140000
0.0058984800000
0.0031534200000
-0.0022752600000
-0.0037762100000
0.0033433700000
0.0159469000000
0.0270768000000
0.0273642000000
0.0169769000000
-0.0002139550000
-0.0213999000000
-0.0408336000000
-0.0606136000000
-0.0708995000000
-0.0743553000000
-0.0693833000000
-0.0583478000000
-0.0263466000000
0.0131441000000
0.0484454000000
0.0691595000000
0.0767167000000
0.0743611000000
0.0644021000000
0.0472741000000
0.0247541000000
0.0023399600000
-0.0149475000000
-0.0218559000000
-0.0217645000000
-0.0128451000000
0.0013594600000
0.0127139000000
0.0200768000000
0.0218827000000
0.0199729000000
0.0178013000000
0.0132615000000
0.0066771800000
-0.0023340000000
-0.0098398700000
-0.0151844000000
-0.0194590000000
-0.0248512000000
-0.0330346000000
-0.0415999000000
-0.0476763000000
-0.0484114000000
-0.0458100000000
-0.0357154000000
-0.0179925000000
0.0024076100000
0.0179523000000
0.0258474000000
0.0260132000000
0.0192309000000
0.0104313000000
0.0002471960000
-0.0119415000000
-0.0205118000000
-0.0218519000000
-0.0138347000000
0.0017258200000
0.0176481000000
0.0265522000000
0.0281012000000
0.0245107000000
0.0209083000000
0.0212665000000
0.0254315000000
0.0330312000000
0.0394197000000
0.0411238000000
0.0373439000000
0.0240924000000
0.0042281900000
-0.0127002000000
-0.0219749000000
-0.0230832000000
-0.0116283000000
0.0114235000000
0.0287677000000
0.0391269000000
0.0428046000000
0.0361763000000
0.0244279000000
0.0147426000000
0.0073002200000
0.0039001800000
0.0041202400000
0.0045578600000
0.0048531500000
0.0040043200000
-0.0002489910000
-0.0095295900000
-0.0227570000000
-0.0382035000000
-0.0506899000000
-0.0602368000000
-0.0678180000000
-0.0729552000000
-0.0781328000000
-0.0849276000000
-0.0915936000000
-0.0945144000000
-0.0937375000000
-0.0909393000000
-0.0862941000000
-0.0831032000000
-0.0830009000000
-0.0874360000000
-0.0970077000000
-0.1097460000000
-0.1187530000000
-0.1224540000000
-0.1127570000000
-0.0846514000000
-0.0404945000000
-0.0063293800000
0.0128694000000
0.0230073000000
0.0241713000000
0.0178185000000
0.0078518900000
-0.0028328100000
-0.0033153300000
0.0068630800000
0.0228646000000
0.0344295000000
0.0432858000000
0.0508053000000
0.0572801000000
0.0609730000000
0.0687426000000
0.0824865000000
0.1080830000000
0.1404930000000
0.1667250000000
0.1667190000000
0.1283930000000
0.0146649000000
-0.0617029000000
-0.0952312000000
-0.1208980000000
-0.1330360000000
-0.1365020000000
-0.1186590000000
-0.0927083000000
-0.0722080000000
-0.0673380000000
-0.0751625000000
-0.0923003000000
-0.1096600000000
-0.1243260000000
-0.1246220000000
-0.1183160000000
-0.0448582000000
0.0788942000000
0.1529270000000
0.1977750000000
0.2308500000000
0.2367540000000
0.2215200000000
0.1765730000000
0.1083510000000
0.0256395000000
-0.0152926000000
-0.0191396000000
-0.0087991800000
0.0082398500000
0.0153325000000
-0.0130061000000
-0.0765078000000
-0.1295230000000
-0.1596770000000
-0.1896300000000
-0.2205580000000
-0.2355920000000
-0.2410800000000
-0.2334340000000
-0.2221450000000
-0.2078640000000
-0.1899070000000
-0.1624380000000
-0.1278210000000
-0.0975376000000
-0.0865210000000
-0.0909780000000
-0.0955892000000
-0.0960377000000
-0.0871305000000
-0.0578159000000
0.0070350900000
0.0755539000000
0.1300490000000
0.1795930000000
0.2201080000000
0.2526780000000
0.2755300000000
0.2969850000000
0.3152320000000
0.3302640000000
0.3505830000000
0.3845640000000
0.4100410000000
0.4089770000000
0.3775030000000
0.3352880000000
0.3092220000000
0.2909670000000
0.2485550000000
0.1899580000000
0.1372530000000
0.0861382000000
0.0539661000000
0.0413876000000
0.0365092000000
0.0413745000000
0.0531404000000
0.0651451000000
0.0771059000000
0.0915508000000
0.0974254000000
0.1011470000000
0.1033090000000
0.1050200000000
0.1054200000000
0.1061880000000
0.1053370000000
0.1039870000000
0.0888099000000
0.0530079000000
-0.0565433000000
-0.2029380000000
-0.2447410000000
-0.2100450000000
-0.2108790000000
-0.2350950000000
-0.2517070000000
-0.2359290000000
-0.2085550000000
-0.1780200000000
-0.1503290000000
-0.1353780000000
-0.1294990000000
-0.1327680000000
-0.1622560000000
-0.1967810000000
-0.2121760000000
-0.1593080000000
-0.1044790000000
-0.0626616000000
-0.0236729000000
0.0066887600000
0.0463910000000
0.0513882000000
0.0551380000000
0.0806961000000
0.0991660000000
0.1275770000000
0.1622200000000
0.2055200000000
0.2461290000000
0.2755310000000
0.3040670000000
0.3253360000000
0.3333680000000
0.3219380000000
0.2958810000000
0.2546990000000
0.2096470000000
0.1739210000000
0.1415810000000
0.1087960000000
0.0773396000000
0.0410928000000
0.0047479100000
-0.0314165000000
-0.0644920000000
-0.0869207000000
-0.1097490000000
-0.1383840000000
-0.1462450000000
-0.1405990000000
-0.1248820000000
-0.0988958000000
-0.0755136000000
-0.0606926000000
-0.0665142000000
-0.0790671000000
-0.0958201000000
-0.1190120000000
-0.1419560000000
-0.1681580000000
-0.1919750000000
-0.2165370000000
-0.2382150000000
-0.2572360000000
-0.2698370000000
-0.2794930000000
-0.2746140000000
-0.2555570000000
-0.2285010000000
-0.1963380000000
-0.1627480000000
-0.1318790000000
-0.1066170000000
-0.0884159000000
-0.0729524000000
-0.0518694000000
-0.0128321000000
0.0338762000000
0.0798865000000
0.1167780000000
0.1483020000000
0.1679880000000
0.1722220000000
0.1636750000000
0.1400770000000
0.0939925000000
0.0298584000000
-0.0363624000000
-0.0917145000000
-0.1286020000000
-0.1587650000000
-0.1787930000000
-0.1820080000000
-0.1526250000000
-0.1085480000000
-0.0637322000000
-0.0097359200000
0.0311558000000
0.0609851000000
0.0865172000000
0.1026230000000
0.1040470000000
0.0886801000000
0.0382828000000
-0.0299365000000
-0.0838776000000
-0.1156470000000
-0.1448290000000
-0.1696030000000
-0.1866740000000
-0.1967450000000
-0.1937070000000
-0.1834330000000
-0.1691060000000
-0.1551120000000
-0.1429410000000
-0.1278320000000
-0.1078660000000
-0.0852423000000
-0.0601060000000
-0.0339729000000
-0.0129123000000
-0.0054283500000
-0.0108075000000
-0.0245830000000
-0.0418770000000
-0.0554405000000
-0.0660476000000
-0.0785490000000
-0.0960123000000
-0.1106680000000
-0.1249490000000
-0.1420120000000
-0.1571060000000
-0.1665030000000
-0.1736730000000
-0.1779200000000
-0.1709590000000
-0.1527820000000
-0.1154270000000
-0.0641529000000
-0.0119342000000
0.0361062000000
0.0795814000000
0.1182160000000
0.1599240000000
0.1929850000000
0.2119660000000
0.2266170000000
0.2365470000000
0.2505810000000
0.2699130000000
0.2935830000000
0.3090720000000
0.3132020000000
0.3158460000000
0.3091280000000
0.2978400000000
0.2742980000000
0.2530320000000
0.2404770000000
0.2337340000000
0.2247870000000
0.2093020000000
0.1840180000000
0.1608080000000
0.1399920000000
0.1224360000000
0.1099060000000
0.1035250000000
0.1000860000000
0.0994751000000
0.0921264000000
0.0845610000000
0.0568760000000
0.0222344000000
-0.0167097000000
-0.0604754000000
-0.1056090000000
-0.1320600000000
-0.1459560000000
-0.1661340000000
-0.1831530000000
-0.1893650000000
-0.1906770000000
-0.1885250000000
-0.1780680000000
-0.1623010000000
-0.1405710000000
-0.1202610000000
-0.1064120000000
-0.0949100000000
-0.0833149000000
-0.0663993000000
-0.0348460000000
0.0294805000000
0.0962825000000
0.1424910000000
0.1840220000000
0.2146670000000
0.2261210000000
0.2206150000000
0.1947520000000
0.1357260000000
0.0575627000000
0.0045445600000
-0.0237342000000
-0.0301667000000
-0.0131276000000
0.0419060000000
0.1045810000000
0.1529120000000
0.1939680000000
0.2149280000000
0.2152630000000
0.2060430000000
0.1944530000000
0.1665340000000
0.1321390000000
0.1024540000000
0.0797937000000
0.0636552000000
0.0536162000000
0.0438825000000
0.0287416000000
0.0091777800000
-0.0183218000000
-0.0597914000000
-0.1041290000000
-0.1463780000000
-0.1785370000000
-0.1989570000000
-0.2151460000000
-0.2273000000000
-0.2285310000000
-0.2225750000000
-0.2171890000000
-0.2204490000000
-0.2265500000000
-0.2298000000000
-0.2327480000000
-0.2361680000000
-0.2405950000000
-0.2461890000000
-0.2367900000000
-0.2132530000000
-0.1971240000000
-0.1401910000000
-0.0576394000000
-0.0008840440000
0.0270544000000
0.0499607000000
0.0578560000000
0.0561158000000
0.0509429000000
0.0453451000000
0.0438465000000
0.0424197000000
0.0475934000000
0.0600335000000
0.0805704000000
0.1071400000000
0.1449480000000
0.1829490000000
0.2281270000000
0.2817510000000
0.3222510000000
0.3341710000000
0.3068040000000
0.2293440000000
0.1567920000000
0.0790748000000
0.0160301000000
-0.0132795000000
-0.0339615000000
-0.0481449000000
-0.0587847000000
-0.0683209000000
-0.0785909000000
-0.0862895000000
-0.0887349000000
-0.0817824000000
-0.0684897000000
-0.0520470000000
-0.0355347000000
-0.0202302000000
-0.0107806000000
-0.0084901300000
-0.0106217000000
-0.0152762000000
-0.0206066000000
-0.0260749000000
-0.0330517000000
-0.0425174000000
-0.0519571000000
-0.0640222000000
-0.0786409000000
-0.0921205000000
-0.1093200000000
-0.1221340000000
-0.1291980000000
-0.1307780000000
-0.1233160000000
-0.1021700000000
-0.0719440000000
-0.0471401000000
-0.0320354000000
-0.0220390000000
-0.0166127000000
-0.0178012000000
-0.0224039000000
-0.0290988000000
-0.0353219000000
-0.0405121000000
-0.0413683000000
-0.0366384000000
-0.0279394000000
-0.0143793000000
-0.0013222800000
0.0082815900000
0.0128525000000
0.0104154000000
0.0052144100000
-0.0008882380000
-0.0055707000000
-0.0081231300000
-0.0090129900000
-0.0119544000000
-0.0152075000000
-0.0220841000000
-0.0305549000000
-0.0446356000000
-0.0572673000000
-0.0746089000000
-0.0944907000000
-0.1036230000000
-0.1055690000000
-0.0997325000000
-0.0875499000000
-0.0654448000000
-0.0490109000000
-0.0425050000000
-0.0430403000000
-0.0505642000000
-0.0613349000000
-0.0699429000000
-0.0731124000000
-0.0671360000000
-0.0478712000000
-0.0196408000000
0.0135852000000
0.0419171000000
0.0695981000000
0.0893126000000
0.1059380000000
0.1163920000000
0.1247230000000
0.1314900000000
0.1383060000000
0.1413180000000
0.1416030000000
0.1348020000000
0.1168340000000
0.0699158000000
0.0042941800000
-0.0534463000000
-0.0908344000000
-0.1158360000000
-0.1292070000000
-0.1345810000000
-0.1310190000000
-0.1202470000000
-0.0997878000000
-0.0632672000000
-0.0121079000000
0.0355520000000
0.0688997000000
0.0955351000000
0.1179320000000
0.1345960000000
0.1426130000000
0.1390750000000
0.1233670000000
0.0787805000000
0.0206571000000
-0.0357663000000
-0.0735695000000
-0.0936452000000
-0.1028380000000
-0.1015910000000
-0.0839171000000
-0.0454039000000
-0.0039186700000
0.0186290000000
0.0284007000000
0.0243611000000
0.0082201300000
-0.0144255000000
-0.0334086000000
-0.0466667000000
-0.0485520000000
-0.0415696000000
-0.0178151000000
0.0118469000000
0.0374144000000
0.0605776000000
0.0767667000000
0.0872169000000
0.0952041000000
0.1022230000000
0.1114220000000
0.1222160000000
0.1345430000000
0.1476290000000
0.1599810000000
0.1679700000000
0.1689740000000
0.1608480000000
0.1423870000000
0.1111490000000
0.0764696000000
0.0416538000000
0.0176071000000
0.0054561900000
-0.0018874300000
0.0023908400000
0.0133299000000
0.0336775000000
0.0483220000000
0.0550378000000
0.0562106000000
0.0518480000000
0.0459632000000
0.0407621000000
0.0366131000000
0.0347155000000
0.0347618000000
0.0350038000000
0.0357369000000
0.0334404000000
0.0296114000000
0.0208443000000
0.0099159600000
-0.0042430100000
-0.0178877000000
-0.0323168000000
-0.0489490000000
-0.0659941000000
-0.0834629000000
-0.1002620000000
-0.1120810000000
-0.1151400000000
-0.1126590000000
-0.0993966000000
-0.0731778000000
-0.0458223000000
-0.0192242000000
-0.0052676100000
-0.0022508700000
-0.0018204100000
-0.0035144200000
-0.0012375600000
0.0041753800000
0.0106567000000
0.0150123000000
0.0169686000000
0.0141140000000
0.0097565400000
0.0042546600000
-0.0010352300000
-0.0038646900000
-0.0056062000000
-0.0099708800000
-0.0181476000000
-0.0297875000000
-0.0453847000000
-0.0582853000000
-0.0658038000000
-0.0682815000000
-0.0645655000000
-0.0537132000000
-0.0376473000000
-0.0196392000000
-0.0087078900000
-0.0020983900000
0.0026755400000
0.0058716100000
0.0100368000000
0.0153275000000
0.0193032000000
0.0238887000000
0.0267968000000
0.0223741000000
0.0133301000000
-0.0004958580000
-0.0129377000000
-0.0218089000000
-0.0252499000000
-0.0252166000000
-0.0170063000000
-0.0045360500000
0.0040177900000
0.0079647600000
0.0027569000000
-0.0076480900000
-0.0192488000000
-0.0249165000000
-0.0255072000000
-0.0227514000000
-0.0169374000000
-0.0042426900000
0.0129547000000
0.0254517000000
0.0315132000000
0.0263420000000
0.0081774900000
-0.0150300000000
-0.0387354000000
-0.0621352000000
-0.0820025000000
-0.0930516000000
-0.0983329000000
-0.0992705000000
-0.0949842000000
-0.0835153000000
-0.0665526000000
-0.0502903000000
-0.0365715000000
-0.0305918000000
-0.0293993000000
-0.0301455000000
-0.0310067000000
-0.0305101000000
-0.0290504000000
-0.0255620000000
-0.0224749000000
-0.0177770000000
-0.0113783000000
-0.0001796800000
0.0175444000000
0.0362107000000
0.0531461000000
0.0692664000000
0.0844454000000
0.0985129000000
0.1091210000000
0.1172100000000
0.1206730000000
0.1195670000000
0.1154850000000
0.1096120000000
0.1026590000000
0.0936385000000
0.0736077000000
0.0467931000000
0.0215744000000
-0.0034525500000
-0.0199383000000
-0.0252025000000
-0.0277842000000
-0.0290963000000
-0.0300063000000
-0.0326470000000
-0.0355241000000
-0.0380492000000
-0.0367078000000
-0.0307735000000
-0.0204380000000
-0.0096662500000
0.0003773480000
0.0061241500000
0.0064338100000
0.0026135500000
-0.0078377600000
-0.0210748000000
-0.0351516000000
-0.0493259000000
-0.0603679000000
-0.0633818000000
-0.0562694000000
-0.0350164000000
-0.0067773300000
0.0184655000000
0.0419928000000
0.0541390000000
0.0541660000000
0.0485105000000
0.0363978000000
0.0220897000000
0.0123844000000
0.0095411300000
0.0121361000000
0.0211839000000
0.0342839000000
0.0459623000000
0.0546668000000
0.0642398000000
0.0700984000000
0.0760507000000
0.0801611000000
0.0827302000000
0.0864129000000
0.0913511000000
0.0939882000000
0.0943182000000
0.0888540000000
0.0737427000000
0.0498548000000
0.0245944000000
0.0067489000000
-0.0031756100000
-0.0079230700000
-0.0086955600000
-0.0042667100000
0.0022649600000
0.0076969200000
0.0078520900000
0.0019647900000
-0.0100658000000
-0.0212222000000
-0.0306373000000
-0.0373525000000
-0.0412235000000
-0.0416121000000
-0.0379631000000
-0.0329201000000
-0.0289278000000
-0.0262914000000
-0.0256295000000
-0.0272467000000
-0.0295599000000
-0.0302890000000
-0.0305034000000
-0.0331621000000
-0.0342163000000
-0.0358486000000
-0.0386311000000
-0.0426179000000
-0.0487330000000
-0.0559054000000
-0.0636295000000
-0.0691141000000
-0.0696531000000
-0.0612531000000
-0.0390018000000
-0.0110103000000
0.0143908000000
0.0321033000000
0.0372296000000
0.0332247000000
0.0204695000000
0.0025053700000
-0.0119968000000
-0.0173412000000
-0.0133819000000
-0.0018170000000
0.0105622000000
0.0216165000000
0.0262733000000
0.0247835000000
0.0168945000000
0.0065573700000
-0.0071494900000
-0.0183839000000
-0.0268687000000
-0.0353570000000
-0.0425606000000
-0.0500680000000
-0.0566826000000
-0.0621502000000
-0.0627998000000
-0.0579634000000
-0.0510122000000
-0.0420394000000
-0.0301731000000
-0.0209110000000
-0.0136205000000
-0.0121419000000
-0.0141396000000
-0.0197386000000
-0.0275502000000
-0.0328551000000
-0.0358113000000
-0.0370458000000
-0.0348571000000
-0.0318765000000
-0.0288216000000
-0.0260918000000
-0.0239271000000
-0.0206971000000
-0.0159172000000
-0.0091934100000
0.0007437800000
0.0110222000000
0.0202475000000
0.0268783000000
0.0313749000000
0.0327991000000
0.0295603000000
0.0230787000000
0.0158856000000
0.0085363400000
0.0024536100000
0.0005369690000
0.0029088700000
0.0087382300000
0.0158680000000
0.0223924000000
0.0274654000000
0.0302248000000
0.0311666000000
0.0289801000000
0.0235250000000
0.0171826000000
0.0106165000000
0.0052306600000
0.0033492700000
0.0024724000000
0.0004065860000
-0.0005840620000
-0.0005546860000
-0.0008769930000
-0.0004988360000
0.0004939310000
0.0043774700000
0.0083030800000
0.0118965000000
0.0163876000000
0.0182660000000
0.0156575000000
0.0122006000000
0.0067560300000
-0.0025339600000
-0.0151215000000
-0.0278051000000
-0.0374056000000
-0.0455979000000
-0.0509241000000
-0.0534959000000
-0.0540399000000
-0.0531584000000
-0.0529499000000
-0.0521896000000
-0.0496857000000
-0.0448419000000
-0.0355221000000
-0.0220884000000
-0.0058551100000
0.0089614700000
0.0225809000000
0.0345542000000
0.0445275000000
0.0505313000000
0.0538301000000
0.0573859000000
0.0593002000000
0.0597347000000
0.0597621000000
0.0570364000000
0.0502616000000
0.0419110000000
0.0332059000000
0.0247450000000
0.0179686000000
0.0124935000000
0.0106969000000
0.0115153000000
0.0139306000000
0.0176530000000
0.0220958000000
0.0273831000000
0.0316067000000
0.0334409000000
0.0338516000000
0.0316146000000
0.0242492000000
0.0143836000000
0.0028382800000
-0.0096500100000
-0.0204568000000
-0.0297816000000
-0.0371185000000
-0.0422603000000
-0.0449945000000
-0.0426913000000
-0.0387607000000
-0.0343225000000
-0.0320879000000
-0.0303921000000
-0.0301865000000
-0.0308070000000
-0.0294463000000
-0.0268849000000
-0.0257847000000
-0.0271844000000
-0.0307818000000
-0.0352865000000
-0.0386373000000
-0.0419676000000
-0.0438389000000
-0.0426853000000
-0.0373321000000
-0.0292991000000
-0.0186409000000
-0.0044824700000
0.0069608800000
0.0131427000000
0.0145541000000
0.0145224000000
0.0148093000000
0.0149333000000
0.0177906000000
0.0220079000000
0.0282252000000
0.0351415000000
0.0399951000000
0.0428655000000
0.0430969000000
0.0403038000000
0.0384096000000
0.0351610000000
0.0308774000000
0.0252459000000
0.0184790000000
0.0120995000000
0.0069081400000
0.0036698800000
-0.0000126566000
-0.0053759700000
-0.0137652000000
-0.0207285000000
-0.0268591000000
-0.0322750000000
-0.0374201000000
-0.0410284000000
-0.0416773000000
-0.0415310000000
-0.0401636000000
-0.0359891000000
-0.0289703000000
-0.0204073000000
-0.0127262000000
-0.0050665000000
0.0001950150000
0.0063957300000
0.0107499000000
0.0135636000000
0.0146283000000
0.0123192000000
0.0102562000000
0.0079569000000
0.0066880400000
0.0081298900000
0.0114354000000
0.0161443000000
0.0209487000000
0.0239210000000
0.0243184000000
0.0245926000000
0.0255130000000
0.0270659000000
0.0272976000000
0.0302818000000
0.0318761000000
0.0328667000000
0.0339672000000
0.0305113000000
0.0208178000000
0.0091562100000
-0.0002564250000
-0.0052411000000
-0.0033466300000
0.0027967400000
0.0099762900000
0.0180461000000
0.0243052000000
0.0302884000000
0.0326987000000
0.0321384000000
0.0287256000000
0.0252225000000
0.0210845000000
0.0147984000000
0.0084801800000
0.0035955300000
0.0017632400000
0.0020910700000
0.0042389200000
0.0066452600000
0.0075846000000
0.0057099300000
0.0029302400000
-0.0017997500000
-0.0081539000000
-0.0145159000000
-0.0207971000000
-0.0269585000000
-0.0291870000000
-0.0287998000000
-0.0248885000000
-0.0204302000000
-0.0164998000000
-0.0166403000000
-0.0211161000000
-0.0265772000000
-0.0307802000000
-0.0349614000000
-0.0368332000000
-0.0381557000000
-0.0366329000000
-0.0318941000000
-0.0218487000000
-0.0081502000000
0.0044018600000
0.0125589000000
0.0156966000000
0.0158489000000
0.0137108000000
0.0089361700000
0.0029049400000
-0.0013111100000
-0.0015323400000
0.0015659900000
0.0070058500000
0.0129524000000
0.0179571000000
0.0197705000000
0.0193164000000
0.0160771000000
0.0090493600000
0.0011544200000
-0.0063518000000
-0.0149292000000
-0.0222124000000
-0.0275150000000
-0.0296549000000
-0.0282465000000
-0.0234492000000
-0.0170647000000
-0.0095922400000
-0.0010840000000
0.0061446200000
0.0132406000000
0.0191731000000
0.0253992000000
0.0303704000000
0.0339113000000
0.0346503000000
0.0334327000000
0.0300565000000
0.0272549000000
0.0261945000000
0.0262698000000
0.0267296000000
0.0256606000000
0.0222185000000
0.0170991000000
0.0105474000000
0.0058833600000
0.0033650200000
0.0036631800000
0.0065911200000
0.0110881000000
0.0143943000000
0.0171523000000
0.0177708000000
0.0174671000000
0.0168543000000
0.0162990000000
0.0171746000000
0.0178882000000
0.0184885000000
0.0171784000000
0.0162533000000
0.0155609000000
0.0154715000000
0.0160823000000
0.0163837000000
0.0159628000000
0.0160209000000
0.0156357000000
0.0148527000000
0.0119940000000
0.0102226000000
0.0075589900000
0.0042697200000
-0.0015632300000
-0.0081227700000
-0.0125853000000
-0.0152630000000
-0.0125380000000
-0.0070936900000
-0.0018502700000
0.0014738000000
0.0022222500000
0.0033152300000
0.0023869000000
0.0021891200000
0.0029037600000
0.0045160300000
0.0035583300000
0.0013127000000
-0.0021154400000
-0.0070698900000
-0.0111012000000
-0.0121537000000
-0.0128150000000
-0.0118763000000
-0.0113525000000
-0.0103014000000
-0.0070772100000
-0.0064556900000
-0.0061168300000
-0.0064512900000
-0.0096130100000
-0.0148892000000
-0.0204027000000
-0.0259332000000
-0.0305938000000
-0.0323305000000
-0.0312056000000
-0.0268863000000
-0.0224811000000
-0.0184921000000
-0.0158112000000
-0.0131242000000
-0.0103035000000
-0.0082982000000
-0.0084593300000
-0.0111502000000
-0.0124793000000
-0.0137111000000
-0.0159513000000
-0.0182285000000
-0.0195876000000
-0.0186500000000
-0.0159686000000
-0.0155595000000
-0.0153028000000
-0.0145298000000
-0.0161590000000
-0.0199788000000
-0.0228687000000
-0.0269897000000
-0.0311306000000
-0.0318506000000
-0.0299079000000
-0.0255821000000
-0.0179983000000
-0.0096303200000
-0.0043262900000
-0.0005778790000
0.0011070400000
0.0009388360000
-0.0020180400000
-0.0065951800000
-0.0110854000000
-0.0153078000000
-0.0176041000000
-0.0182835000000
-0.0154965000000
-0.0090331300000
-0.0012375300000
0.0077598500000
0.0156864000000
0.0213279000000
0.0251763000000
0.0250903000000
0.0227684000000
0.0197803000000
0.0162175000000
0.0137543000000
0.0112652000000
0.0084798200000
0.0046771100000
-0.0008143360000
-0.0054038600000
-0.0100084000000
-0.0122496000000
-0.0132152000000
-0.0124200000000
-0.0120921000000
-0.0119639000000
-0.0134295000000
-0.0146962000000
-0.0127259000000
-0.0106083000000
-0.0068781100000
-0.0017896100000
0.0019205100000
0.0050380600000
0.0043261000000
0.0021817800000
-0.0010896400000
-0.0029100900000
-0.0056345400000
-0.0063275600000
-0.0059301700000
-0.0035728300000
-0.0022660600000
-0.0015355900000
-0.0024677800000
-0.0040671600000
-0.0054427200000
-0.0059554800000
-0.0046662500000
-0.0022621100000
0.0014659200000
0.0040872100000
0.0064379300000
0.0077291300000
0.0090780300000
0.0119944000000
0.0134087000000
0.0160054000000
0.0189687000000
0.0208903000000
0.0206479000000
0.0200741000000
0.0182223000000
0.0160931000000
0.0152355000000
0.0131867000000
0.0133680000000
0.0163044000000
0.0195461000000
0.0226473000000
0.0264024000000
0.0289341000000
0.0302203000000
0.0318324000000
0.0298497000000
0.0250673000000
0.0198105000000
0.0162302000000
0.0134762000000
0.0126152000000
0.0153111000000
0.0203454000000
0.0248256000000
0.0277339000000
0.0267329000000
0.0208435000000
0.0096534400000
-0.0018399300000
-0.0106656000000
-0.0168929000000
-0.0211276000000
-0.0239908000000
-0.0248721000000
-0.0236342000000
-0.0202936000000
-0.0151421000000
-0.0115793000000
-0.0079009600000
-0.0055724300000
-0.0066467300000
-0.0094693900000
-0.0129652000000
-0.0172960000000
-0.0203748000000
-0.0224968000000
-0.0229875000000
-0.0217691000000
-0.0188934000000
-0.0145480000000
-0.0097015200000
-0.0054853900000
-0.0014865100000
0.0029756600000
0.0057621900000
0.0086015900000
0.0096567200000
0.0097216600000
0.0106046000000
0.0122240000000
0.0134349000000
0.0141044000000
0.0159007000000
0.0169041000000
0.0169445000000
0.0151115000000
0.0133955000000
0.0125014000000
0.0116163000000
0.0090243200000
0.0054358000000
0.0020443700000
-0.0013587900000
-0.0043868400000
-0.0056159800000
-0.0059069900000
-0.0056859000000
-0.0052503500000
-0.0042602400000
-0.0030217400000
-0.0034733400000
-0.0052878000000
-0.0092066700000
-0.0136872000000
-0.0193076000000
-0.0229103000000
-0.0235792000000
-0.0223015000000
-0.0174266000000
-0.0088464600000
0.0000303353000
0.0067688700000
0.0091627600000
0.0104900000000
0.0100730000000
0.0076679600000
0.0040730900000
0.0010984700000
0.0000902060000
-0.0009057370000
-0.0011312500000
-0.0022539000000
-0.0036419700000
-0.0043080000000
-0.0039492000000
-0.0038471400000
-0.0049553800000
-0.0083784400000
-0.0120737000000
-0.0157802000000
-0.0197868000000
-0.0242435000000
-0.0283862000000
-0.0317683000000
-0.0322655000000
-0.0305554000000
-0.0278990000000
-0.0249098000000
-0.0209033000000
-0.0185901000000
-0.0155771000000
-0.0125227000000
-0.0077260100000
-0.0024510500000
0.0050888800000
0.0115294000000
0.0182085000000
0.0231658000000
0.0254129000000
0.0253149000000
0.0227857000000
0.0183842000000
0.0132763000000
0.0087121700000
0.0048978700000
0.0035792000000
0.0058932700000
0.0110780000000
0.0174595000000
0.0243420000000
0.0301104000000
0.0342959000000
0.0372101000000
0.0391438000000
0.0401815000000
0.0404293000000
0.0380867000000
0.0351018000000
0.0313072000000
0.0275002000000
0.0225241000000
0.0192296000000
0.0165844000000
0.0157638000000
0.0154656000000
0.0169076000000
0.0190123000000
0.0194083000000
0.0167260000000
0.0146924000000
0.0146275000000
0.0144102000000
0.0141199000000
0.0138860000000
0.0142392000000
0.0153036000000
0.0145308000000
0.0118440000000
0.0087296400000
0.0055086400000
0.0016027500000
-0.0018948000000
-0.0048576600000
-0.0079030500000
-0.0092150900000
-0.0093026800000
-0.0102408000000
-0.0122304000000
-0.0135405000000
-0.0144834000000
-0.0162639000000
-0.0176769000000
-0.0174721000000
-0.0182860000000
-0.0207493000000
-0.0236995000000
-0.0285583000000
-0.0324451000000
-0.0353728000000
-0.0367386000000
-0.0388237000000
-0.0399360000000
-0.0394200000000
-0.0396647000000
-0.0392762000000
-0.0383964000000
-0.0371815000000
-0.0356891000000
-0.0328398000000
-0.0314383000000
-0.0283941000000
-0.0256132000000
-0.0225980000000
-0.0187706000000
-0.0155516000000
-0.0125056000000
-0.0082668000000
-0.0057373900000
-0.0031814500000
-0.0020901200000
-0.0028822400000
-0.0051558300000
-0.0076842500000
-0.0099400400000
-0.0115511000000
-0.0119904000000
-0.0119767000000
-0.0110248000000
-0.0090954000000
-0.0068007600000
-0.0045411400000
-0.0023830300000
-0.0022504000000
-0.0031162100000
-0.0037309700000
-0.0043193300000
-0.0039643800000
-0.0041566500000
-0.0040827800000
-0.0027963700000
-0.0002083210000
0.0005836250000
0.0005640310000
-0.0010845200000
-0.0038042200000
-0.0052789000000
-0.0056571200000
-0.0050981000000
-0.0023382800000
0.0021954500000
0.0071208100000
0.0112009000000
0.0145060000000
0.0176255000000
0.0183438000000
0.0185389000000
0.0195047000000
0.0191478000000
0.0178710000000
0.0167905000000
0.0163391000000
0.0140509000000
0.0118747000000
0.0115470000000
0.0108247000000
0.0113376000000
0.0124904000000
0.0138869000000
0.0141320000000
0.0149461000000
0.0161945000000
0.0158469000000
0.0151032000000
0.0147648000000
0.0133405000000
0.0109227000000
0.0083569600000
0.0059718800000
0.0041207100000
0.0037412600000
0.0031966200000
0.0037687800000
0.0034082300000
0.0029861300000
0.0017593300000
0.0010311700000
0.0007625710000
0.0002043010000
0.0011527900000
0.0036860300000
0.0052020500000
0.0060187600000
0.0068398500000
0.0069866000000
0.0059385600000
0.0039517100000
0.0033277700000
0.0031719400000
0.0034294200000
0.0047576900000
0.0059447600000
0.0062881600000
0.0061991500000
0.0055816000000
0.0045760600000
0.0039078900000
0.0025219100000
0.0011442500000
-0.0001237530000
-0.0012197900000
-0.0026505400000
-0.0043668800000
-0.0053120600000
-0.0058014000000
-0.0061863300000
-0.0060479300000
-0.0056861200000
-0.0058364200000
-0.0059631000000
-0.0058824300000
-0.0059274300000
-0.0061033200000
-0.0062624600000
-0.0062192500000
-0.0056766500000
-0.0049885400000
-0.0040280900000
-0.0034245800000
-0.0029178100000
-0.0020653600000
-0.0016634100000
-0.0013464400000
-0.0006620020000
-0.0002358460000
0.0002000380000
0.0004112860000
0.0004162390000
0.0003333180000
0.0001784400000
0.0002003450000
0.0003124920000
0.0005915360000
0.0006732770000
0.0007435060000
0.0008786410000
0.0009517010000
0.0009394120000
0.0008978840000
0.0008563040000
0.0008359150000
0.0007787880000
0.0007289360000
0.0006749120000
0.0005797670000
0.0004887040000
0.0004656270000
0.0004650530000
0.0004779630000
0.0004901730000
0.0005111310000
0.0004941560000
0.0004339310000
0.0003463770000
0.0002658240000
0.0002098120000
0.0001681720000
0.0001446320000
0.0001414120000
0.0001266830000
0.0001120340000
0.0000944478000
0.0000652706000
0.0000387435000
0.0000101072000
-0.0000212649000
-0.0000525680000
-0.0000813522000
-0.0001084520000
-0.0001353020000
-0.0001621450000
-0.0001866450000
-0.0002119720000
-0.0002353950000
-0.0002578680000
-0.0002783270000
-0.0002973840000
-0.0003150120000
-0.0003316290000
-0.0003472480000
-0.0003620960000
-0.0003761040000
-0.0003893330000
-0.0004017420000
-0.0004133330000
-0.0004240850000
0.0000000000000
