-0.0000007551820
-0.0000007062710
-0.0000006368040
-0.0000006153190
-0.0000002567440
-0.0000009272700
-0.0000020343500
-0.0000019505700
-0.0000026597100
-0.0000027952400
0.0000018671500
0.0000039830500
-0.0000021694600
-0.0000032398800
0.0000025684500
-0.0000015971400
-0.0000084130400
-0.0000093885100
-0.0000149948000
-0.0000173747000
-0.0000092578900
-0.0000089995600
-0.0000070787400
0.0000015976700
0.0000037234200
-0.0000156236000
-0.0000324539000
-0.0000383408000
-0.0000338959000
-0.0000358710000
-0.0000371531000
-0.0000467235000
-0.0000596368000
-0.0000572662000
0.0000171931000
0.0001188090000
0.0001019760000
0.0000097310100
-0.0000002089800
0.0000852882000
0.0001048090000
0.0000040631900
-0.0000661723000
-0.0000618971000
-0.0000735178000
-0.0000823888000
-0.0000694594000
-0.0000607424000
-0.0001100220000
-0.0001933120000
-0.0001517880000
0.0000959329000
0.0001491820000
0.0000455215000
0.0000329284000
-0.0000395441000
-0.0001398380000
-0.0001562260000
-0.0001666040000
-0.0000306148000
0.0001079790000
-0.0000134193000
-0.0001278910000
-0.0000087510200
0.0001400960000
0.0001032790000
-0.0000230088000
-0.0000297742000
0.0000994667000
0.0000708367000
-0.0001009870000
-0.0002571720000
-0.0002234420000
-0.0001740210000
-0.0001374500000
0.0002632940000
0.0005149810000
0.0001847930000
-0.0002298200000
-0.0000756551000
0.0001503450000
0.0001267800000
0.0000044701000
-0.0000635236000
-0.0001112180000
-0.0002639750000
-0.0003240590000
-0.0004094180000
-0.0006412700000
-0.0006961730000
-0.0004984350000
-0.0003013320000
-0.0001475650000
-0.0002414870000
-0.0002508730000
-0.0001949800000
-0.0000170077000
0.0000616438000
-0.0001541560000
-0.0002080040000
-0.0002151970000
-0.0002360370000
-0.0003982630000
-0.0004833510000
-0.0000059861400
0.0003435090000
0.0001235080000
0.0000249642000
0.0003400540000
0.0006063950000
0.0002829810000
-0.0001400930000
-0.0001097160000
0.0002936690000
0.0006513260000
0.0003732900000
-0.0003438870000
-0.0006063730000
-0.0005889650000
-0.0007146820000
-0.0008675660000
-0.0007977650000
-0.0003297120000
0.0000689343000
0.0001414700000
0.0005515610000
0.0008396860000
0.0006227560000
0.0006825860000
0.0007797040000
0.0003996020000
-0.0000364929000
-0.0002332970000
-0.0004521350000
-0.0005120360000
-0.0005388450000
-0.0002958320000
0.0001146430000
-0.0000893480000
-0.0002968520000
0.0000836686000
0.0003674240000
0.0002030150000
-0.0000165563000
-0.0001387310000
-0.0005132450000
-0.0006332540000
-0.0001935790000
-0.0000022094700
0.0001403180000
-0.0001990540000
-0.0009353230000
-0.0012962000000
-0.0009937960000
-0.0000753984000
0.0005608370000
0.0007030600000
0.0004989430000
-0.0001012950000
-0.0002968400000
-0.0004114100000
-0.0005279310000
-0.0003776210000
-0.0003418040000
0.0000449415000
0.0006354190000
0.0006416980000
0.0002186740000
0.0000795126000
0.0001940230000
-0.0005164660000
-0.0011101700000
-0.0002941040000
0.0002201900000
0.0001561420000
0.0004801640000
0.0004669060000
0.0001532440000
0.0004199210000
0.0009254900000
0.0001857870000
-0.0008442460000
-0.0003787780000
-0.0000178355000
-0.0007462550000
-0.0012015000000
-0.0003218770000
0.0006781230000
0.0010398700000
0.0010465200000
0.0005979260000
0.0006126080000
0.0007642740000
0.0001249650000
-0.0003128570000
-0.0004621000000
-0.0002884810000
-0.0000509813000
-0.0003371830000
-0.0004205900000
0.0001517850000
0.0009709710000
0.0008239370000
-0.0003133400000
-0.0006824580000
-0.0001391350000
0.0000524079000
-0.0005049810000
-0.0011076400000
-0.0006687360000
0.0000584422000
0.0009271300000
0.0009893680000
-0.0002653040000
-0.0012374600000
-0.0007098870000
0.0003253970000
0.0004721870000
-0.0002299600000
0.0001017570000
0.0016613900000
0.0019479900000
0.0007933300000
-0.0006354110000
-0.0012900400000
-0.0010193600000
-0.0005421210000
-0.0001558430000
-0.0007543970000
-0.0010673100000
-0.0000507961000
0.0009724410000
0.0013870700000
0.0012879200000
0.0009492650000
0.0005834600000
0.0007550070000
0.0013283100000
0.0004038500000
-0.0016393700000
-0.0023695500000
-0.0017510800000
-0.0013091800000
-0.0018014400000
-0.0014723100000
0.0002158180000
0.0015075400000
0.0013590100000
0.0005061170000
0.0005132350000
0.0010024800000
0.0012908300000
0.0009096460000
-0.0002133840000
-0.0014842600000
-0.0015474700000
-0.0008957650000
-0.0004863420000
0.0003105890000
0.0012695800000
0.0009274230000
0.0001250020000
0.0006188570000
0.0009761450000
0.0003713940000
-0.0005523360000
-0.0006314890000
0.0000676132000
0.0000206562000
-0.0001490670000
-0.0002216710000
-0.0000175563000
0.0000010069300
-0.0011478900000
-0.0023215100000
-0.0033944500000
-0.0031364300000
-0.0008199300000
0.0022490900000
0.0051051900000
0.0060462400000
0.0045786200000
0.0012270700000
-0.0012171000000
-0.0004785010000
0.0017117300000
0.0021262000000
0.0004482100000
-0.0010531200000
-0.0005267300000
0.0013163500000
0.0019684900000
0.0005812140000
-0.0018004700000
-0.0027627100000
-0.0016676000000
-0.0000907757000
0.0005182630000
0.0015078900000
0.0045419700000
0.0062914500000
0.0031108400000
-0.0032276200000
-0.0076267600000
-0.0055713400000
0.0005506580000
0.0041390600000
0.0017537800000
-0.0030359400000
-0.0047182600000
-0.0034023800000
-0.0014815900000
-0.0020685700000
-0.0055448800000
-0.0053729600000
0.0014672400000
0.0078788100000
0.0070716200000
0.0013231300000
-0.0012422600000
0.0021588400000
0.0055234100000
0.0026493100000
-0.0051133100000
-0.0101186000000
-0.0075669700000
0.0002947310000
0.0061628200000
0.0041684800000
-0.0021939200000
-0.0054340600000
-0.0043198400000
-0.0029321700000
-0.0040164600000
-0.0041841600000
-0.0010200500000
0.0027670900000
0.0036842500000
0.0008060360000
-0.0035803700000
-0.0058649900000
-0.0026207400000
0.0032509200000
0.0032730600000
-0.0024282800000
-0.0067517000000
-0.0052839400000
0.0006671030000
0.0054585200000
0.0045038900000
-0.0015027200000
-0.0066263600000
-0.0064437900000
-0.0008034140000
0.0053583000000
0.0060484300000
0.0018990000000
-0.0022385300000
-0.0029804600000
-0.0020882200000
-0.0014805900000
-0.0018435500000
-0.0019399400000
-0.0001622340000
0.0048175900000
0.0099653700000
0.0098516400000
0.0039942100000
-0.0037764400000
-0.0095087500000
-0.0133539000000
-0.0146274000000
-0.0119321000000
-0.0044717200000
0.0051453300000
0.0101786000000
0.0069484200000
-0.0007253790000
-0.0049234300000
-0.0003279730000
0.0095986100000
0.0145793000000
0.0097168000000
-0.0004955940000
-0.0079784800000
-0.0088302000000
-0.0049652200000
-0.0006770310000
0.0006466670000
0.0010127000000
0.0033384200000
0.0056891100000
0.0043978000000
-0.0013866700000
-0.0076773700000
-0.0112034000000
-0.0111139000000
-0.0082795400000
-0.0042491800000
0.0003065290000
0.0056088800000
0.0132297000000
0.0231393000000
0.0287876000000
0.0236322000000
0.0098147700000
-0.0040530000000
-0.0089703600000
-0.0050016300000
-0.0003508960000
-0.0026665800000
-0.0098789400000
-0.0113633000000
-0.0029379900000
0.0076616000000
0.0103432000000
0.0031452100000
-0.0026890500000
0.0044490900000
0.0213309000000
0.0321204000000
0.0243322000000
0.0024611600000
-0.0161302000000
-0.0170246000000
-0.0044979400000
0.0055601400000
0.0019605600000
-0.0134111000000
-0.0257232000000
-0.0199910000000
-0.0006738050000
0.0145824000000
0.0132373000000
-0.0001865730000
-0.0094443500000
-0.0039269400000
0.0131335000000
0.0288238000000
0.0336891000000
0.0289805000000
0.0229459000000
0.0224855000000
0.0270429000000
0.0303863000000
0.0273726000000
0.0198996000000
0.0137044000000
0.0116043000000
0.0090681600000
-0.0019739800000
-0.0235352000000
-0.0493028000000
-0.0708928000000
-0.0819288000000
-0.0769341000000
-0.0526973000000
-0.0134843000000
0.0300765000000
0.0674427000000
0.0925244000000
0.1053880000000
0.1082400000000
0.1005060000000
0.0801222000000
0.0513268000000
0.0257076000000
0.0099690400000
-0.0039737100000
-0.0284785000000
-0.0634984000000
-0.0956552000000
-0.1119370000000
-0.1121740000000
-0.1082270000000
-0.1110430000000
-0.1162870000000
-0.1083030000000
-0.0781147000000
-0.0364107000000
-0.0027319200000
0.0107993000000
0.0063090600000
-0.0036051300000
-0.0021644100000
0.0229394000000
0.0685565000000
0.1123420000000
0.1316350000000
0.1227920000000
0.1017070000000
0.0933706000000
0.1119950000000
0.1436750000000
0.1582430000000
0.1369630000000
0.0910474000000
0.0535651000000
0.0484557000000
0.0650945000000
0.0684071000000
0.0352170000000
-0.0226615000000
-0.0720929000000
-0.0866703000000
-0.0685705000000
-0.0421708000000
-0.0300228000000
-0.0333824000000
-0.0326668000000
-0.0118620000000
0.0222734000000
0.0493444000000
0.0551418000000
0.0438471000000
0.0323006000000
0.0327350000000
0.0413548000000
0.0419413000000
0.0195902000000
-0.0294270000000
-0.0928198000000
-0.1471920000000
-0.1703330000000
-0.1537950000000
-0.1131450000000
-0.0798433000000
-0.0743650000000
-0.0910409000000
-0.1073750000000
-0.1096520000000
-0.1033400000000
-0.1016050000000
-0.1058020000000
-0.0969016000000
-0.0557319000000
0.0129913000000
0.0841788000000
0.1326720000000
0.1482540000000
0.1403010000000
0.1250200000000
0.1120180000000
0.1033220000000
0.0964782000000
0.0875891000000
0.0765069000000
0.0716403000000
0.0788618000000
0.0876606000000
0.0796176000000
0.0469526000000
-0.0026734500000
-0.0522087000000
-0.0865890000000
-0.1046200000000
-0.1129760000000
-0.1128720000000
-0.0991664000000
-0.0692194000000
-0.0331935000000
-0.0139413000000
-0.0298194000000
-0.0758172000000
-0.1279700000000
-0.1643390000000
-0.1783800000000
-0.1763420000000
-0.1656410000000
-0.1450550000000
-0.1108930000000
-0.0653701000000
-0.0148749000000
0.0309047000000
0.0633542000000
0.0835320000000
0.0990966000000
0.1167690000000
0.1347000000000
0.1409870000000
0.1231230000000
0.0782014000000
0.0106499000000
-0.0646414000000
-0.1207690000000
-0.1389710000000
-0.1259490000000
-0.1031200000000
-0.0871595000000
-0.0830511000000
-0.0859866000000
-0.0894009000000
-0.0925854000000
-0.0971683000000
-0.1002370000000
-0.0973222000000
-0.0883699000000
-0.0778612000000
-0.0748747000000
-0.0845406000000
-0.1013180000000
-0.1142840000000
-0.1185380000000
-0.1182770000000
-0.1178650000000
-0.1148310000000
-0.0995376000000
-0.0632113000000
-0.0072639700000
0.0564411000000
0.1131610000000
0.1518060000000
0.1705270000000
0.1736970000000
0.1640040000000
0.1406290000000
0.1054350000000
0.0680604000000
0.0441961000000
0.0455614000000
0.0721287000000
0.1097220000000
0.1401190000000
0.1548110000000
0.1597770000000
0.1651040000000
0.1732280000000
0.1797570000000
0.1809440000000
0.1748320000000
0.1593640000000
0.1345190000000
0.1024270000000
0.0643406000000
0.0243337000000
-0.0104926000000
-0.0351414000000
-0.0488517000000
-0.0532477000000
-0.0487103000000
-0.0354605000000
-0.0167136000000
0.0023479000000
0.0160753000000
0.0204243000000
0.0148550000000
0.0051947500000
-0.0018386500000
-0.0024673200000
0.0069819600000
0.0260552000000
0.0432189000000
0.0422311000000
0.0159624000000
-0.0274750000000
-0.0729622000000
-0.1051810000000
-0.1173870000000
-0.1187280000000
-0.1240280000000
-0.1369600000000
-0.1420250000000
-0.1192360000000
-0.0647461000000
0.0050070000000
0.0640660000000
0.0995976000000
0.1185800000000
0.1335470000000
0.1470840000000
0.1507600000000
0.1371570000000
0.1069370000000
0.0685810000000
0.0319739000000
-0.0019726300000
-0.0389412000000
-0.0840930000000
-0.1340480000000
-0.1740130000000
-0.1898310000000
-0.1823480000000
-0.1656820000000
-0.1563700000000
-0.1583110000000
-0.1543790000000
-0.1194020000000
-0.0453317000000
0.0489058000000
0.1326140000000
0.1849250000000
0.2035640000000
0.1986240000000
0.1828460000000
0.1665000000000
0.1514120000000
0.1291500000000
0.0910939000000
0.0426585000000
-0.0009402730000
-0.0291744000000
-0.0386797000000
-0.0317072000000
-0.0179368000000
-0.0057179600000
0.0069274600000
0.0324140000000
0.0780302000000
0.1343430000000
0.1866360000000
0.2262890000000
0.2515700000000
0.2633130000000
0.2608050000000
0.2447140000000
0.2173270000000
0.1826710000000
0.1415940000000
0.0844119000000
0.0037122700000
-0.0914954000000
-0.1856990000000
-0.2820980000000
-0.3837330000000
-0.4679710000000
-0.5093380000000
-0.5088590000000
-0.4864290000000
-0.4587760000000
-0.4319440000000
-0.4053940000000
-0.3685520000000
-0.3051400000000
-0.2145780000000
-0.1188130000000
-0.0378537000000
0.0291318000000
0.0895129000000
0.1461740000000
0.1981080000000
0.2407810000000
0.2665330000000
0.2675620000000
0.2491940000000
0.2290180000000
0.2155770000000
0.2080900000000
0.2042950000000
0.1975310000000
0.1795900000000
0.1488680000000
0.1137970000000
0.0823324000000
0.0585998000000
0.0461915000000
0.0475781000000
0.0605073000000
0.0799305000000
0.1011220000000
0.1214110000000
0.1394390000000
0.1513090000000
0.1514980000000
0.1353140000000
0.1016680000000
0.0519411000000
-0.0090339200000
-0.0744335000000
-0.1391660000000
-0.1997850000000
-0.2517550000000
-0.2912320000000
-0.3175450000000
-0.3330820000000
-0.3443490000000
-0.3534190000000
-0.3553430000000
-0.3454310000000
-0.3266920000000
-0.3067580000000
-0.2846720000000
-0.2482520000000
-0.1911380000000
-0.1236830000000
-0.0598881000000
-0.0070455800000
0.0279718000000
0.0456325000000
0.0583664000000
0.0804237000000
0.1144980000000
0.1558980000000
0.1967300000000
0.2305480000000
0.2566940000000
0.2771040000000
0.2911400000000
0.2958370000000
0.2904130000000
0.2797420000000
0.2726610000000
0.2742990000000
0.2795830000000
0.2737610000000
0.2385430000000
0.1698730000000
0.0845383000000
-0.0008740120000
-0.0830003000000
-0.1640970000000
-0.2425460000000
-0.3088960000000
-0.3517240000000
-0.3679610000000
-0.3651180000000
-0.3555980000000
-0.3471700000000
-0.3389570000000
-0.3218950000000
-0.2848670000000
-0.2226030000000
-0.1475800000000
-0.0901798000000
-0.0665484000000
-0.0610838000000
-0.0565271000000
-0.0484895000000
-0.0330314000000
-0.0074925800000
0.0249032000000
0.0609716000000
0.1010590000000
0.1442430000000
0.1859090000000
0.2203680000000
0.2444900000000
0.2610810000000
0.2759930000000
0.2930690000000
0.3135740000000
0.3341620000000
0.3482670000000
0.3546280000000
0.3539940000000
0.3465870000000
0.3309060000000
0.2966390000000
0.2356150000000
0.1617590000000
0.0975723000000
0.0465785000000
-0.0005137270000
-0.0462194000000
-0.0907477000000
-0.1321440000000
-0.1614720000000
-0.1778440000000
-0.1886780000000
-0.2033620000000
-0.2223240000000
-0.2404810000000
-0.2552000000000
-0.2596540000000
-0.2523880000000
-0.2371330000000
-0.2200580000000
-0.2066220000000
-0.1977920000000
-0.1893420000000
-0.1811800000000
-0.1747180000000
-0.1691000000000
-0.1670350000000
-0.1760550000000
-0.1990740000000
-0.2284300000000
-0.2535720000000
-0.2701550000000
-0.2730610000000
-0.2521850000000
-0.2046240000000
-0.1401150000000
-0.0695259000000
0.0034952900000
0.0792984000000
0.1580080000000
0.2368970000000
0.3090240000000
0.3684260000000
0.4136350000000
0.4474360000000
0.4732310000000
0.4925040000000
0.5029730000000
0.5009080000000
0.4868030000000
0.4635500000000
0.4334090000000
0.4014210000000
0.3692760000000
0.3278360000000
0.2629950000000
0.1737880000000
0.0747445000000
-0.0152305000000
-0.0819496000000
-0.1261470000000
-0.1575020000000
-0.1871470000000
-0.2229170000000
-0.2600430000000
-0.2841400000000
-0.2861400000000
-0.2666070000000
-0.2310320000000
-0.1824380000000
-0.1201160000000
-0.0503407000000
0.0047087600000
0.0230852000000
0.0092658800000
-0.0101016000000
-0.0187579000000
-0.0212954000000
-0.0265169000000
-0.0373902000000
-0.0561769000000
-0.0842332000000
-0.1166340000000
-0.1422300000000
-0.1506480000000
-0.1367740000000
-0.1021660000000
-0.0539048000000
-0.0011469100000
0.0510252000000
0.0993621000000
0.1373170000000
0.1625560000000
0.1815080000000
0.2010640000000
0.2194510000000
0.2334200000000
0.2428900000000
0.2491320000000
0.2499800000000
0.2398130000000
0.2142340000000
0.1718560000000
0.1141590000000
0.0475200000000
-0.0154135000000
-0.0630937000000
-0.0947688000000
-0.1137440000000
-0.1223040000000
-0.1231840000000
-0.1211140000000
-0.1198090000000
-0.1163790000000
-0.1012280000000
-0.0713459000000
-0.0370156000000
-0.0103899000000
0.0035463000000
0.0070642500000
0.0072638400000
0.0048301100000
-0.0089168400000
-0.0332816000000
-0.0567950000000
-0.0708160000000
-0.0748747000000
-0.0737248000000
-0.0728380000000
-0.0755490000000
-0.0814586000000
-0.0877743000000
-0.0927729000000
-0.0947038000000
-0.0882357000000
-0.0678205000000
-0.0360198000000
-0.0042424100000
0.0160396000000
0.0254756000000
0.0311180000000
0.0355031000000
0.0411730000000
0.0516532000000
0.0660610000000
0.0817688000000
0.0953675000000
0.1047380000000
0.1128590000000
0.1240460000000
0.1366610000000
0.1446460000000
0.1437730000000
0.1341550000000
0.1229630000000
0.1180130000000
0.1201970000000
0.1257880000000
0.1282970000000
0.1210700000000
0.0996675000000
0.0648594000000
0.0213747000000
-0.0236319000000
-0.0648768000000
-0.0968403000000
-0.1152760000000
-0.1237000000000
-0.1342820000000
-0.1556600000000
-0.1872370000000
-0.2235290000000
-0.2587860000000
-0.2880780000000
-0.3057370000000
-0.3057190000000
-0.2871080000000
-0.2577840000000
-0.2250200000000
-0.1897670000000
-0.1526270000000
-0.1156690000000
-0.0854286000000
-0.0660100000000
-0.0596274000000
-0.0679728000000
-0.0858942000000
-0.1014450000000
-0.1051490000000
-0.0970215000000
-0.0860188000000
-0.0834130000000
-0.0944961000000
-0.1144120000000
-0.1327090000000
-0.1423350000000
-0.1425270000000
-0.1363150000000
-0.1261200000000
-0.1141690000000
-0.1020120000000
-0.0902326000000
-0.0751453000000
-0.0539077000000
-0.0265114000000
0.0042326700000
0.0325271000000
0.0537581000000
0.0683580000000
0.0788224000000
0.0850650000000
0.0867770000000
0.0847480000000
0.0809805000000
0.0767802000000
0.0701275000000
0.0590604000000
0.0463228000000
0.0347989000000
0.0252949000000
0.0235114000000
0.0350618000000
0.0575743000000
0.0833345000000
0.1067780000000
0.1276210000000
0.1491160000000
0.1728400000000
0.1953270000000
0.2083520000000
0.2083150000000
0.1991390000000
0.1848080000000
0.1691230000000
0.1542980000000
0.1390810000000
0.1214430000000
0.1035400000000
0.0898556000000
0.0826542000000
0.0799854000000
0.0784200000000
0.0759962000000
0.0717417000000
0.0615536000000
0.0407416000000
0.0106809000000
-0.0235550000000
-0.0564394000000
-0.0842079000000
-0.1098130000000
-0.1372100000000
-0.1622280000000
-0.1794080000000
-0.1895350000000
-0.1977480000000
-0.2081700000000
-0.2193850000000
-0.2265260000000
-0.2246750000000
-0.2078100000000
-0.1703060000000
-0.1171210000000
-0.0634861000000
-0.0223437000000
0.0043354800000
0.0214172000000
0.0325403000000
0.0421050000000
0.0583919000000
0.0852404000000
0.1188990000000
0.1536610000000
0.1829050000000
0.2027120000000
0.2132560000000
0.2135060000000
0.1988640000000
0.1678990000000
0.1254420000000
0.0849899000000
0.0594583000000
0.0499738000000
0.0499967000000
0.0560858000000
0.0677700000000
0.0819575000000
0.0942239000000
0.0998950000000
0.0932483000000
0.0745128000000
0.0535051000000
0.0362798000000
0.0197737000000
-0.0012235300000
-0.0270846000000
-0.0558038000000
-0.0845091000000
-0.1076930000000
-0.1206420000000
-0.1243880000000
-0.1247520000000
-0.1267840000000
-0.1343220000000
-0.1470090000000
-0.1598320000000
-0.1681560000000
-0.1669270000000
-0.1487000000000
-0.1109170000000
-0.0623741000000
-0.0154876000000
0.0246633000000
0.0562224000000
0.0760469000000
0.0832492000000
0.0790319000000
0.0655197000000
0.0467364000000
0.0298645000000
0.0217758000000
0.0235105000000
0.0306383000000
0.0394045000000
0.0492530000000
0.0620100000000
0.0781554000000
0.0948001000000
0.1099160000000
0.1219160000000
0.1295300000000
0.1355490000000
0.1451260000000
0.1573500000000
0.1658490000000
0.1658140000000
0.1537340000000
0.1263890000000
0.0890951000000
0.0555842000000
0.0346881000000
0.0245106000000
0.0186747000000
0.0159008000000
0.0180372000000
0.0266219000000
0.0408672000000
0.0557473000000
0.0658410000000
0.0682771000000
0.0637214000000
0.0523545000000
0.0358082000000
0.0219734000000
0.0153545000000
0.0111233000000
0.0021522800000
-0.0155808000000
-0.0415678000000
-0.0707767000000
-0.0958433000000
-0.1140760000000
-0.1266120000000
-0.1327620000000
-0.1291170000000
-0.1137400000000
-0.0922062000000
-0.0751354000000
-0.0663575000000
-0.0621813000000
-0.0590639000000
-0.0555018000000
-0.0505709000000
-0.0447331000000
-0.0391453000000
-0.0313850000000
-0.0194958000000
-0.0055496000000
0.0061361000000
0.0132835000000
0.0169991000000
0.0199125000000
0.0209263000000
0.0170785000000
0.0068442300000
-0.0081386700000
-0.0231419000000
-0.0340022000000
-0.0397597000000
-0.0416811000000
-0.0418719000000
-0.0419596000000
-0.0442543000000
-0.0510514000000
-0.0622967000000
-0.0756498000000
-0.0868007000000
-0.0933060000000
-0.0929474000000
-0.0866438000000
-0.0791218000000
-0.0741889000000
-0.0729383000000
-0.0745049000000
-0.0770711000000
-0.0758982000000
-0.0673101000000
-0.0548498000000
-0.0437760000000
-0.0377172000000
-0.0406140000000
-0.0504951000000
-0.0598609000000
-0.0631916000000
-0.0606055000000
-0.0533033000000
-0.0417896000000
-0.0264288000000
-0.0083547000000
0.0116251000000
0.0341214000000
0.0593228000000
0.0848380000000
0.1093230000000
0.1309160000000
0.1486240000000
0.1610050000000
0.1629800000000
0.1516190000000
0.1280690000000
0.0959135000000
0.0585094000000
0.0203804000000
-0.0135561000000
-0.0399516000000
-0.0566371000000
-0.0626110000000
-0.0604507000000
-0.0566159000000
-0.0537826000000
-0.0463973000000
-0.0324424000000
-0.0196209000000
-0.0127629000000
-0.0105777000000
-0.0133664000000
-0.0226596000000
-0.0375028000000
-0.0532330000000
-0.0660223000000
-0.0773195000000
-0.0867328000000
-0.0872326000000
-0.0753043000000
-0.0572222000000
-0.0445465000000
-0.0462043000000
-0.0589257000000
-0.0716890000000
-0.0778136000000
-0.0770948000000
-0.0731893000000
-0.0684446000000
-0.0625346000000
-0.0561483000000
-0.0515605000000
-0.0485644000000
-0.0447102000000
-0.0368658000000
-0.0230333000000
-0.0055505800000
0.0105265000000
0.0234965000000
0.0353872000000
0.0492296000000
0.0653034000000
0.0799171000000
0.0896938000000
0.0929117000000
0.0879515000000
0.0761847000000
0.0607537000000
0.0453408000000
0.0348100000000
0.0303638000000
0.0285588000000
0.0262061000000
0.0217979000000
0.0172778000000
0.0171389000000
0.0210758000000
0.0254901000000
0.0291629000000
0.0318915000000
0.0328116000000
0.0336790000000
0.0359802000000
0.0400549000000
0.0489858000000
0.0645634000000
0.0816214000000
0.0936253000000
0.0995080000000
0.1025040000000
0.1069960000000
0.1144860000000
0.1222780000000
0.1255280000000
0.1224340000000
0.1118740000000
0.0931371000000
0.0685423000000
0.0420352000000
0.0182203000000
0.0007362220000
-0.0100245000000
-0.0152813000000
-0.0166437000000
-0.0186276000000
-0.0256402000000
-0.0366059000000
-0.0485742000000
-0.0612869000000
-0.0755471000000
-0.0920333000000
-0.1102420000000
-0.1263320000000
-0.1370410000000
-0.1424910000000
-0.1441890000000
-0.1425960000000
-0.1386580000000
-0.1313480000000
-0.1176600000000
-0.0968627000000
-0.0718415000000
-0.0486090000000
-0.0323250000000
-0.0223284000000
-0.0157274000000
-0.0122444000000
-0.0111742000000
-0.0097334000000
-0.0091451600000
-0.0138667000000
-0.0243856000000
-0.0371690000000
-0.0471144000000
-0.0508085000000
-0.0485157000000
-0.0422228000000
-0.0334613000000
-0.0241455000000
-0.0134116000000
-0.0000742411000
0.0139476000000
0.0272554000000
0.0403439000000
0.0526226000000
0.0640817000000
0.0757073000000
0.0852795000000
0.0906854000000
0.0918889000000
0.0896403000000
0.0836376000000
0.0744904000000
0.0641540000000
0.0555432000000
0.0484363000000
0.0393194000000
0.0298331000000
0.0257922000000
0.0291668000000
0.0372821000000
0.0480925000000
0.0588433000000
0.0679892000000
0.0765444000000
0.0831950000000
0.0855425000000
0.0831341000000
0.0742112000000
0.0593755000000
0.0421060000000
0.0261043000000
0.0143798000000
0.0085081900000
0.0073926400000
0.0100814000000
0.0159076000000
0.0210181000000
0.0214381000000
0.0168517000000
0.0092329100000
-0.0003802030000
-0.0107261000000
-0.0192850000000
-0.0222095000000
-0.0188462000000
-0.0112361000000
-0.0022226100000
0.0051715500000
0.0096048000000
0.0112488000000
0.0120497000000
0.0112543000000
0.0053789600000
-0.0043590800000
-0.0131473000000
-0.0190804000000
-0.0235619000000
-0.0295742000000
-0.0387501000000
-0.0491583000000
-0.0573638000000
-0.0610583000000
-0.0611525000000
-0.0595514000000
-0.0574678000000
-0.0544174000000
-0.0509170000000
-0.0494087000000
-0.0491061000000
-0.0485237000000
-0.0492945000000
-0.0514507000000
-0.0527160000000
-0.0510627000000
-0.0467462000000
-0.0424188000000
-0.0377591000000
-0.0303465000000
-0.0193765000000
-0.0067632800000
0.0075061000000
0.0225676000000
0.0340351000000
0.0388075000000
0.0376201000000
0.0309664000000
0.0195203000000
0.0057476400000
-0.0063669700000
-0.0144961000000
-0.0194543000000
-0.0227140000000
-0.0260530000000
-0.0308670000000
-0.0357774000000
-0.0382535000000
-0.0376975000000
-0.0359750000000
-0.0353180000000
-0.0378065000000
-0.0438885000000
-0.0505248000000
-0.0530762000000
-0.0478165000000
-0.0339939000000
-0.0146585000000
0.0043470200000
0.0195105000000
0.0325919000000
0.0458471000000
0.0573552000000
0.0627327000000
0.0583115000000
0.0435679000000
0.0231934000000
0.0049072100000
-0.0071770500000
-0.0147665000000
-0.0199608000000
-0.0243762000000
-0.0308251000000
-0.0396294000000
-0.0457796000000
-0.0433420000000
-0.0353408000000
-0.0284601000000
-0.0258093000000
-0.0268206000000
-0.0275466000000
-0.0242914000000
-0.0178135000000
-0.0136385000000
-0.0158812000000
-0.0241061000000
-0.0345669000000
-0.0417634000000
-0.0430429000000
-0.0410840000000
-0.0384590000000
-0.0373277000000
-0.0375838000000
-0.0365754000000
-0.0331622000000
-0.0291628000000
-0.0271263000000
-0.0296349000000
-0.0344302000000
-0.0363913000000
-0.0362581000000
-0.0383943000000
-0.0421670000000
-0.0453569000000
-0.0495562000000
-0.0562154000000
-0.0638030000000
-0.0708697000000
-0.0745603000000
-0.0698424000000
-0.0517576000000
-0.0198839000000
0.0193904000000
0.0577058000000
0.0892163000000
0.1122200000000
0.1268810000000
0.1358010000000
0.1407210000000
0.1398640000000
0.1325480000000
0.1207090000000
0.1071040000000
0.0942997000000
0.0818067000000
0.0667070000000
0.0480659000000
0.0281649000000
0.0102046000000
-0.0062406100000
-0.0202798000000
-0.0274294000000
-0.0246390000000
-0.0133720000000
0.0013297600000
0.0146348000000
0.0264227000000
0.0377249000000
0.0461475000000
0.0491746000000
0.0456047000000
0.0371585000000
0.0284459000000
0.0224706000000
0.0187212000000
0.0174687000000
0.0198474000000
0.0255815000000
0.0331969000000
0.0394800000000
0.0444340000000
0.0535018000000
0.0707098000000
0.0933179000000
0.1152530000000
0.1306490000000
0.1366690000000
0.1311160000000
0.1140990000000
0.0915043000000
0.0713513000000
0.0564420000000
0.0445564000000
0.0341666000000
0.0250530000000
0.0186801000000
0.0171888000000
0.0217197000000
0.0315424000000
0.0420486000000
0.0472203000000
0.0440737000000
0.0321870000000
0.0160260000000
0.0042929700000
0.0017356800000
0.0064004300000
0.0144579000000
0.0218086000000
0.0251214000000
0.0269020000000
0.0305535000000
0.0368772000000
0.0447969000000
0.0511158000000
0.0522469000000
0.0443406000000
0.0259359000000
0.0016581900000
-0.0227006000000
-0.0434125000000
-0.0602306000000
-0.0740163000000
-0.0834823000000
-0.0860608000000
-0.0790514000000
-0.0636784000000
-0.0453300000000
-0.0289504000000
-0.0185076000000
-0.0143002000000
-0.0130042000000
-0.0119547000000
-0.0092649200000
-0.0060406100000
-0.0051699500000
-0.0095914700000
-0.0188721000000
-0.0276531000000
-0.0326735000000
-0.0342477000000
-0.0344554000000
-0.0361479000000
-0.0399240000000
-0.0458482000000
-0.0534398000000
-0.0604334000000
-0.0633122000000
-0.0594664000000
-0.0473337000000
-0.0292137000000
-0.0116215000000
0.0004569620000
0.0062742900000
0.0077443700000
0.0065118000000
0.0039545900000
-0.0006277650000
-0.0087614700000
-0.0207619000000
-0.0361890000000
-0.0532659000000
-0.0684936000000
-0.0788101000000
-0.0811065000000
-0.0739977000000
-0.0609974000000
-0.0477926000000
-0.0394602000000
-0.0373046000000
-0.0386974000000
-0.0422694000000
-0.0501610000000
-0.0622961000000
-0.0740895000000
-0.0801539000000
-0.0792509000000
-0.0733535000000
-0.0635262000000
-0.0502508000000
-0.0340628000000
-0.0153637000000
0.0032478400000
0.0193395000000
0.0318951000000
0.0404961000000
0.0441712000000
0.0435518000000
0.0415379000000
0.0416523000000
0.0451886000000
0.0499153000000
0.0520028000000
0.0506440000000
0.0480353000000
0.0473188000000
0.0493043000000
0.0518448000000
0.0523010000000
0.0472063000000
0.0350372000000
0.0178611000000
0.0008341370000
-0.0107797000000
-0.0154849000000
-0.0152110000000
-0.0132702000000
-0.0116094000000
-0.0116262000000
-0.0121689000000
-0.0101180000000
-0.0056840500000
-0.0020828900000
0.0000557590000
0.0016239900000
0.0019256500000
-0.0013681600000
-0.0087833300000
-0.0177856000000
-0.0250816000000
-0.0293133000000
-0.0319429000000
-0.0339421000000
-0.0360237000000
-0.0359843000000
-0.0328384000000
-0.0292507000000
-0.0281118000000
-0.0297137000000
-0.0337350000000
-0.0389880000000
-0.0428618000000
-0.0436190000000
-0.0399281000000
-0.0312055000000
-0.0182576000000
-0.0042631900000
0.0074240700000
0.0157264000000
0.0219113000000
0.0270169000000
0.0309558000000
0.0345340000000
0.0385672000000
0.0422544000000
0.0471194000000
0.0534640000000
0.0597579000000
0.0649068000000
0.0678573000000
0.0692482000000
0.0708224000000
0.0719065000000
0.0731446000000
0.0751617000000
0.0766236000000
0.0754927000000
0.0712463000000
0.0646601000000
0.0565697000000
0.0476804000000
0.0384213000000
0.0299842000000
0.0244052000000
0.0217354000000
0.0222608000000
0.0257943000000
0.0280424000000
0.0250716000000
0.0168941000000
0.0071715000000
-0.0017800800000
-0.0108021000000
-0.0186234000000
-0.0226708000000
-0.0213233000000
-0.0162128000000
-0.0093805900000
-0.0012934600000
0.0072791900000
0.0159302000000
0.0247955000000
0.0329551000000
0.0382595000000
0.0402237000000
0.0399568000000
0.0363668000000
0.0290175000000
0.0212000000000
0.0156335000000
0.0119522000000
0.0076641200000
-0.0001750880000
-0.0107834000000
-0.0216792000000
-0.0304625000000
-0.0365740000000
-0.0411221000000
-0.0440939000000
-0.0444632000000
-0.0410424000000
-0.0325057000000
-0.0203814000000
-0.0073318900000
0.0045625300000
0.0118686000000
0.0124537000000
0.0065785600000
-0.0059064400000
-0.0231170000000
-0.0403669000000
-0.0556446000000
-0.0667997000000
-0.0717654000000
-0.0733361000000
-0.0736393000000
-0.0732555000000
-0.0731773000000
-0.0699666000000
-0.0602075000000
-0.0451357000000
-0.0287680000000
-0.0161612000000
-0.0076897000000
-0.0005972180000
0.0068385900000
0.0129458000000
0.0163227000000
0.0172382000000
0.0157782000000
0.0126766000000
0.0091613300000
0.0077166200000
0.0092185300000
0.0103150000000
0.0090623800000
0.0062248700000
0.0025099300000
-0.0007207340000
-0.0012274500000
0.0027289700000
0.0093093500000
0.0163500000000
0.0241986000000
0.0326388000000
0.0406933000000
0.0480075000000
0.0522372000000
0.0496848000000
0.0387168000000
0.0216827000000
0.0014784700000
-0.0175274000000
-0.0320688000000
-0.0423644000000
-0.0474781000000
-0.0468052000000
-0.0420484000000
-0.0354279000000
-0.0286783000000
-0.0241309000000
-0.0225086000000
-0.0230643000000
-0.0247477000000
-0.0251753000000
-0.0216969000000
-0.0153890000000
-0.0101322000000
-0.0078731900000
-0.0081071300000
-0.0089450600000
-0.0092995400000
-0.0088380000000
-0.0067442900000
-0.0035907300000
-0.0010723200000
0.0019558100000
0.0074424600000
0.0128676000000
0.0157654000000
0.0168016000000
0.0162500000000
0.0133667000000
0.0098558800000
0.0085054000000
0.0106702000000
0.0146760000000
0.0173081000000
0.0165780000000
0.0135296000000
0.0099254000000
0.0058835400000
0.0006977030000
-0.0071652200000
-0.0163883000000
-0.0222793000000
-0.0229748000000
-0.0210485000000
-0.0185348000000
-0.0154516000000
-0.0108189000000
-0.0040954600000
0.0031399800000
0.0082924000000
0.0104427000000
0.0119289000000
0.0148463000000
0.0188250000000
0.0215156000000
0.0200061000000
0.0146730000000
0.0070311800000
-0.0030612600000
-0.0147005000000
-0.0270238000000
-0.0383645000000
-0.0456534000000
-0.0475874000000
-0.0464022000000
-0.0442224000000
-0.0387907000000
-0.0288604000000
-0.0152790000000
-0.0001799040000
0.0134374000000
0.0251366000000
0.0344309000000
0.0402442000000
0.0422651000000
0.0401105000000
0.0333268000000
0.0234137000000
0.0128255000000
0.0033455400000
-0.0045636300000
-0.0099425200000
-0.0123718000000
-0.0118032000000
-0.0103694000000
-0.0109341000000
-0.0123313000000
-0.0110129000000
-0.0055863000000
0.0032267500000
0.0128565000000
0.0197232000000
0.0201132000000
0.0142268000000
0.0059236500000
-0.0010096400000
-0.0053210500000
-0.0089016500000
-0.0139148000000
-0.0196649000000
-0.0246728000000
-0.0275021000000
-0.0282732000000
-0.0284214000000
-0.0283856000000
-0.0278207000000
-0.0260786000000
-0.0220581000000
-0.0146731000000
-0.0048637500000
0.0047005200000
0.0123747000000
0.0171111000000
0.0195001000000
0.0213042000000
0.0237589000000
0.0281909000000
0.0334680000000
0.0356993000000
0.0330290000000
0.0265713000000
0.0178994000000
0.0104221000000
0.0072945700000
0.0065456500000
0.0059464200000
0.0058653600000
0.0058214800000
0.0048082400000
0.0027044600000
-0.0018158000000
-0.0071586200000
-0.0099761600000
-0.0100786000000
-0.0086546300000
-0.0067814100000
-0.0049120700000
-0.0021543700000
0.0016697000000
0.0044429300000
0.0051388100000
0.0035313800000
0.0005197290000
-0.0028364600000
-0.0061640700000
-0.0089180400000
-0.0100357000000
-0.0097409100000
-0.0082376900000
-0.0034690400000
0.0035672200000
0.0096677900000
0.0133753000000
0.0154619000000
0.0157756000000
0.0128814000000
0.0058285400000
-0.0037919800000
-0.0121443000000
-0.0167386000000
-0.0177382000000
-0.0176262000000
-0.0183114000000
-0.0199284000000
-0.0226704000000
-0.0261890000000
-0.0290799000000
-0.0307992000000
-0.0315880000000
-0.0321659000000
-0.0316397000000
-0.0272672000000
-0.0193462000000
-0.0111123000000
-0.0037604700000
0.0034425400000
0.0087785600000
0.0109392000000
0.0107070000000
0.0091970500000
0.0073208100000
0.0045372300000
0.0011328100000
-0.0007285280000
0.0009617580000
0.0072196900000
0.0154562000000
0.0231418000000
0.0296854000000
0.0343912000000
0.0374639000000
0.0395708000000
0.0379755000000
0.0317558000000
0.0223570000000
0.0116746000000
0.0026055900000
-0.0026801400000
-0.0054020700000
-0.0069709500000
-0.0072213900000
-0.0076975000000
-0.0101806000000
-0.0136290000000
-0.0165114000000
-0.0183604000000
-0.0198542000000
-0.0205735000000
-0.0198419000000
-0.0203491000000
-0.0230533000000
-0.0250340000000
-0.0246881000000
-0.0225412000000
-0.0179564000000
-0.0124413000000
-0.0053159700000
0.0040829700000
0.0147418000000
0.0256029000000
0.0347591000000
0.0417614000000
0.0483476000000
0.0548554000000
0.0604747000000
0.0645680000000
0.0657582000000
0.0632521000000
0.0577813000000
0.0503061000000
0.0423576000000
0.0358526000000
0.0308330000000
0.0263078000000
0.0204768000000
0.0143731000000
0.0103760000000
0.0088615900000
0.0087038700000
0.0100598000000
0.0135512000000
0.0186678000000
0.0257513000000
0.0336369000000
0.0385366000000
0.0385343000000
0.0347892000000
0.0290074000000
0.0222068000000
0.0141962000000
0.0047971900000
-0.0053415300000
-0.0152806000000
-0.0230961000000
-0.0269451000000
-0.0290301000000
-0.0289102000000
-0.0244408000000
-0.0174950000000
-0.0093499600000
-0.0001333870000
0.0082105900000
0.0144023000000
0.0193687000000
0.0218236000000
0.0213413000000
0.0188122000000
0.0147754000000
0.0095917400000
0.0035903500000
-0.0040820400000
-0.0117697000000
-0.0173476000000
-0.0222683000000
-0.0262342000000
-0.0280466000000
-0.0307307000000
-0.0362237000000
-0.0414477000000
-0.0451869000000
-0.0470022000000
-0.0455287000000
-0.0413957000000
-0.0362131000000
-0.0308179000000
-0.0259676000000
-0.0211772000000
-0.0167840000000
-0.0147504000000
-0.0144161000000
-0.0147338000000
-0.0171391000000
-0.0221172000000
-0.0267788000000
-0.0302564000000
-0.0339058000000
-0.0383003000000
-0.0429539000000
-0.0473196000000
-0.0498010000000
-0.0499336000000
-0.0462654000000
-0.0390012000000
-0.0319365000000
-0.0264621000000
-0.0211361000000
-0.0163788000000
-0.0126246000000
-0.0103490000000
-0.0104815000000
-0.0133633000000
-0.0175949000000
-0.0228561000000
-0.0290483000000
-0.0338343000000
-0.0355472000000
-0.0337105000000
-0.0295422000000
-0.0256883000000
-0.0235784000000
-0.0225942000000
-0.0220304000000
-0.0201753000000
-0.0154424000000
-0.0089942500000
-0.0030472300000
0.0020840100000
0.0062962600000
0.0096142600000
0.0125593000000
0.0160721000000
0.0199605000000
0.0219825000000
0.0221432000000
0.0222467000000
0.0222401000000
0.0219134000000
0.0223041000000
0.0220187000000
0.0196675000000
0.0167376000000
0.0163976000000
0.0187161000000
0.0209901000000
0.0213394000000
0.0194911000000
0.0163016000000
0.0117181000000
0.0073156100000
0.0044435800000
0.0028356100000
0.0041229100000
0.0082826300000
0.0123537000000
0.0152070000000
0.0174397000000
0.0179054000000
0.0161851000000
0.0136306000000
0.0096019900000
0.0043231900000
0.0000110510000
-0.0021362200000
-0.0035648300000
-0.0055419100000
-0.0086467000000
-0.0106725000000
-0.0096165100000
-0.0073626400000
-0.0048212800000
-0.0007670950000
0.0054294100000
0.0132913000000
0.0209224000000
0.0259401000000
0.0283265000000
0.0289651000000
0.0295946000000
0.0310506000000
0.0319574000000
0.0313199000000
0.0304460000000
0.0293937000000
0.0275379000000
0.0249734000000
0.0215128000000
0.0172305000000
0.0114571000000
0.0044639600000
-0.0016851200000
-0.0062990800000
-0.0099018600000
-0.0119173000000
-0.0120567000000
-0.0113866000000
-0.0109673000000
-0.0108125000000
-0.0102007000000
-0.0084813700000
-0.0061869300000
-0.0039561200000
-0.0003589780000
0.0045951400000
0.0090420800000
0.0119265000000
0.0123221000000
0.0103713000000
0.0079681300000
0.0053567400000
0.0022403400000
-0.0003771130000
-0.0014872400000
-0.0011243900000
0.0008439700000
0.0032459600000
0.0048822900000
0.0054085000000
0.0051832000000
0.0048943100000
0.0046351200000
0.0038344700000
0.0020368600000
-0.0009876770000
-0.0039637200000
-0.0052831900000
-0.0055557300000
-0.0053393700000
-0.0037925300000
-0.0017006300000
-0.0006053610000
-0.0014180100000
-0.0049978500000
-0.0105860000000
-0.0172847000000
-0.0244490000000
-0.0294821000000
-0.0311771000000
-0.0301599000000
-0.0280916000000
-0.0267858000000
-0.0256595000000
-0.0227260000000
-0.0170167000000
-0.0092135800000
-0.0017925700000
0.0037701400000
0.0074542900000
0.0079335300000
0.0058305200000
0.0034885200000
0.0012189800000
-0.0000288389000
0.0005191150000
0.0006189960000
0.0004044850000
0.0012048800000
0.0037001700000
0.0080413500000
0.0141126000000
0.0201689000000
0.0249096000000
0.0288773000000
0.0316946000000
0.0334771000000
0.0338570000000
0.0322954000000
0.0282821000000
0.0210442000000
0.0113296000000
0.0017767900000
-0.0070950800000
-0.0147813000000
-0.0198875000000
-0.0227730000000
-0.0245836000000
-0.0238838000000
-0.0206532000000
-0.0160539000000
-0.0101826000000
-0.0041002300000
0.0011196700000
0.0057279100000
0.0085293500000
0.0086085700000
0.0070165100000
0.0040056100000
0.0003060190000
-0.0031486400000
-0.0069347700000
-0.0111299000000
-0.0130266000000
-0.0109280000000
-0.0074654000000
-0.0039295700000
0.0001885840000
0.0040397500000
0.0075118300000
0.0109490000000
0.0138424000000
0.0160606000000
0.0169420000000
0.0168387000000
0.0160255000000
0.0143290000000
0.0105863000000
0.0054496700000
0.0000711289000
-0.0057562000000
-0.0107222000000
-0.0140932000000
-0.0161978000000
-0.0156963000000
-0.0114950000000
-0.0048305800000
0.0014058200000
0.0075759400000
0.0139661000000
0.0186630000000
0.0217961000000
0.0234523000000
0.0230894000000
0.0207760000000
0.0161293000000
0.0093930600000
0.0024016000000
-0.0030100000000
-0.0051103300000
-0.0040346900000
-0.0017956100000
0.0002848440000
0.0029803700000
0.0074084100000
0.0118935000000
0.0151228000000
0.0153103000000
0.0112540000000
0.0044927300000
-0.0027436400000
-0.0093707700000
-0.0143803000000
-0.0183404000000
-0.0219932000000
-0.0253321000000
-0.0280567000000
-0.0294498000000
-0.0290932000000
-0.0270744000000
-0.0248807000000
-0.0215974000000
-0.0160158000000
-0.0092343800000
-0.0022034500000
0.0049193500000
0.0114346000000
0.0159725000000
0.0171809000000
0.0161649000000
0.0141028000000
0.0117177000000
0.0089205700000
0.0068622800000
0.0069081200000
0.0077565900000
0.0087202700000
0.0091044900000
0.0080054300000
0.0068320000000
0.0060458200000
0.0048316000000
0.0030804700000
-0.0000612004000
-0.0041038800000
-0.0078651400000
-0.0114776000000
-0.0149400000000
-0.0169855000000
-0.0183477000000
-0.0206257000000
-0.0223925000000
-0.0227660000000
-0.0231497000000
-0.0216599000000
-0.0165284000000
-0.0101774000000
-0.0059599200000
-0.0037628400000
-0.0024491700000
-0.0027332500000
-0.0037621100000
-0.0044888200000
-0.0043227500000
-0.0034750900000
-0.0025570100000
-0.0019406900000
-0.0011172100000
-0.0008471660000
-0.0007684180000
0.0006480110000
0.0020228300000
0.0013731900000
-0.0009383990000
-0.0035616800000
-0.0065166600000
-0.0110360000000
-0.0168334000000
-0.0209337000000
-0.0221732000000
-0.0215934000000
-0.0195669000000
-0.0161154000000
-0.0126380000000
-0.0101342000000
-0.0087523600000
-0.0072653200000
-0.0047089100000
-0.0026461400000
-0.0020622000000
-0.0010942700000
0.0016645500000
0.0045793100000
0.0076498600000
0.0115090000000
0.0147843000000
0.0173796000000
0.0192382000000
0.0200769000000
0.0194611000000
0.0166543000000
0.0118981000000
0.0066749400000
0.0021763600000
0.0003073280000
0.0024740200000
0.0072541100000
0.0135538000000
0.0197905000000
0.0258574000000
0.0306180000000
0.0329721000000
0.0331081000000
0.0323551000000
0.0308289000000
0.0280221000000
0.0245737000000
0.0211420000000
0.0187242000000
0.0182994000000
0.0185465000000
0.0171220000000
0.0137087000000
0.0092785800000
0.0059522800000
0.0044352300000
0.0043341500000
0.0046153000000
0.0037651500000
0.0025759800000
0.0015402700000
-0.0009727690000
-0.0044581700000
-0.0056214800000
-0.0030315600000
0.0009240310000
0.0047141600000
0.0071390300000
0.0072914800000
0.0063742600000
0.0045422700000
0.0015874700000
-0.0015680300000
-0.0036928500000
-0.0044877700000
-0.0044222000000
-0.0040075100000
-0.0043542200000
-0.0065099600000
-0.0083124500000
-0.0075988800000
-0.0065983700000
-0.0073374500000
-0.0088830700000
-0.0100334000000
-0.0115224000000
-0.0127677000000
-0.0129615000000
-0.0119033000000
-0.0090975200000
-0.0050309000000
0.0002873840000
0.0064986100000
0.0114864000000
0.0141538000000
0.0141137000000
0.0108126000000
0.0047791900000
-0.0021697900000
-0.0082201200000
-0.0127152000000
-0.0151288000000
-0.0154644000000
-0.0169291000000
-0.0182689000000
-0.0160589000000
-0.0116109000000
-0.0070798400000
-0.0025428400000
0.0020877800000
0.0064204400000
0.0087542900000
0.0082156200000
0.0051221500000
0.0009110040000
-0.0030602800000
-0.0066776500000
-0.0097632900000
-0.0113871000000
-0.0106035000000
-0.0083631300000
-0.0064472900000
-0.0058079400000
-0.0055643600000
-0.0043568700000
-0.0037515100000
-0.0039775900000
-0.0035579400000
-0.0033866800000
-0.0040488100000
-0.0040088200000
-0.0027204800000
-0.0011552200000
0.0009436250000
0.0026284400000
0.0020433800000
0.0001191890000
-0.0021390400000
-0.0044509300000
-0.0048939700000
-0.0028113600000
0.0001704260000
0.0026856400000
0.0038801800000
0.0032316400000
0.0007892970000
-0.0032997600000
-0.0073930600000
-0.0102205000000
-0.0127702000000
-0.0157320000000
-0.0182699000000
-0.0196055000000
-0.0204993000000
-0.0194871000000
-0.0162266000000
-0.0132379000000
-0.0119548000000
-0.0113491000000
-0.0090197900000
-0.0059758000000
-0.0042022600000
-0.0043464900000
-0.0053777300000
-0.0062334900000
-0.0081925000000
-0.0110843000000
-0.0126050000000
-0.0138397000000
-0.0155271000000
-0.0174278000000
-0.0194224000000
-0.0206095000000
-0.0204406000000
-0.0187963000000
-0.0148932000000
-0.0095390700000
-0.0042245400000
0.0008186340000
0.0048942600000
0.0078123200000
0.0104071000000
0.0131068000000
0.0137660000000
0.0129717000000
0.0128842000000
0.0122820000000
0.0087829200000
0.0032851400000
-0.0003919850000
-0.0015545800000
-0.0028935500000
-0.0048200000000
-0.0049670800000
-0.0025299600000
0.0013169500000
0.0069468000000
0.0131489000000
0.0169237000000
0.0187097000000
0.0198335000000
0.0205940000000
0.0210588000000
0.0214599000000
0.0236872000000
0.0271555000000
0.0284768000000
0.0273985000000
0.0260221000000
0.0256905000000
0.0263241000000
0.0279618000000
0.0300603000000
0.0303405000000
0.0288248000000
0.0272002000000
0.0252029000000
0.0221386000000
0.0185651000000
0.0158915000000
0.0153011000000
0.0159285000000
0.0164761000000
0.0170473000000
0.0174823000000
0.0162291000000
0.0137886000000
0.0117732000000
0.0110768000000
0.0125456000000
0.0153739000000
0.0175519000000
0.0183486000000
0.0181666000000
0.0177818000000
0.0178630000000
0.0176575000000
0.0164510000000
0.0149132000000
0.0129738000000
0.0097452500000
0.0064090800000
0.0043386500000
0.0024011300000
0.0008671220000
0.0004083310000
0.0010146200000
0.0017056100000
0.0021494100000
0.0030935800000
0.0049120100000
0.0046945700000
0.0006501370000
-0.0047945600000
-0.0097581500000
-0.0146736000000
-0.0189506000000
-0.0208993000000
-0.0205946000000
-0.0197245000000
-0.0191175000000
-0.0180089000000
-0.0164393000000
-0.0150928000000
-0.0140129000000
-0.0133644000000
-0.0135568000000
-0.0145051000000
-0.0155498000000
-0.0162034000000
-0.0155574000000
-0.0133953000000
-0.0116224000000
-0.0114884000000
-0.0117898000000
-0.0114947000000
-0.0104072000000
-0.0088722100000
-0.0085965700000
-0.0096453400000
-0.0115480000000
-0.0135582000000
-0.0148316000000
-0.0150630000000
-0.0147849000000
-0.0152787000000
-0.0170213000000
-0.0185408000000
-0.0182412000000
-0.0168661000000
-0.0165361000000
-0.0160176000000
-0.0137690000000
-0.0115943000000
-0.0108956000000
-0.0105309000000
-0.0093726500000
-0.0078589300000
-0.0080416400000
-0.0097822800000
-0.0111930000000
-0.0118777000000
-0.0112546000000
-0.0099276900000
-0.0092411600000
-0.0089471700000
-0.0077837900000
-0.0067614200000
-0.0077281700000
-0.0104653000000
-0.0133912000000
-0.0148933000000
-0.0146738000000
-0.0146523000000
-0.0156126000000
-0.0170677000000
-0.0181609000000
-0.0191010000000
-0.0194161000000
-0.0176601000000
-0.0144440000000
-0.0120081000000
-0.0103907000000
-0.0090616600000
-0.0077618400000
-0.0053673000000
-0.0029454800000
-0.0020248100000
-0.0020301200000
-0.0007156190000
0.0023612400000
0.0060250500000
0.0086676500000
0.0099704500000
0.0107378000000
0.0112534000000
0.0111807000000
0.0093220400000
0.0056120600000
0.0018661800000
-0.0002223570000
-0.0020814600000
-0.0046802500000
-0.0062723800000
-0.0056229200000
-0.0034190200000
-0.0004636400000
0.0037159100000
0.0081942200000
0.0115218000000
0.0130279000000
0.0133394000000
0.0134076000000
0.0133712000000
0.0135660000000
0.0139889000000
0.0146692000000
0.0149024000000
0.0130488000000
0.0098669700000
0.0070026800000
0.0052448200000
0.0045476400000
0.0041492700000
0.0043742700000
0.0053538300000
0.0061834600000
0.0072002400000
0.0083986500000
0.0089117600000
0.0088075500000
0.0091910100000
0.0105926000000
0.0128726000000
0.0153526000000
0.0167659000000
0.0169351000000
0.0172282000000
0.0177438000000
0.0179645000000
0.0183951000000
0.0188763000000
0.0187443000000
0.0186970000000
0.0203037000000
0.0220808000000
0.0226419000000
0.0222553000000
0.0204479000000
0.0174637000000
0.0147166000000
0.0124219000000
0.0108689000000
0.0106925000000
0.0120221000000
0.0138122000000
0.0152598000000
0.0157747000000
0.0154341000000
0.0134069000000
0.0094776900000
0.0055523400000
0.0027860500000
0.0013593500000
0.0017508900000
0.0027525500000
0.0021213600000
0.0002478450000
-0.0017118800000
-0.0027722400000
-0.0028281200000
-0.0024153900000
-0.0021580200000
-0.0037604700000
-0.0072424400000
-0.0109819000000
-0.0139113000000
-0.0157463000000
-0.0162649000000
-0.0152450000000
-0.0127888000000
-0.0104122000000
-0.0095013100000
-0.0099584300000
-0.0106375000000
-0.0116182000000
-0.0128310000000
-0.0136295000000
-0.0139451000000
-0.0137346000000
-0.0130075000000
-0.0125564000000
-0.0121427000000
-0.0110692000000
-0.0093123500000
-0.0075524900000
-0.0060559300000
-0.0051748700000
-0.0049387200000
-0.0050724300000
-0.0065116700000
-0.0088631900000
-0.0103750000000
-0.0110448000000
-0.0113538000000
-0.0113104000000
-0.0110171000000
-0.0110567000000
-0.0126382000000
-0.0148150000000
-0.0150154000000
-0.0132011000000
-0.0106069000000
-0.0089063900000
-0.0082887900000
-0.0064669900000
-0.0020680400000
0.0030148300000
0.0054002900000
0.0052448900000
0.0036326600000
0.0001115240000
-0.0039700100000
-0.0073651500000
-0.0088481600000
-0.0080036300000
-0.0061005600000
-0.0038877000000
-0.0013906800000
0.0015878500000
0.0046905100000
0.0070565000000
0.0083409700000
0.0095308500000
0.0117061000000
0.0141154000000
0.0149422000000
0.0145552000000
0.0133073000000
0.0115857000000
0.0100938000000
0.0090649700000
0.0073449400000
0.0041155200000
0.0000380684000
-0.0038317100000
-0.0062543400000
-0.0065646500000
-0.0055234400000
-0.0043909100000
-0.0027510100000
-0.0012138500000
-0.0004706300000
-0.0004578410000
-0.0004769730000
-0.0002669030000
0.0000538025000
0.0005796110000
0.0012157200000
0.0023774700000
0.0029079000000
0.0024523000000
0.0010523900000
-0.0017485700000
-0.0040800200000
-0.0045684400000
-0.0045111800000
-0.0047877200000
-0.0050899000000
-0.0052967700000
-0.0051992900000
-0.0039697200000
-0.0021174400000
-0.0017715600000
-0.0033511200000
-0.0050065300000
-0.0043950300000
-0.0036764500000
-0.0040602100000
-0.0049470600000
-0.0066493100000
-0.0083587200000
-0.0088458700000
-0.0083919900000
-0.0076900600000
-0.0068299900000
-0.0067030900000
-0.0077469200000
-0.0094734900000
-0.0092693200000
-0.0073547500000
-0.0061917900000
-0.0062816600000
-0.0065532700000
-0.0063876800000
-0.0060483200000
-0.0058420100000
-0.0057378200000
-0.0057455500000
-0.0063345300000
-0.0074519500000
-0.0078177600000
-0.0063602600000
-0.0046030700000
-0.0037026400000
-0.0024722000000
-0.0013128100000
-0.0015067100000
-0.0024749400000
-0.0017605100000
0.0008641680000
0.0026315500000
0.0027749700000
0.0028450100000
0.0041527500000
0.0066210300000
0.0084954800000
0.0092252600000
0.0097045700000
0.0106523000000
0.0121463000000
0.0141773000000
0.0163140000000
0.0179522000000
0.0194186000000
0.0212142000000
0.0225280000000
0.0225635000000
0.0218925000000
0.0217206000000
0.0220525000000
0.0212036000000
0.0195433000000
0.0182780000000
0.0168882000000
0.0151353000000
0.0126838000000
0.0099861000000
0.0087373300000
0.0097164200000
0.0119639000000
0.0144925000000
0.0156424000000
0.0152597000000
0.0145304000000
0.0122969000000
0.0089404700000
0.0068411500000
0.0054534000000
0.0052527200000
0.0066993600000
0.0076393400000
0.0064807400000
0.0040892700000
0.0022147600000
0.0013859600000
0.0015994800000
0.0023545600000
0.0036235700000
0.0053790800000
0.0066684800000
0.0068025100000
0.0056869600000
0.0035065700000
0.0017955000000
0.0004798450000
-0.0018435000000
-0.0049074000000
-0.0074229800000
-0.0081581800000
-0.0074496200000
-0.0059619900000
-0.0035094800000
-0.0007652950000
0.0012248000000
0.0020490500000
0.0014335900000
0.0001630660000
-0.0006468600000
-0.0007509570000
-0.0023728300000
-0.0049987500000
-0.0065987900000
-0.0081965200000
-0.0102706000000
-0.0118314000000
-0.0129693000000
-0.0140670000000
-0.0146132000000
-0.0144643000000
-0.0143058000000
-0.0143254000000
-0.0142474000000
-0.0136165000000
-0.0116575000000
-0.0095386100000
-0.0088255800000
-0.0086327700000
-0.0078965200000
-0.0073357400000
-0.0081093300000
-0.0097292800000
-0.0117904000000
-0.0136666000000
-0.0138394000000
-0.0132506000000
-0.0123366000000
-0.0113076000000
-0.0106996000000
-0.0100838000000
-0.0085949300000
-0.0068420000000
-0.0062218200000
-0.0059917200000
-0.0056632200000
-0.0054743800000
-0.0058833600000
-0.0077139100000
-0.0095373600000
-0.0098028300000
-0.0091197800000
-0.0086300500000
-0.0085652100000
-0.0083703400000
-0.0074183100000
-0.0055233300000
-0.0031185500000
-0.0017825000000
-0.0014948100000
-0.0020731200000
-0.0030497300000
-0.0038394600000
-0.0046495600000
-0.0043463800000
-0.0026679600000
-0.0008748840000
-0.0002377830000
0.0005192290000
0.0023711700000
0.0038144000000
0.0039976200000
0.0034800400000
0.0019758300000
0.0000719492000
-0.0013636300000
-0.0016206500000
-0.0003524250000
-0.0005937720000
-0.0030254400000
-0.0050609600000
-0.0056230500000
-0.0064623200000
-0.0093641100000
-0.0121382000000
-0.0126307000000
-0.0107991000000
-0.0073428800000
-0.0046497200000
-0.0030243200000
-0.0005881220000
0.0014838400000
0.0027262600000
0.0029650000000
0.0014206600000
-0.0013174900000
-0.0038688700000
-0.0049547200000
-0.0045307600000
-0.0033256000000
-0.0019776000000
-0.0003843690000
0.0018803200000
0.0044367100000
0.0059712300000
0.0075354600000
0.0090619700000
0.0092330400000
0.0082600200000
0.0068832600000
0.0062481600000
0.0062000400000
0.0058520500000
0.0062069200000
0.0068650300000
0.0071171200000
0.0073585900000
0.0079434100000
0.0084350100000
0.0083922300000
0.0091151200000
0.0104808000000
0.0117164000000
0.0128780000000
0.0135461000000
0.0135596000000
0.0137341000000
0.0140267000000
0.0143701000000
0.0151953000000
0.0152500000000
0.0151435000000
0.0150724000000
0.0139444000000
0.0111399000000
0.0082384300000
0.0064089800000
0.0061961100000
0.0077468000000
0.0089381100000
0.0103800000000
0.0129780000000
0.0149438000000
0.0153600000000
0.0157189000000
0.0160755000000
0.0155507000000
0.0144794000000
0.0131486000000
0.0118996000000
0.0119218000000
0.0129165000000
0.0134786000000
0.0131076000000
0.0115646000000
0.0100192000000
0.0090880000000
0.0077430700000
0.0062350600000
0.0044186700000
0.0026973400000
0.0008060180000
-0.0012592100000
-0.0022793700000
-0.0013321000000
-0.0001865830000
-0.0002387040000
-0.0002887580000
-0.0003197040000
-0.0006765880000
-0.0005687750000
-0.0008376500000
-0.0020869600000
-0.0036728800000
-0.0059925400000
-0.0079567500000
-0.0084622000000
-0.0086053700000
-0.0091232100000
-0.0095095500000
-0.0099223700000
-0.0096579600000
-0.0083798000000
-0.0078379600000
-0.0082027400000
-0.0084242800000
-0.0086062200000
-0.0093307300000
-0.0105576000000
-0.0120776000000
-0.0127227000000
-0.0118757000000
-0.0101679000000
-0.0087083200000
-0.0085881600000
-0.0091320300000
-0.0092308800000
-0.0095425000000
-0.0099105400000
-0.0091544900000
-0.0077289800000
-0.0068288800000
-0.0076872600000
-0.0095568700000
-0.0107117000000
-0.0111893000000
-0.0106668000000
-0.0087679900000
-0.0067906100000
-0.0055851100000
-0.0054549700000
-0.0057276600000
-0.0057535900000
-0.0049414200000
-0.0029963700000
-0.0003947660000
0.0008669190000
-0.0009947860000
-0.0042970000000
-0.0078689200000
-0.0103991000000
-0.0108142000000
-0.0106165000000
-0.0122019000000
-0.0144910000000
-0.0167641000000
-0.0190147000000
-0.0204727000000
-0.0217695000000
-0.0233893000000
-0.0245903000000
-0.0239899000000
-0.0215094000000
-0.0173908000000
-0.0124847000000
-0.0070126600000
-0.0019381000000
0.0012852700000
0.0018142800000
0.0008288600000
0.0008609120000
0.0010504500000
0.0000208165000
-0.0002516140000
0.0013653700000
0.0026647300000
0.0023306700000
0.0016186000000
0.0009931050000
0.0002341000000
0.0001418100000
0.0010686800000
0.0032693800000
0.0057944000000
0.0074432500000
0.0087999000000
0.0091357100000
0.0089682400000
0.0099522500000
0.0115330000000
0.0118115000000
0.0111440000000
0.0104963000000
0.0090133600000
0.0062197000000
0.0034219000000
0.0017508200000
0.0010343400000
0.0013259400000
0.0015011100000
0.0020437800000
0.0033205400000
0.0038239200000
0.0037239700000
0.0043990000000
0.0052168100000
0.0059371700000
0.0075927100000
0.0088836900000
0.0090334700000
0.0093279100000
0.0097244800000
0.0088454900000
0.0074520400000
0.0055040400000
0.0034690000000
0.0019090000000
0.0009772760000
0.0012442300000
0.0031213000000
0.0058166600000
0.0087203800000
0.0120182000000
0.0144979000000
0.0155632000000
0.0161223000000
0.0166543000000
0.0169343000000
0.0170149000000
0.0158703000000
0.0133381000000
0.0115600000000
0.0099779900000
0.0074750600000
0.0053808200000
0.0054158600000
0.0069449800000
0.0087777700000
0.0092696500000
0.0082863000000
0.0074320100000
0.0066960800000
0.0053006000000
0.0037290100000
0.0019148200000
0.0000581364000
-0.0001191760000
0.0007351740000
-0.0001912420000
-0.0019720600000
-0.0026233200000
-0.0026515900000
-0.0027758100000
-0.0033311600000
-0.0037483200000
-0.0031485100000
-0.0017965200000
0.0000923125000
0.0025328400000
0.0041534100000
0.0043531800000
0.0043474600000
0.0042638800000
0.0036358400000
0.0032636800000
0.0034471300000
0.0037891700000
0.0032949800000
0.0021498900000
0.0009860010000
-0.0000177916000
-0.0011517700000
-0.0021449400000
-0.0014761500000
0.0005241160000
0.0025564400000
0.0055734500000
0.0093183400000
0.0114958000000
0.0120740000000
0.0116579000000
0.0095453700000
0.0067382000000
0.0039032100000
0.0007520480000
-0.0014577600000
-0.0037547900000
-0.0075548300000
-0.0118043000000
-0.0150437000000
-0.0171071000000
-0.0175569000000
-0.0160015000000
-0.0137643000000
-0.0114365000000
-0.0091258400000
-0.0072059100000
-0.0059152700000
-0.0049626700000
-0.0051769200000
-0.0055316100000
-0.0053005800000
-0.0058776600000
-0.0080247800000
-0.0109546000000
-0.0128420000000
-0.0127042000000
-0.0112945000000
-0.0107725000000
-0.0110097000000
-0.0102242000000
-0.0080821400000
-0.0058731700000
-0.0048624300000
-0.0053076200000
-0.0062759200000
-0.0071888100000
-0.0069640000000
-0.0057635100000
-0.0060424000000
-0.0071979600000
-0.0075748900000
-0.0075458500000
-0.0084793200000
-0.0096828600000
-0.0099114700000
-0.0091103100000
-0.0073565700000
-0.0054748600000
-0.0039563400000
-0.0023370000000
-0.0005848110000
0.0012340100000
0.0031281500000
0.0033863500000
0.0025777600000
0.0031816400000
0.0037843100000
0.0025861700000
0.0010220600000
0.0000182462000
-0.0004371300000
-0.0006992470000
-0.0016116100000
-0.0029734200000
-0.0043471800000
-0.0056506000000
-0.0062114900000
-0.0062144600000
-0.0063192300000
-0.0063307100000
-0.0062357500000
-0.0056377600000
-0.0042041800000
-0.0034845300000
-0.0031094800000
-0.0016630100000
-0.0009837560000
-0.0016190600000
-0.0017946800000
-0.0012118600000
-0.0003971960000
0.0002163150000
0.0005159770000
0.0007793830000
0.0021492000000
0.0040604100000
0.0053464200000
0.0062832800000
0.0072191000000
0.0084251100000
0.0088178500000
0.0085917700000
0.0092124400000
0.0091534500000
0.0079775400000
0.0073153900000
0.0070740400000
0.0061413100000
0.0050182500000
0.0039065200000
0.0028814100000
0.0020700300000
0.0009737020000
0.0002743890000
0.0000004506310
-0.0001671790000
0.0000898955000
0.0007342410000
0.0015506700000
0.0030624300000
0.0041383000000
0.0039565700000
0.0032618200000
0.0014392200000
-0.0003450280000
0.0000285488000
0.0010123700000
-0.0000436266000
-0.0010936600000
-0.0005420220000
0.0006355470000
0.0018484200000
0.0025082000000
0.0033248100000
0.0046846500000
0.0056354700000
0.0049518800000
0.0033872100000
0.0017067600000
0.0008190100000
0.0002892000000
-0.0000440499000
0.0004927570000
0.0010595000000
0.0014256000000
0.0021310300000
0.0029796300000
0.0027761000000
0.0022184800000
0.0024619000000
0.0024559800000
0.0021063600000
0.0019588100000
0.0010726100000
-0.0003385570000
-0.0008482840000
-0.0009741630000
-0.0019632200000
-0.0024600900000
-0.0019636900000
-0.0018915600000
-0.0021833600000
-0.0024964700000
-0.0033602200000
-0.0043238600000
-0.0057712500000
-0.0067707400000
-0.0061273600000
-0.0047910600000
-0.0034653300000
-0.0013133000000
0.0019826200000
0.0049219500000
0.0073224700000
0.0086610500000
0.0078617100000
0.0062298000000
0.0048727200000
0.0038731700000
0.0037849700000
0.0051035000000
0.0057768700000
0.0046925700000
0.0033347500000
0.0029919300000
0.0029436800000
0.0030218600000
0.0037913300000
0.0043704500000
0.0050021600000
0.0059218700000
0.0064561000000
0.0066650800000
0.0051452100000
0.0032341000000
0.0021668800000
0.0016553200000
0.0020182600000
0.0033951300000
0.0051085100000
0.0055860800000
0.0045353900000
0.0036630600000
0.0038101400000
0.0046430700000
0.0055894000000
0.0047879500000
0.0017325100000
-0.0013443700000
-0.0031103200000
-0.0048495000000
-0.0076163800000
-0.0100126000000
-0.0103045000000
-0.0090124100000
-0.0076951600000
-0.0068449600000
-0.0058213200000
-0.0043920000000
-0.0031105100000
-0.0024725600000
-0.0025587900000
-0.0032764000000
-0.0047765500000
-0.0058592300000
-0.0062399600000
-0.0059505900000
-0.0054427200000
-0.0053023700000
-0.0050562500000
-0.0047846700000
-0.0048330800000
-0.0055420500000
-0.0074689700000
-0.0090405100000
-0.0084887300000
-0.0070712500000
-0.0052469700000
-0.0039106700000
-0.0033900500000
-0.0029193300000
-0.0020584700000
-0.0017306900000
-0.0015105300000
-0.0012998600000
-0.0027142400000
-0.0052733100000
-0.0070056300000
-0.0079712600000
-0.0088994400000
-0.0099426300000
-0.0096854800000
-0.0083384700000
-0.0075247000000
-0.0072436300000
-0.0059552400000
-0.0038447400000
-0.0024888100000
-0.0018274400000
-0.0012417100000
-0.0011121900000
-0.0016377000000
-0.0021848900000
-0.0024969900000
-0.0025080500000
-0.0020899600000
-0.0008981770000
0.0010799200000
0.0012817500000
0.0001909840000
0.0005034240000
0.0018580900000
0.0024617900000
0.0023477000000
0.0023869500000
0.0019129700000
0.0009766000000
-0.0000019689200
-0.0003422710000
0.0006068270000
0.0029078300000
0.0058459500000
0.0089634100000
0.0103237000000
0.0097518400000
0.0093695000000
0.0102336000000
0.0105745000000
0.0102812000000
0.0098307400000
0.0085602100000
0.0067624000000
0.0055606800000
0.0048193900000
0.0041524700000
0.0037149000000
0.0032254900000
0.0030436300000
0.0025887900000
0.0022484700000
0.0023550000000
0.0025309800000
0.0028972000000
0.0029867400000
0.0035127900000
0.0049330700000
0.0066656200000
0.0071339100000
0.0065927700000
0.0065091000000
0.0057178100000
0.0036693300000
0.0016911600000
0.0012743300000
0.0025610700000
0.0036850500000
0.0045095000000
0.0051909700000
0.0048806000000
0.0042371500000
0.0038456400000
0.0039206900000
0.0035196900000
0.0022774600000
0.0019671600000
0.0038124300000
0.0068635000000
0.0078844100000
0.0077828100000
0.0081852900000
0.0082391400000
0.0073751000000
0.0060789000000
0.0048327100000
0.0035863200000
0.0019573900000
0.0005417620000
-0.0005132360000
-0.0017601500000
-0.0026418800000
-0.0025049700000
-0.0020175400000
-0.0020621300000
-0.0020250900000
-0.0009847150000
0.0003104570000
0.0002535720000
-0.0012698300000
-0.0018816800000
-0.0011610600000
-0.0013065500000
-0.0022032800000
-0.0026006000000
-0.0025348900000
-0.0024475600000
-0.0027688900000
-0.0028215700000
-0.0020928700000
-0.0021311000000
-0.0030913900000
-0.0042758800000
-0.0059497300000
-0.0072116400000
-0.0070774500000
-0.0054981900000
-0.0038356700000
-0.0024241300000
-0.0010680100000
0.0008254830000
0.0023041400000
0.0017634800000
0.0005277380000
-0.0000339051000
-0.0007461410000
-0.0017862800000
-0.0029084400000
-0.0044819500000
-0.0064618300000
-0.0084556300000
-0.0097254400000
-0.0097836100000
-0.0090995800000
-0.0079582300000
-0.0073796100000
-0.0076832600000
-0.0078224600000
-0.0072744500000
-0.0062022500000
-0.0047330000000
-0.0034211300000
-0.0039004200000
-0.0051263400000
-0.0057751600000
-0.0060687100000
-0.0061944000000
-0.0065920600000
-0.0068234100000
-0.0062046000000
-0.0058054800000
-0.0059997500000
-0.0059884400000
-0.0055156000000
-0.0042304800000
-0.0023873100000
-0.0010235800000
-0.0003298350000
0.0003335360000
0.0005278800000
0.0001939990000
0.0003958690000
0.0013110600000
0.0024513600000
0.0028672100000
0.0026328100000
0.0028344100000
0.0044272000000
0.0059414400000
0.0057262300000
0.0047772700000
0.0047226300000
0.0052564600000
0.0054623000000
0.0051257100000
0.0040231500000
0.0031156700000
0.0031878200000
0.0036120100000
0.0036432900000
0.0035323500000
0.0037978300000
0.0038358100000
0.0035827500000
0.0030373600000
0.0019507100000
0.0008119110000
0.0004090050000
0.0004937570000
0.0004561200000
0.0002301820000
0.0005269710000
0.0016574000000
0.0026302800000
0.0028106000000
0.0024413100000
0.0019988800000
0.0015167400000
0.0012613700000
0.0015640900000
0.0015065800000
0.0007237000000
0.0000996782000
-0.0001463360000
-0.0003239470000
-0.0004130200000
0.0002146730000
0.0015543800000
0.0027158700000
0.0027016300000
0.0018271700000
0.0013736000000
0.0011637400000
0.0004027600000
-0.0003784370000
-0.0007967050000
-0.0010193200000
-0.0010434800000
-0.0010869100000
-0.0012431900000
-0.0010890400000
-0.0006398830000
-0.0004510820000
-0.0003595590000
0.0000054986400
0.0002095100000
0.0003505690000
0.0001461370000
-0.0005482900000
-0.0010213300000
-0.0013631000000
-0.0016532600000
-0.0016703300000
-0.0017950200000
-0.0023274600000
-0.0026431600000
-0.0027550700000
-0.0036032200000
-0.0042071200000
-0.0037174500000
-0.0033734800000
-0.0035099200000
-0.0032682200000
-0.0025538400000
-0.0023212600000
-0.0029516500000
-0.0035309700000
-0.0034393900000
-0.0030252000000
-0.0027800000000
-0.0027026700000
-0.0023683100000
-0.0019498800000
-0.0015281000000
-0.0009660510000
-0.0008447350000
-0.0009065710000
-0.0008614100000
-0.0007388190000
-0.0004791940000
-0.0002798720000
-0.0002651480000
-0.0003283500000
-0.0002713830000
-0.0001770140000
-0.0000909117000
0.0001802460000
0.0006366960000
0.0008606190000
0.0005627610000
0.0002502390000
0.0002265310000
0.0000904181000
-0.0000597560000
0.0001954100000
0.0005875340000
0.0009578400000
0.0013122700000
0.0016298400000
0.0017946300000
0.0016639700000
0.0015800600000
0.0017688000000
0.0019248700000
0.0018506800000
0.0016884700000
0.0016061400000
0.0014915300000
0.0014316600000
0.0015988300000
0.0017529000000
0.0017477100000
0.0017552900000
0.0018566600000
0.0020145200000
0.0020836400000
0.0020851300000
0.0020691600000
0.0020307500000
0.0020075500000
0.0020422100000
0.0020804500000
0.0020045400000
0.0020002700000
0.0020548100000
0.0019668600000
0.0018452900000
0.0018146700000
0.0018180000000
0.0017633400000
0.0015468600000
0.0013412000000
0.0012748000000
0.0012658500000
0.0012684400000
0.0012742900000
0.0013118100000
0.0013656400000
0.0012688600000
0.0010491100000
0.0008666890000
0.0007487270000
0.0005948660000
0.0004823030000
0.0005149290000
0.0005081860000
0.0003904540000
0.0002929070000
0.0002553040000
0.0002089670000
0.0001408240000
0.0001088680000
0.0001446030000
0.0002055300000
0.0002267850000
0.0001353030000
0.0000010292800
-0.0000713239000
-0.0001591860000
-0.0002784370000
-0.0003615570000
-0.0003775430000
-0.0003832560000
-0.0003915000000
-0.0003817820000
-0.0004070000000
-0.0004401610000
-0.0004562720000
-0.0004548140000
-0.0004439010000
-0.0004695060000
-0.0005143640000
-0.0005461260000
-0.0005652210000
-0.0005877100000
-0.0006167560000
-0.0006297970000
-0.0006172600000
-0.0005938740000
-0.0005813500000
-0.0005799350000
-0.0005734270000
-0.0005657120000
-0.0005582690000
-0.0005420000000
-0.0005276150000
-0.0005103490000
-0.0004930580000
-0.0004822340000
-0.0004700670000
-0.0004667630000
-0.0004685050000
-0.0004621880000
-0.0004451500000
-0.0004261400000
-0.0004107440000
-0.0003978130000
-0.0003818570000
-0.0003584740000
-0.0003359310000
-0.0003204930000
-0.0003090600000
-0.0002998010000
-0.0002915900000
-0.0002800890000
-0.0002692700000
-0.0002599390000
-0.0002493270000
-0.0002397970000
-0.0002318970000
-0.0002227120000
-0.0002106190000
-0.0001980260000
-0.0001859560000
-0.0001758260000
-0.0001676730000
-0.0001598080000
-0.0001523350000
-0.0001450120000
-0.0001374470000
-0.0001301740000
-0.0001233370000
-0.0001162430000
-0.0001085040000
-0.0001004820000
-0.0000926174000
-0.0000849133000
-0.0000774277000
-0.0000702380000
-0.0000632273000
-0.0000563351000
-0.0000496595000
-0.0000432383000
-0.0000369657000
-0.0000307797000
-0.0000246833000
-0.0000186875000
-0.0000128028000
-0.0000070396600
-0.0000013844300
0.0000041774800
0.0000096430400
0.0000150002000
0.0000202462000
0.0000253852000
0.0000304198000
0.0000353501000
0.0000401752000
0.0000000000000
0.0000000000000
0.0000000000000
0.0000000000000
