0.02 -73829.6 -3.29722 -49184.9 281.84 -72949.7 -5.69171 65493 154.88 -73797.8 -11.4432 -1794.81 90.3372 -72420.2 -7.80966 -87959.8 47.256 -73149.1 -7.70942 75110.9 -76.4344 -73780.4 -10.7415 -3999.27 -122.076 -72295.5 -5.39686 -80577.8 -140.129 -73907.4 -3.1508 50168.7 -265.944
0.04 -147659 -3.27845 -98709.1 276.788 -145899 -5.62853 130634 146.69 -147596 -11.1597 -4061.12 85.6856 -144841 -7.73107 -176037 50.1194 -146298 -7.62775 150038 -79.9082 -147561 -10.4491 -8078.71 -120.536 -144591 -5.33274 -161059 -132.197 -147815 -3.12961 100398 -261.088
0.06 -221489 -3.2591 -148295 274.335 -218849 -5.58722 195686 143.968 -221393 -11.0424 -6416.15 84.2644 -217261 -7.67734 -264106 50.8398 -219448 -7.57685 224915 -79.8546 -221342 -10.3501 -12165.5 -119.404 -216887 -5.29882 -241500 -129.966 -221722 -3.11368 150630 -259.131
0.08 -295318 -3.25471 -197887 273.771 -291799 -5.57779 260702 143.355 -295191 -11.0154 -8788.26 83.9783 -289682 -7.66475 -352149 51.0432 -292597 -7.56553 299763 -79.7782 -295122 -10.3294 -16251 -119.136 -289183 -5.29165 -321913 -129.516 -295629 -3.1099 200856 -258.725
0.1 -369147 -3.25266 -247473 273.577 -364749 -5.57392 325695 143.164 -368989 -11.006 -11163.8 83.8693 -362103 -7.65937 -440164 51.0615 -365746 -7.56043 374584 -79.7434 -368903 -10.3215 -20334.5 -119.04 -361479 -5.28834 -402299 -129.372 -369536 -3.10831 251072 -258.552
0.12 -442976 -3.2522 -297050 273.527 -437699 -5.57286 390665 143.121 -442786 -11.0034 -13540.1 83.8541 -434523 -7.65816 -528149 51.0839 -438896 -7.55919 449380 -79.7097 -442683 -10.3202 -24415.5 -119.018 -433775 -5.28779 -482660 -129.364 -443443 -3.10771 301279 -258.531
0.14 -516805 -3.25165 -346619 273.504 -510649 -5.57205 455615 143.094 -516584 -11.0018 -15916.6 83.8332 -506944 -7.65694 -616105 51.0769 -512045 -7.55799 524150 -79.7111 -516463 -10.3186 -28494.5 -119.008 -506071 -5.28697 -562994 -129.341 -517350 -3.10744 351475 -258.498
0.16 -590634 -3.25134 -396178 273.472 -583599 -5.57139 520543 143.063 -590381 -10.9999 -18293.2 83.8052 -579365 -7.65586 -704031 51.0547 -585194 -7.55655 598894 -79.7433 -590243 -10.3154 -32571.6 -118.985 -578367 -5.28584 -643304 -129.277 -591257 -3.10676 401662 -258.442
0.18 -664463 -3.25195 -445728 273.522 -656549 -5.57235 585449 143.094 -664179 -11.0015 -20670 83.8381 -651786 -7.65738 -791929 51.0785 -658344 -7.55823 673612 -79.7755 -664023 -10.3165 -36646.4 -119.013 -650663 -5.28685 -723587 -129.294 -665164 -3.10752 451839 -258.493
0.2 -738292 -3.25094 -495269 273.433 -729499 -5.57054 650335 143.032 -737976 -10.9974 -23046.9 83.7943 -724207 -7.65447 -879796 51.0686 -731493 -7.55542 748305 -79.7176 -737803 -10.3139 -40718.7 -118.969 -722959 -5.28502 -803844 -129.265 -739071 -3.10655 502006 -258.425
0.22 -812121 -3.2509 -544801 273.437 -802449 -5.57054 715199 143.026 -811773 -10.9971 -25423.8 83.7867 -796627 -7.65449 -967635 51.0566 -804643 -7.55537 822972 -79.7656 -811583 -10.312 -44789.3 -118.96 -795256 -5.28462 -884075 -129.214 -812978 -3.10649 552163 -258.406
0.24 -885950 -3.25125 -594323 273.472 -875400 -5.57105 780041 143.054 -885570 -10.9982 -27800.9 83.8239 -869048 -7.65571 -1.05544e+06 51.0971 -877793 -7.55667 897613 -79.7453 -885363 -10.3142 -48857.1 -118.991 -867552 -5.28579 -964280 -129.278 -886884 -3.10691 602310 -258.472
0.26 -959779 -3.25014 -643837 273.394 -948350 -5.56911 844863 142.987 -959367 -10.9943 -30178.1 83.7627 -941469 -7.65268 -1.14322e+06 51.0567 -950942 -7.5535 972228 -79.7473 -959143 -10.3097 -52923.2 -118.951 -939849 -5.28357 -1.04446e+06 -129.207 -960791 -3.10569 652448 -258.363
0.28 -1.03361e+06 -3.25048 -693341 273.424 -1.0213e+06 -5.56986 909663 143.011 -1.03316e+06 -10.9952 -32555.4 83.7943 -1.01389e+06 -7.65369 -1.23097e+06 51.0904 -1.02409e+06 -7.55467 1.04682e+06 -79.7386 -1.03292e+06 -10.3114 -56986.8 -118.969 -1.01215e+06 -5.28446 -1.12461e+06 -129.243 -1.0347e+06 -3.10628 702575 -258.421
0.3 -1.10744e+06 -3.25017 -742836 273.401 -1.09425e+06 -5.56908 974441 142.987 -1.10696e+06 -10.9937 -34932.9 83.7754 -1.08631e+06 -7.65262 -1.31869e+06 51.082 -1.09724e+06 -7.55367 1.12138e+06 -79.7405 -1.1067e+06 -10.3098 -61048.4 -118.956 -1.08444e+06 -5.28374 -1.20474e+06 -129.214 -1.1086e+06 -3.10589 752693 -258.39
0.32 -1.18126e+06 -3.24959 -792322 273.351 -1.1672e+06 -5.56786 1.0392e+06 142.946 -1.18076e+06 -10.9911 -37310.4 83.7424 -1.15873e+06 -7.65079 -1.40639e+06 51.0638 -1.17039e+06 -7.5517 1.19592e+06 -79.7416 -1.18048e+06 -10.3068 -65107.8 -118.931 -1.15674e+06 -5.28231 -1.28484e+06 -129.176 -1.18251e+06 -3.10499 802800 -258.328
0.34 -1.25509e+06 -3.24999 -841799 273.384 -1.24015e+06 -5.56856 1.10393e+06 142.969 -1.25455e+06 -10.9921 -39688 83.77 -1.23115e+06 -7.65211 -1.49405e+06 51.0895 -1.24354e+06 -7.55294 1.27043e+06 -79.7509 -1.25426e+06 -10.308 -69165 -118.948 -1.22904e+06 -5.2832 -1.36492e+06 -129.192 -1.25642e+06 -3.10564 852898 -258.377
0.36 -1.32892e+06 -3.24957 -891267 273.35 -1.3131e+06 -5.56773 1.16865e+06 142.942 -1.32835e+06 -10.9902 -42065.8 83.7526 -1.30358e+06 -7.65081 -1.58168e+06 51.0865 -1.31669e+06 -7.55184 1.34492e+06 -79.7399 -1.32804e+06 -10.3063 -73220 -118.932 -1.30133e+06 -5.2824 -1.44497e+06 -129.174 -1.33032e+06 -3.10511 902986 -258.346
0.38 -1.40275e+06 -3.2491 -940725 273.328 -1.38605e+06 -5.56713 1.23334e+06 142.921 -1.40215e+06 -10.9888 -44443.7 83.7362 -1.376e+06 -7.64991 -1.66928e+06 51.0789 -1.38984e+06 -7.55073 1.41938e+06 -79.7457 -1.40182e+06 -10.3046 -77272.8 -118.921 -1.37363e+06 -5.28166 -1.52499e+06 -129.147 -1.40423e+06 -3.10475 953064 -258.316
0.4 -1.47658e+06 -3.24727 -990174 273.17 -1.45901e+06 -5.5636 1.29801e+06 142.796 -1.47594e+06 -10.9814 -46821.6 83.6219 -1.44842e+06 -7.64411 -1.75686e+06 51.0034 -1.46299e+06 -7.54476 1.49381e+06 -79.7316 -1.4756e+06 -10.2966 -81323.6 -118.836 -1.44593e+06 -5.2775 -1.60499e+06 -129.024 -1.47813e+06 -3.10233 1.00313e+06 -258.114
0.42 -1.55041e+06 -3.24808 -1.03961e+06 273.24 -1.53196e+06 -5.5649 1.36266e+06 142.846 -1.54974e+06 -10.984 -49199.7 83.6753 -1.52084e+06 -7.64652 -1.8444e+06 51.0474 -1.53614e+06 -7.54721 1.56822e+06 -79.744 -1.54938e+06 -10.2994 -85371.9 -118.878 -1.51822e+06 -5.27926 -1.68496e+06 -129.079 -1.55204e+06 -3.10331 1.05319e+06 -258.206
0.44 -1.62423e+06 -3.24761 -1.08904e+06 273.205 -1.60491e+06 -5.56401 1.42729e+06 142.812 -1.62354e+06 -10.982 -51577.9 83.6464 -1.59326e+06 -7.64525 -1.93192e+06 51.0273 -1.60929e+06 -7.54575 1.6426e+06 -79.7637 -1.62316e+06 -10.2966 -89418.4 -118.853 -1.59052e+06 -5.27814 -1.76491e+06 -129.022 -1.62595e+06 -3.10279 1.10324e+06 -258.152
0.46 -1.69806e+06 -3.24741 -1.13847e+06 273.203 -1.67786e+06 -5.56386 1.4919e+06 142.81 -1.69733e+06 -10.9814 -53956.3 83.6509 -1.66568e+06 -7.64489 -2.0194e+06 51.0417 -1.68244e+06 -7.5456 1.71696e+06 -79.7474 -1.69693e+06 -10.2967 -93462.2 -118.861 -1.66282e+06 -5.27825 -1.84483e+06 -129.044 -1.69985e+06 -3.10269 1.15328e+06 -258.163
0.48 -1.77189e+06 -3.24765 -1.18788e+06 273.224 -1.75081e+06 -5.56427 1.55649e+06 142.822 -1.77113e+06 -10.9819 -56334.7 83.667 -1.7381e+06 -7.64557 -2.10686e+06 51.0566 -1.75559e+06 -7.5465 1.79129e+06 -79.764 -1.77071e+06 -10.297 -97504.2 -118.868 -1.73512e+06 -5.27845 -1.92472e+06 -129.037 -1.77376e+06 -3.10318 1.2033e+06 -258.19
0.5 -1.84572e+06 -3.24736 -1.23728e+06 273.198 -1.82376e+06 -5.56358 1.62105e+06 142.794 -1.84492e+06 -10.9802 -58713.2 83.6422 -1.81053e+06 -7.64442 -2.19428e+06 51.0384 -1.82874e+06 -7.54518 1.86559e+06 -79.7871 -1.84449e+06 -10.2943 -101544 -118.854 -1.80741e+06 -5.2776 -2.00459e+06 -128.994 -1.84766e+06 -3.10263 1.25332e+06 -258.142
0.52 -1.91954e+06 -3.24703 -1.28667e+06 273.175 -1.89671e+06 -5.56299 1.68559e+06 142.78 -1.91872e+06 -10.9789 -61091.9 83.6407 -1.88295e+06 -7.6437 -2.28168e+06 51.054 -1.90189e+06 -7.54457 1.93987e+06 -79.7549 -1.91827e+06 -10.2941 -105581 -118.851 -1.87971e+06 -5.27728 -2.08443e+06 -129.012 -1.92157e+06 -3.10238 1.30333e+06 -258.141
0.54 -1.99337e+06 -3.24646 -1.33606e+06 273.124 -1.96966e+06 -5.5618 1.75011e+06 142.744 -1.99251e+06 -10.9764 -63470.7 83.619 -1.95537e+06 -7.64195 -2.36904e+06 51.0555 -1.97504e+06 -7.54304 2.01412e+06 -79.7151 -1.99205e+06 -10.2929 -109616 -118.825 -1.95201e+06 -5.27624 -2.16424e+06 -128.997 -1.99548e+06 -3.1018 1.35333e+06 -258.11