0.02 6.21406e-05 -6.21377e-05 7.44306e-05 -7.4422e-05 7.33167e-05 -7.33016e-05 2.74811e-05 -2.74555e-05 2.75343e-05 -2.75087e-05 7.26476e-05 -7.26264e-05 7.3573e-05 -7.35519e-05 2.74626e-05 -2.7438e-05 2.75404e-05 -2.75158e-05 7.24861e-05 -7.24714e-05 7.45292e-05 -7.45208e-05 6.16278e-05 -6.16256e-05
0.04 0.000124279 -0.000124276 0.000148857 -0.000148848 0.000146626 -0.000146611 5.49518e-05 -5.49265e-05 5.50548e-05 -5.50294e-05 0.000145285 -0.000145264 0.000147135 -0.000147114 5.49142e-05 -5.48898e-05 5.50692e-05 -5.50448e-05 0.000144965 -0.00014495 0.000149054 -0.000149046 0.000123254 -0.000123252
0.06 0.000186418 -0.000186414 0.000223283 -0.000223274 0.000219935 -0.00021992 8.24231e-05 -8.23979e-05 8.25751e-05 -8.25499e-05 0.000217923 -0.000217901 0.000220698 -0.000220677 8.23659e-05 -8.23417e-05 8.25981e-05 -8.25739e-05 0.000217444 -0.000217429 0.000223579 -0.000223571 0.000184881 -0.000184879
0.08 0.000248556 -0.000248553 0.000297709 -0.0002977 0.000293245 -0.000293229 0.000109895 -0.000109869 0.000110095 -0.00011007 0.00029056 -0.000290539 0.00029426 -0.000294239 0.000109818 -0.000109794 0.000110127 -0.000110103 0.000289923 -0.000289909 0.000298104 -0.000298095 0.000246508 -0.000246506
0.1 0.000310694 -0.000310691 0.000372134 -0.000372126 0.000366554 -0.000366539 0.000137366 -0.000137341 0.000137616 -0.000137591 0.000363198 -0.000363176 0.000367823 -0.000367802 0.00013727 -0.000137245 0.000137656 -0.000137632 0.000362403 -0.000362388 0.000372628 -0.00037262 0.000308135 -0.000308132
0.12 0.000372833 -0.00037283 0.00044656 -0.000446551 0.000439863 -0.000439848 0.000164837 -0.000164812 0.000165136 -0.000165111 0.000435835 -0.000435814 0.000441386 -0.000441365 0.000164721 -0.000164697 0.000165185 -0.000165161 0.000434882 -0.000434867 0.000447153 -0.000447144 0.000369761 -0.000369759
0.14 0.000434972 -0.000434969 0.000520986 -0.000520977 0.000513173 -0.000513158 0.000192309 -0.000192284 0.000192656 -0.000192631 0.000508473 -0.000508452 0.000514948 -0.000514927 0.000192173 -0.000192149 0.000192714 -0.00019269 0.000507361 -0.000507347 0.000521677 -0.000521669 0.000431388 -0.000431386
0.16 0.000497111 -0.000497108 0.000595411 -0.000595402 0.000586483 -0.000586468 0.00021978 -0.000219755 0.000220177 -0.000220151 0.000581111 -0.00058109 0.000588511 -0.00058849 0.000219625 -0.000219601 0.000220242 -0.000220218 0.000579841 -0.000579826 0.000596202 -0.000596193 0.000493016 -0.000493013
0.18 0.00055925 -0.000559246 0.000669836 -0.000669828 0.000659793 -0.000659778 0.000247251 -0.000247226 0.000247697 -0.000247672 0.000653749 -0.000653727 0.000662074 -0.000662053 0.000247076 -0.000247052 0.000247771 -0.000247747 0.000652321 -0.000652306 0.000670726 -0.000670718 0.000554643 -0.000554641
0.2 0.000621388 -0.000621385 0.000744262 -0.000744253 0.000733102 -0.000733087 0.000274723 -0.000274697 0.000275217 -0.000275192 0.000726387 -0.000726365 0.000735637 -0.000735616 0.000274528 -0.000274504 0.0002753 -0.000275276 0.0007248 -0.000724786 0.00074525 -0.000745242 0.00061627 -0.000616268
0.22 0.000683528 -0.000683525 0.000818687 -0.000818678 0.000806412 -0.000806397 0.000302194 -0.000302169 0.000302737 -0.000302712 0.000799025 -0.000799003 0.0008092 -0.000809179 0.00030198 -0.000301955 0.000302829 -0.000302804 0.00079728 -0.000797265 0.000819774 -0.000819766 0.000677897 -0.000677895
0.24 0.000745667 -0.000745664 0.000893112 -0.000893104 0.000879722 -0.000879707 0.000329665 -0.00032964 0.000330257 -0.000330232 0.000871663 -0.000871641 0.000882763 -0.000882742 0.000329431 -0.000329407 0.000330357 -0.000330333 0.00086976 -0.000869745 0.000894298 -0.00089429 0.000739525 -0.000739523
0.26 0.000807806 -0.000807803 0.000967537 -0.000967529 0.000953033 -0.000953018 0.000357136 -0.000357111 0.000357777 -0.000357752 0.000944301 -0.000944279 0.000956326 -0.000956305 0.000356883 -0.000356858 0.000357886 -0.000357862 0.00094224 -0.000942225 0.000968822 -0.000968814 0.000801152 -0.00080115
0.28 0.000869945 -0.000869942 0.00104196 -0.00104195 0.00102634 -0.00102633 0.000384607 -0.000384582 0.000385297 -0.000385272 0.00101694 -0.00101692 0.00102989 -0.00102987 0.000384334 -0.00038431 0.000385414 -0.00038539 0.00101472 -0.00101471 0.00104335 -0.00104334 0.00086278 -0.000862778
0.3 0.000932085 -0.000932082 0.00111639 -0.00111638 0.00109965 -0.00109964 0.000412078 -0.000412053 0.000412817 -0.000412792 0.00108958 -0.00108956 0.00110345 -0.00110343 0.000411785 -0.000411761 0.000412943 -0.000412919 0.0010872 -0.00108719 0.00111787 -0.00111786 0.000924408 -0.000924405
0.32 0.000994224 -0.000994221 0.00119081 -0.0011908 0.00117296 -0.00117295 0.000439549 -0.000439524 0.000440337 -0.000440312 0.00116222 -0.00116219 0.00117702 -0.00117699 0.000439237 -0.000439213 0.000440471 -0.000440447 0.00115968 -0.00115967 0.00119239 -0.00119239 0.000986035 -0.000986033
0.34 0.00105636 -0.00105636 0.00126524 -0.00126523 0.00124627 -0.00124626 0.00046702 -0.000466995 0.000467857 -0.000467832 0.00123485 -0.00123483 0.00125058 -0.00125056 0.000466688 -0.000466664 0.000468 -0.000467976 0.00123216 -0.00123215 0.00126692 -0.00126691 0.00104766 -0.00104766
0.36 0.0011185 -0.0011185 0.00133966 -0.00133965 0.00131958 -0.00131957 0.000494491 -0.000494466 0.000495377 -0.000495351 0.00130749 -0.00130747 0.00132414 -0.00132412 0.000494139 -0.000494115 0.000495528 -0.000495504 0.00130464 -0.00130463 0.00134144 -0.00134143 0.00110929 -0.00110929
0.38 0.00118064 -0.00118064 0.00141409 -0.00141408 0.0013929 -0.00139288 0.000521962 -0.000521937 0.000522896 -0.000522871 0.00138013 -0.00138011 0.00139771 -0.00139768 0.000521591 -0.000521566 0.000523057 -0.000523032 0.00137712 -0.00137711 0.00141596 -0.00141596 0.00117092 -0.00117092
0.4 0.00124278 -0.00124278 0.00148851 -0.0014885 0.00146621 -0.00146619 0.000549433 -0.000549407 0.000550416 -0.000550391 0.00145277 -0.00145275 0.00147127 -0.00147125 0.000549042 -0.000549018 0.000550585 -0.000550561 0.0014496 -0.00144959 0.00149049 -0.00149048 0.00123255 -0.00123255
0.42 0.00130492 -0.00130492 0.00156293 -0.00156293 0.00153952 -0.0015395 0.000576903 -0.000576878 0.000577936 -0.00057791 0.00152541 -0.00152539 0.00154483 -0.00154481 0.000576493 -0.000576469 0.000578113 -0.000578089 0.00152208 -0.00152207 0.00156501 -0.001565 0.00129418 -0.00129417
0.44 0.00136706 -0.00136706 0.00163736 -0.00163735 0.00161283 -0.00161281 0.000604374 -0.000604349 0.000605455 -0.00060543 0.00159805 -0.00159802 0.0016184 -0.00161837 0.000603944 -0.00060392 0.000605641 -0.000605617 0.00159456 -0.00159455 0.00163953 -0.00163953 0.0013558 -0.0013558
0.46 0.0014292 -0.0014292 0.00171178 -0.00171177 0.00168614 -0.00168612 0.000631845 -0.00063182 0.000632975 -0.00063295 0.00167068 -0.00167066 0.00169196 -0.00169194 0.000631395 -0.000631371 0.00063317 -0.000633145 0.00166705 -0.00166703 0.00171406 -0.00171405 0.00141743 -0.00141743
0.48 0.00149134 -0.00149134 0.00178621 -0.0017862 0.00175945 -0.00175944 0.000659316 -0.00065929 0.000660494 -0.000660469 0.00174332 -0.0017433 0.00176552 -0.0017655 0.000658846 -0.000658822 0.000660698 -0.000660674 0.00173953 -0.00173951 0.00178858 -0.00178857 0.00147906 -0.00147906
0.5 0.00155348 -0.00155348 0.00186063 -0.00186062 0.00183276 -0.00183275 0.000686786 -0.000686761 0.000688014 -0.000687989 0.00181596 -0.00181594 0.00183909 -0.00183907 0.000686297 -0.000686273 0.000688226 -0.000688202 0.00181201 -0.00181199 0.0018631 -0.00186309 0.00154069 -0.00154069
0.52 0.00161562 -0.00161562 0.00193505 -0.00193505 0.00190607 -0.00190606 0.000714257 -0.000714232 0.000715533 -0.000715508 0.0018886 -0.00188858 0.00191265 -0.00191263 0.000713748 -0.000713724 0.000715754 -0.00071573 0.00188449 -0.00188447 0.00193763 -0.00193762 0.00160232 -0.00160232
0.54 0.00167776 -0.00167776 0.00200948 -0.00200947 0.00197938 -0.00197937 0.000741727 -0.000741702 0.000743053 -0.000743028 0.00196124 -0.00196122 0.00198621 -0.00198619 0.000741199 -0.000741175 0.000743282 -0.000743258 0.00195697 -0.00195696 0.00201215 -0.00201214 0.00166395 -0.00166394
0.56 0.00173991 -0.0017399 0.0020839 -0.00208389 0.0020527 -0.00205268 0.000769198 -0.000769173 0.000770572 -0.000770547 0.00203388 -0.00203386 0.00205978 -0.00205976 0.00076865 -0.000768626 0.00077081 -0.000770786 0.00202945 -0.00202944 0.00208667