%!PS-Adobe-3.0 EPSF-3.0
%%Creator: MATLAB, The Mathworks, Inc. Version 7.10.0.499 (R2010a). Operating System: Darwin 10.8.0 Darwin Kernel Version 10.8.0: Tue Jun  7 16:33:36 PDT 2011; root:xnu-1504.15.3~1/RELEASE_I386 i386.
%%Title: ./fig2d_mc_all_2.eps
%%CreationDate: 03/24/2012  11:54:42
%%DocumentNeededFonts: Helvetica
%%DocumentProcessColors: Cyan Magenta Yellow Black
%%LanguageLevel: 2
%%Pages: 1
%%BoundingBox:    43   199   553   614
%%EndComments

%%BeginProlog
% MathWorks dictionary
/MathWorks 160 dict begin
% definition operators
/bdef {bind def} bind def
/ldef {load def} bind def
/xdef {exch def} bdef
/xstore {exch store} bdef
% operator abbreviations
/c  /clip ldef
/cc /concat ldef
/cp /closepath ldef
/gr /grestore ldef
/gs /gsave ldef
/mt /moveto ldef
/np /newpath ldef
/cm /currentmatrix ldef
/sm /setmatrix ldef
/rm /rmoveto ldef
/rl /rlineto ldef
/s {show newpath} bdef
/sc {setcmykcolor} bdef
/sr /setrgbcolor ldef
/sg /setgray ldef
/w /setlinewidth ldef
/j /setlinejoin ldef
/cap /setlinecap ldef
/rc {rectclip} bdef
/rf {rectfill} bdef
% page state control
/pgsv () def
/bpage {/pgsv save def} bdef
/epage {pgsv restore} bdef
/bplot /gsave ldef
/eplot {stroke grestore} bdef
% orientation switch
/portraitMode 0 def /landscapeMode 1 def /rotateMode 2 def
% coordinate system mappings
/dpi2point 0 def
% font control
/FontSize 0 def
/FMS {/FontSize xstore findfont [FontSize 0 0 FontSize neg 0 0]
  makefont setfont} bdef
/reencode {exch dup where {pop load} {pop StandardEncoding} ifelse
  exch dup 3 1 roll findfont dup length dict begin
  { 1 index /FID ne {def}{pop pop} ifelse } forall
  /Encoding exch def currentdict end definefont pop} bdef
/isroman {findfont /CharStrings get /Agrave known} bdef
/FMSR {3 1 roll 1 index dup isroman {reencode} {pop pop} ifelse
  exch FMS} bdef
/csm {1 dpi2point div -1 dpi2point div scale neg translate
 dup landscapeMode eq {pop -90 rotate}
  {rotateMode eq {90 rotate} if} ifelse} bdef
% line types: solid, dotted, dashed, dotdash
/SO { [] 0 setdash } bdef
/DO { [.5 dpi2point mul 4 dpi2point mul] 0 setdash } bdef
/DA { [6 dpi2point mul] 0 setdash } bdef
/DD { [.5 dpi2point mul 4 dpi2point mul 6 dpi2point mul 4
  dpi2point mul] 0 setdash } bdef
% macros for lines and objects
/L {lineto stroke} bdef
/MP {3 1 roll moveto 1 sub {rlineto} repeat} bdef
/AP {{rlineto} repeat} bdef
/PDlw -1 def
/W {/PDlw currentlinewidth def setlinewidth} def
/PP {closepath eofill} bdef
/DP {closepath stroke} bdef
/MR {4 -2 roll moveto dup  0 exch rlineto exch 0 rlineto
  neg 0 exch rlineto closepath} bdef
/FR {MR stroke} bdef
/PR {MR fill} bdef
/L1i {{currentfile picstr readhexstring pop} image} bdef
/tMatrix matrix def
/MakeOval {newpath tMatrix currentmatrix pop translate scale
0 0 1 0 360 arc tMatrix setmatrix} bdef
/FO {MakeOval stroke} bdef
/PO {MakeOval fill} bdef
/PD {currentlinewidth 2 div 0 360 arc fill
   PDlw -1 eq not {PDlw w /PDlw -1 def} if} def
/FA {newpath tMatrix currentmatrix pop translate scale
  0 0 1 5 -2 roll arc tMatrix setmatrix stroke} bdef
/PA {newpath tMatrix currentmatrix pop	translate 0 0 moveto scale
  0 0 1 5 -2 roll arc closepath tMatrix setmatrix fill} bdef
/FAn {newpath tMatrix currentmatrix pop translate scale
  0 0 1 5 -2 roll arcn tMatrix setmatrix stroke} bdef
/PAn {newpath tMatrix currentmatrix pop translate 0 0 moveto scale
  0 0 1 5 -2 roll arcn closepath tMatrix setmatrix fill} bdef
/vradius 0 def /hradius 0 def /lry 0 def
/lrx 0 def /uly 0 def /ulx 0 def /rad 0 def
/MRR {/vradius xdef /hradius xdef /lry xdef /lrx xdef /uly xdef
  /ulx xdef newpath tMatrix currentmatrix pop ulx hradius add uly
  vradius add translate hradius vradius scale 0 0 1 180 270 arc 
  tMatrix setmatrix lrx hradius sub uly vradius add translate
  hradius vradius scale 0 0 1 270 360 arc tMatrix setmatrix
  lrx hradius sub lry vradius sub translate hradius vradius scale
  0 0 1 0 90 arc tMatrix setmatrix ulx hradius add lry vradius sub
  translate hradius vradius scale 0 0 1 90 180 arc tMatrix setmatrix
  closepath} bdef
/FRR {MRR stroke } bdef
/PRR {MRR fill } bdef
/MlrRR {/lry xdef /lrx xdef /uly xdef /ulx xdef /rad lry uly sub 2 div def
  newpath tMatrix currentmatrix pop ulx rad add uly rad add translate
  rad rad scale 0 0 1 90 270 arc tMatrix setmatrix lrx rad sub lry rad
  sub translate rad rad scale 0 0 1 270 90 arc tMatrix setmatrix
  closepath} bdef
/FlrRR {MlrRR stroke } bdef
/PlrRR {MlrRR fill } bdef
/MtbRR {/lry xdef /lrx xdef /uly xdef /ulx xdef /rad lrx ulx sub 2 div def
  newpath tMatrix currentmatrix pop ulx rad add uly rad add translate
  rad rad scale 0 0 1 180 360 arc tMatrix setmatrix lrx rad sub lry rad
  sub translate rad rad scale 0 0 1 0 180 arc tMatrix setmatrix
  closepath} bdef
/FtbRR {MtbRR stroke } bdef
/PtbRR {MtbRR fill } bdef
/stri 6 array def /dtri 6 array def
/smat 6 array def /dmat 6 array def
/tmat1 6 array def /tmat2 6 array def /dif 3 array def
/asub {/ind2 exch def /ind1 exch def dup dup
  ind1 get exch ind2 get sub exch } bdef
/tri_to_matrix {
  2 0 asub 3 1 asub 4 0 asub 5 1 asub
  dup 0 get exch 1 get 7 -1 roll astore } bdef
/compute_transform {
  dmat dtri tri_to_matrix tmat1 invertmatrix 
  smat stri tri_to_matrix tmat2 concatmatrix } bdef
/ds {stri astore pop} bdef
/dt {dtri astore pop} bdef
/db {2 copy /cols xdef /rows xdef mul dup 3 mul string
  currentfile 
  3 index 0 eq {/ASCIIHexDecode filter}
  {/ASCII85Decode filter 3 index 2 eq {/RunLengthDecode filter} if }
  ifelse exch readstring pop
  dup 0 3 index getinterval /rbmap xdef
  dup 2 index dup getinterval /gbmap xdef
  1 index dup 2 mul exch getinterval /bbmap xdef pop pop}bdef
/it {gs np dtri aload pop moveto lineto lineto cp c
  cols rows 8 compute_transform 
  rbmap gbmap bbmap true 3 colorimage gr}bdef
/il {newpath moveto lineto stroke}bdef
currentdict end def
%%EndProlog

%%BeginSetup
MathWorks begin

0 cap

end
%%EndSetup

%%Page: 1 1
%%BeginPageSetup
%%PageBoundingBox:    43   199   553   614
MathWorks begin
bpage
%%EndPageSetup

%%BeginObject: obj1
bplot

/dpi2point 12 def
portraitMode 0216 7344 csm

  310   -28  6111  4983 rc
85 dict begin %Colortable dictionary
/c0 { 0.000000 0.000000 0.000000 sr} bdef
/c1 { 1.000000 1.000000 1.000000 sr} bdef
/c2 { 0.900000 0.000000 0.000000 sr} bdef
/c3 { 0.000000 0.820000 0.000000 sr} bdef
/c4 { 0.000000 0.000000 0.800000 sr} bdef
/c5 { 0.910000 0.820000 0.320000 sr} bdef
/c6 { 1.000000 0.260000 0.820000 sr} bdef
/c7 { 0.000000 0.820000 0.820000 sr} bdef
c0
1 j
1 sg
   0    0 6913 5186 rf
6 w
0 4226 5356 0 0 -4226 899 4615 4 MP
PP
-5356 0 0 4226 5356 0 0 -4226 899 4615 5 MP stroke
4 w
DO
0 sg
 899 4615 mt  899  389 L
 899  389 mt  899  389 L
1494 4615 mt 1494  389 L
1494  389 mt 1494  389 L
2089 4615 mt 2089  389 L
2089  389 mt 2089  389 L
2684 4615 mt 2684  389 L
2684  389 mt 2684  389 L
3279 4615 mt 3279  389 L
3279  389 mt 3279  389 L
3874 4615 mt 3874  389 L
3874  389 mt 3874  389 L
4469 4615 mt 4469  389 L
4469  389 mt 4469  389 L
5064 4615 mt 5064  389 L
5064  389 mt 5064  389 L
5659 4615 mt 5659  389 L
5659  389 mt 5659  389 L
6255 4615 mt 6255  389 L
6255  389 mt 6255  389 L
 899 4615 mt 6255 4615 L
6255 4615 mt 6255 4615 L
 899 4086 mt 6255 4086 L
6255 4086 mt 6255 4086 L
 899 3558 mt 6255 3558 L
6255 3558 mt 6255 3558 L
 899 3030 mt 6255 3030 L
6255 3030 mt 6255 3030 L
 899 2502 mt 6255 2502 L
6255 2502 mt 6255 2502 L
 899 1973 mt 6255 1973 L
6255 1973 mt 6255 1973 L
 899 1445 mt 6255 1445 L
6255 1445 mt 6255 1445 L
 899  917 mt 6255  917 L
6255  917 mt 6255  917 L
 899  389 mt 6255  389 L
6255  389 mt 6255  389 L
SO
6 w
 899 4615 mt 6255 4615 L
 899 4615 mt  899  389 L
 899 4615 mt  899 4561 L
%%IncludeResource: font Helvetica
/Helvetica /ISOLatin1Encoding 120 FMSR

 746 4760 mt 
(-0.1) s
1494 4615 mt 1494 4561 L
1308 4760 mt 
(-0.08) s
2089 4615 mt 2089 4561 L
1903 4760 mt 
(-0.06) s
2684 4615 mt 2684 4561 L
2498 4760 mt 
(-0.04) s
3279 4615 mt 3279 4561 L
3093 4760 mt 
(-0.02) s
3874 4615 mt 3874 4561 L
3841 4760 mt 
(0) s
4469 4615 mt 4469 4561 L
4353 4760 mt 
(0.02) s
5064 4615 mt 5064 4561 L
4948 4760 mt 
(0.04) s
5659 4615 mt 5659 4561 L
5543 4760 mt 
(0.06) s
6255 4615 mt 6255 4561 L
6139 4760 mt 
(0.08) s
 899 4615 mt  952 4615 L
 528 4659 mt 
(-8000) s
 899 4086 mt  952 4086 L
 528 4130 mt 
(-6000) s
 899 3558 mt  952 3558 L
 528 3602 mt 
(-4000) s
 899 3030 mt  952 3030 L
 528 3074 mt 
(-2000) s
 899 2502 mt  952 2502 L
 798 2546 mt 
(0) s
 899 1973 mt  952 1973 L
 598 2017 mt 
(2000) s
 899 1445 mt  952 1445 L
 598 1489 mt 
(4000) s
 899  917 mt  952  917 L
 598  961 mt 
(6000) s
 899  389 mt  952  389 L
 598  433 mt 
(8000) s
gs 899 389 5357 4227 rc
/c8 { 1.000000 0.000000 0.000000 sr} bdef
c8
-1 0 0 0 -1 0 1 0 1 -1 -1 1 -1 0 1 0 
1 -1 -1 1 -1 0 1 0 1 -1 -1 1 -1 0 1 0 
1 -1 -1 1 -1 0 1 0 1 -1 1 0 -1 0 -1 1 
-1 0 -1 0 1 0 0 0 1 0 1 -1 1 0 -1 0 
-1 1 -1 0 -1 1 1 -1 1 0 1 -1 1 0 1 0 
-1 0 -1 0 -1 1 -1 0 -1 0 -1 1 1 0 1 -1 
1 0 1 -1 1 0 1 -1 -1 1 -1 0 -1 1 -1 0 
-1 1 -1 0 1 0 1 -1 1 0 1 -1 1 0 1 -1 
1 0 -1 0 -1 1 -1 0 -1 1 -1 0 -1 1 -1 0 
-1 0 1 0 0 0 1 0 1 -1 1 0 1 -1 1 0 
1 -1 1 0 1 0 -1 0 0 0 -1 0 -1 1 -1 0 
-1 1 -1 0 -1 1 -1 0 -1 1 -1 0 1 0 1 -1 
1 0 1 -1 1 0 1 -1 1 0 1 -1 1 0 1 -1 
1 0 1 0 -1 0 -1 0 -1 1 -1 0 -1 1 -1 0 
-1 1 -1 0 -2 1 -1 0 -1 1 -1 0 -1 1 1 0 
1 -1 1 -1 2 0 1 -1 1 0 2 -1 1 -1 1 0 
1 -1 1 0 1 0 1 -1 -1 0 -1 1 -1 1 -2 0 
-1 1 -2 1 -1 0 -2 1 -1 1 -1 0 -1 1 -1 0 
-1 0 -1 1 1 -1 1 0 1 -1 1 0 2 -1 1 0 
2 -1 2 -1 2 -1 1 -1 2 0 1 -1 2 -1 1 0 
-1 0 -1 1 -1 0 -2 1 -1 1 -2 0 -2 1 -2 1 
-2 1 -1 1 -2 0 -1 1 -1 0 -1 1 1 0 1 -1 
2 -1 1 0 2 -1 2 -1 2 -1 2 -1 2 -1 2 -1 
2 -1 1 0 1 -1 -1 1 -1 0 -1 1 -2 0 -2 1 
-2 1 -2 1 -3 2 -2 0 -2 1 -1 1 -2 1 -1 0 
1 0 2 -1 1 -1 2 -1 3 -1 3 -1 3 -1 3 -2 
3 -1 2 -1 3 -1 1 -1 2 -1 1 0 0 -1 0 1 
-2 0 -2 1 -2 1 -3 2 -3 1 -4 2 -3 1 -4 2 
-3 1 -3 2 -3 1 -2 1 -3 1 -2 1 -1 1 -1 0 
1 0 1 -1 2 -1 2 -1 3 -1 2 -1 3 -1 4 -2 
4 -1 4 -2 3 -2 4 -2 4 -1 3 -2 2 -1 2 -1 
2 0 1 -1 -1 1 -2 0 -2 1 -3 1 -3 2 -3 1 
-4 2 -4 2 -4 2 -4 2 -4 1 -3 2 -3 1 -2 1 
-2 1 -1 0 -1 1 1 -1 1 0 2 -1 2 -1 2 -1 
3 -1 3 -1 3 -2 3 -1 4 -2 4 -2 3 -1 2 -1 
2 -1 1 -1 1 0 1 0 -1 0 -1 1 -2 0 -3 2 
-3 1 -4 2 -4 2 -4 1 -3 2 -3 1 -3 2 -3 1 
-2 1 -2 1 -2 0 3677 2486 300 MP stroke
0 1 1 -1 2 0 2 -2 4 -1 3 -2 5 -2 4 -2 
5 -2 4 -2 4 -1 3 -2 3 -1 3 -2 1 0 1 -1 
-1 1 -2 1 -3 1 -3 2 -5 2 -4 2 -5 2 -4 1 
-4 2 -3 2 -4 1 -3 2 -2 1 -2 1 -1 0 -1 0 
1 0 1 0 2 -1 3 -1 3 -2 3 -1 3 -1 4 -2 
4 -2 4 -2 5 -2 5 -2 4 -2 4 -2 3 -1 2 -1 
2 -1 -1 0 -2 1 -2 1 -4 2 -4 1 -5 3 -5 2 
-5 2 -5 2 -4 2 -3 2 -3 1 -3 1 -2 1 -2 1 
-1 1 1 -1 2 -1 3 -1 2 -1 4 -2 3 -1 4 -2 
3 -1 4 -2 3 -1 3 -2 3 -1 2 -1 1 -1 1 0 
1 0 -1 0 -1 1 -2 0 -1 1 -2 1 -2 1 -3 1 
-2 1 -2 1 -3 1 -3 2 -3 1 -3 1 -2 1 -2 1 
-2 1 -1 0 1 0 1 -1 2 0 2 -1 3 -2 4 -1 
4 -2 4 -2 4 -2 4 -2 3 -1 3 -1 1 -1 1 0 
-1 0 -1 1 -2 1 -3 1 -4 2 -4 1 -4 2 -4 2 
-4 2 -3 1 -4 2 -3 1 -2 1 -3 1 -1 1 -1 0 
1 0 1 0 2 -1 2 -1 3 -2 4 -1 4 -2 4 -2 
5 -2 5 -2 5 -3 5 -2 3 -1 3 -1 1 -1 1 0 
-2 0 -2 1 -3 2 -3 1 -4 2 -3 1 -4 2 -4 2 
-3 1 -3 2 -3 1 -2 1 -2 1 -2 0 -1 1 1 0 
1 -1 1 0 2 -1 3 -1 3 -2 3 -1 5 -2 4 -2 
5 -3 5 -2 4 -2 4 -1 3 -1 2 -1 1 -1 -2 1 
-2 1 -4 1 -5 2 -5 3 -6 2 -6 3 -6 3 -5 2 
-4 2 -4 2 -3 1 -2 1 -2 1 1 0 1 -1 3 -1 
3 -1 3 -2 4 -2 4 -2 4 -1 4 -2 4 -2 3 -1 
3 -2 2 0 1 -1 1 0 -1 0 -1 0 -1 1 -1 0 
-2 1 -1 1 -2 0 -1 1 -2 1 -1 1 -2 0 -2 1 
-1 1 -2 0 -1 1 -1 1 -2 0 -1 1 -1 0 -2 1 
-1 1 -1 0 -1 0 1 0 1 0 1 -1 2 -1 1 0 
2 -1 2 -1 2 -1 3 -1 3 -1 3 -2 3 -1 2 -1 
3 -1 2 -1 1 -1 1 -1 1 0 1 0 -1 0 -1 0 
-2 1 -2 1 -2 1 -4 2 -3 1 -4 2 -4 2 -4 2 
-4 1 -4 2 -4 2 -4 2 -4 2 -3 1 -2 1 -2 1 
2 -1 3 -1 4 -2 4 -2 5 -2 5 -2 6 -2 7 -3 
7 -3 6 -3 6 -3 5 -3 5 -1 3 -2 2 -1 2 -1 
1 0 -1 0 -1 1 -2 0 -3 2 -3 1 -5 2 -5 2 
-6 3 -6 2 -7 3 -6 3 -6 3 -7 3 -5 2 -5 3 
-4 1 -3 2 -2 0 3693 2479 300 MP stroke
0 1 1 -1 2 -1 4 -1 5 -2 6 -3 7 -3 7 -3 
8 -3 9 -4 8 -4 8 -3 6 -3 4 -2 4 -2 2 -1 
1 0 -2 0 -3 2 -4 2 -6 2 -8 3 -9 4 -9 4 
-8 4 -6 3 -7 2 -5 3 -5 2 -4 2 -3 1 -2 1 
1 0 2 -1 4 -2 4 -2 6 -2 5 -2 5 -2 6 -3 
6 -3 6 -2 6 -3 4 -2 4 -2 3 -1 2 -1 1 0 
-1 0 -1 1 -3 1 -3 1 -4 2 -3 1 -4 2 -3 2 
-4 1 -3 1 -2 2 -3 1 -1 0 -1 1 1 0 1 -1 
1 -1 2 0 2 -1 2 -1 2 -1 2 -1 1 -1 1 0 
-1 0 -1 1 -2 1 -1 0 -2 1 -3 1 -2 2 -3 1 
-2 1 -1 0 -1 1 -1 0 1 -1 2 0 2 -1 2 -1 
2 -1 2 -1 2 -1 3 -1 2 -1 3 -1 2 -1 2 -1 
1 -1 -1 1 -1 0 -1 1 -2 0 -1 1 -1 0 -1 1 
-1 0 -1 1 -2 1 -2 1 -1 0 1 0 1 -1 1 0 
1 -1 1 0 1 0 -1 0 0 0 -2 1 -3 1 -3 1 
-3 2 -4 1 -2 2 -3 1 -2 1 -1 0 1 0 1 -1 
3 -1 3 -1 4 -2 4 -2 5 -2 4 -2 4 -2 3 -1 
2 -1 1 0 -1 0 -2 1 -2 1 -2 1 -3 1 -4 2 
-3 1 -4 2 -3 1 -3 2 -3 1 -1 0 1 0 1 0 
2 -1 2 -1 3 -2 4 -1 3 -2 5 -2 4 -2 4 -2 
5 -1 3 -2 3 -2 3 -1 2 -1 1 0 -1 0 -1 1 
-3 1 -3 1 -4 2 -5 2 -5 2 -5 3 -6 2 -5 2 
-6 3 -5 3 -6 2 -4 2 -3 2 -2 0 2 -1 3 -1 
4 -2 5 -1 4 -2 6 -3 6 -2 6 -3 8 -4 7 -3 
7 -3 6 -3 4 -2 2 -1 -1 1 -3 1 -4 2 -5 2 
-6 2 -7 3 -7 4 -8 3 -6 3 -6 3 -6 2 -5 2 
-4 2 -2 1 -1 1 1 -1 3 -1 3 -1 5 -2 5 -3 
5 -2 5 -2 6 -3 7 -3 7 -3 6 -3 6 -2 3 -2 
2 -1 -1 1 -1 0 -3 1 -2 2 -4 1 -4 2 -4 2 
-5 2 -4 2 -3 1 -2 1 -2 1 -3 1 -2 1 -2 1 
-1 1 1 -1 3 -1 3 -1 3 -2 3 -1 3 -1 3 -2 
4 -2 4 -1 3 -2 3 -1 2 -1 1 -1 0 1 -2 0 
-3 2 -4 2 -5 2 -4 1 -3 2 -2 1 -3 1 -2 1 
-2 1 -2 1 -1 1 -2 0 1 0 2 -1 2 -1 3 -1 
2 -1 3 -1 3 -2 4 -1 4 -2 5 -3 6 -2 4 -2 
3 -2 2 0 -3 1 -4 1 -5 3 -6 2 -6 3 -6 3 
-5 2 -5 2 -4 2 -4 2 -4 1 -3 2 -3 1 -1 1 
1 -1 3 -1 4 -1 3675 2485 300 MP stroke
4 -2 5 -2 5 -3 7 -3 8 -3 9 -4 8 -4 7 -3 
6 -2 4 -2 2 -1 1 -1 -2 1 -4 2 -6 2 -7 3 
-10 4 -11 4 -10 5 -10 4 -9 4 -8 3 -8 4 -8 4 
-7 3 -5 2 -4 2 -1 0 2 -1 5 -1 6 -2 8 -3 
8 -3 10 -4 10 -4 12 -5 12 -5 14 -6 14 -6 10 -4 
9 -4 8 -4 5 -2 4 -2 1 0 -1 0 -4 1 -6 2 
-8 3 -9 3 -11 5 -14 5 -15 6 -15 6 -13 6 -13 5 
-12 6 -11 5 -8 3 -6 3 -3 2 -1 0 2 0 3 -2 
6 -2 9 -2 10 -4 12 -4 13 -5 14 -5 15 -6 17 -7 
16 -7 13 -6 10 -4 9 -4 7 -4 5 -2 3 -1 2 -1 
-2 1 -5 1 -8 3 -10 3 -13 4 -14 5 -17 6 -18 7 
-17 7 -15 6 -13 6 -13 5 -11 5 -10 5 -9 4 -8 4 
-5 2 -2 1 1 0 6 -2 9 -2 13 -4 15 -4 15 -5 
16 -6 16 -5 16 -6 18 -7 20 -8 18 -8 14 -6 13 -6 
10 -5 8 -4 5 -2 1 0 -2 0 -4 2 -8 2 -9 3 
-10 4 -12 4 -11 4 -13 5 -15 6 -16 7 -14 6 -12 5 
-10 5 -9 4 -8 3 -5 3 -3 1 2 -1 4 -1 6 -3 
9 -3 9 -3 10 -5 11 -4 11 -5 13 -6 11 -5 8 -3 
6 -3 4 -2 1 0 -1 0 -3 1 -4 2 -6 2 -7 3 
-9 4 -10 4 -11 5 -9 4 -9 4 -8 3 -7 4 -5 2 
-4 2 -2 1 -2 0 2 0 3 -1 4 -2 6 -3 8 -2 
7 -4 8 -3 7 -3 7 -3 7 -3 7 -3 6 -3 6 -2 
4 -3 4 -1 3 -2 3 -1 1 0 -1 0 0 0 -3 1 
-3 1 -3 2 -3 1 -3 1 -2 1 -2 1 -3 1 -4 2 
-4 2 -6 2 -5 2 -5 2 -4 2 -4 2 -4 2 -4 2 
-4 2 -4 2 -4 1 -3 2 -1 0 1 0 2 -1 3 -1 
4 -2 5 -2 5 -2 5 -2 5 -2 4 -2 5 -3 6 -2 
7 -3 6 -3 5 -3 4 -1 2 -1 1 -1 -1 1 -2 0 
-3 2 -3 1 -5 2 -4 2 -4 2 -5 2 -5 2 -5 2 
-5 3 -6 2 -5 3 -5 2 -3 1 -3 2 -1 0 -1 1 
1 -1 2 -1 3 -1 3 -1 4 -2 4 -1 4 -2 4 -2 
4 -1 4 -2 4 -2 5 -2 4 -2 4 -1 4 -2 4 -2 
5 -3 5 -2 5 -2 4 -2 3 -1 1 -1 1 0 -2 1 
-3 1 -6 2 -7 3 -9 4 -11 4 -12 5 -9 4 -9 4 
-8 4 -8 4 -8 3 -5 3 -4 1 -2 1 1 0 4 -2 
6 -2 8 -3 10 -4 9 -4 8 -4 8 -3 8 -4 8 -3 
6 -3 5 -2 5 -2 3 -2 3 -1 2 -1 -1 0 -1 1 
-2 0 -1 1 -1 0 3609 2509 300 MP stroke
-2 1 -2 1 -5 2 -5 2 -5 2 -6 3 -5 2 -6 2 
-6 3 -5 2 -6 3 -7 3 -9 4 -8 3 -7 4 -5 2 
-2 1 2 -1 4 -1 6 -2 7 -2 8 -3 9 -3 11 -4 
12 -5 14 -6 17 -6 16 -7 13 -6 12 -5 11 -5 9 -4 
6 -3 3 -2 -5 2 -8 2 -11 4 -12 4 -15 5 -15 5 
-18 7 -21 8 -17 8 -16 6 -14 7 -13 5 -9 5 -8 3 
-5 2 -1 1 4 -1 7 -2 11 -3 14 -4 16 -6 18 -6 
19 -7 20 -7 22 -9 19 -8 16 -7 14 -7 12 -5 9 -4 
4 -2 1 0 -5 1 -9 2 -13 4 -16 5 -18 6 -20 6 
-21 8 -22 9 -19 8 -17 6 -14 7 -13 5 -11 5 -9 4 
-7 4 -5 2 -3 1 -1 1 3 -1 6 -2 8 -2 11 -3 
14 -5 16 -5 16 -5 18 -7 18 -7 19 -8 20 -8 15 -7 
12 -5 11 -5 8 -3 5 -3 2 -1 -4 1 -6 2 -9 3 
-10 4 -12 4 -13 4 -15 6 -17 6 -17 7 -14 6 -15 7 
-13 6 -12 5 -10 4 -7 4 -5 2 -2 1 3 -1 7 -2 
10 -3 12 -4 13 -4 13 -4 12 -4 12 -5 10 -3 10 -4 
11 -5 11 -4 10 -4 9 -4 8 -4 7 -3 8 -4 7 -3 
6 -3 6 -2 4 -2 4 -2 2 -1 2 -1 -3 1 -8 2 
-11 3 -15 4 -17 5 -19 6 -21 7 -23 8 -22 8 -19 8 
-19 8 -19 8 -17 7 -16 7 -12 6 -10 4 -7 3 -4 2 
-1 1 3 -1 8 -1 13 -3 16 -3 19 -4 23 -5 25 -6 
26 -7 26 -8 25 -8 24 -8 24 -10 24 -9 18 -8 18 -8 
15 -7 13 -5 10 -5 6 -3 1 0 -5 1 -11 2 -16 4 
-20 5 -23 6 -25 7 -27 8 -31 10 -31 12 -27 10 -25 10 
-22 10 -20 9 -15 7 -12 5 -9 4 -4 2 1 0 9 -2 
16 -2 22 -4 30 -6 33 -8 34 -9 33 -9 30 -10 25 -9 
26 -10 21 -9 16 -6 15 -7 13 -6 12 -5 9 -4 6 -3 
4 -2 1 0 -2 0 -6 1 -7 2 -10 2 -10 3 -10 3 
-12 3 -11 3 -13 3 -14 5 -14 4 -15 5 -17 6 -20 7 
-18 7 -17 7 -17 7 -15 6 -13 6 -14 6 -13 6 -12 5 
-8 4 -5 2 -1 1 2 -1 8 -1 14 -3 16 -4 19 -5 
20 -6 21 -6 22 -8 22 -8 22 -8 22 -9 19 -8 13 -6 
10 -5 7 -3 4 -2 3 -1 3 -1 2 -1 2 -1 -4 1 
-9 3 -15 4 -20 7 -25 9 -28 11 -25 10 -20 8 -17 8 
-15 7 -14 6 -10 4 -4 2 6 -1 14 -3 19 -5 20 -5 
20 -6 20 -6 18 -6 16 -6 14 -4 11 -5 14 -5 14 -6 
12 -5 12 -5 12 -5 12 -6 12 -5 9 -4 6 -3 3 -1 
3 -1 -1 0 -7 1 3410 2540 300 MP stroke
-10 2 -14 4 -22 5 -28 8 -29 8 -33 10 -34 12 -27 10 
-25 10 -22 10 -19 8 -16 7 -14 6 -12 5 -9 4 -7 4 
-5 2 -1 1 3 -1 9 -1 15 -2 21 -4 26 -4 28 -6 
29 -6 31 -8 30 -9 28 -9 24 -9 21 -9 18 -7 17 -7 
11 -5 8 -4 7 -3 7 -3 6 -3 3 -1 2 -1 1 -1 
-2 1 -4 1 -9 3 -13 3 -16 6 -20 6 -28 10 -25 10 
-23 9 -22 9 -20 9 -18 8 -14 6 -11 5 -8 4 -3 1 
2 0 8 -1 14 -3 22 -3 25 -4 25 -5 26 -6 29 -7 
28 -7 28 -8 27 -9 23 -7 23 -9 19 -7 15 -6 12 -5 
8 -3 6 -3 3 -1 3 -1 7 -3 12 -5 11 -5 12 -5 
15 -6 17 -8 13 -6 10 -4 12 -6 11 -4 1 -1 -16 1 
-29 2 -37 3 -53 4 -73 7 -82 10 -78 11 -75 14 -81 18 
-79 22 -60 20 -52 20 -41 16 -30 13 -23 11 -18 8 -12 5 
-7 4 -4 2 5 0 23 -2 39 -2 42 -4 37 -4 37 -7 
37 -9 32 -10 25 -10 16 -7 8 -4 2 -1 2 -1 -4 2 
-11 5 -16 6 -14 6 -11 5 -16 7 -17 8 -14 6 -8 4 
12 0 45 -1 87 -3 120 -4 133 -6 130 -7 125 -9 115 -12 
99 -13 80 -14 74 -16 69 -17 56 -17 53 -19 42 -16 32 -13 
26 -11 21 -10 18 -8 14 -6 8 -4 3 -1 -10 0 -23 1 
-36 0 -41 1 -49 1 -55 2 -65 2 -70 2 -78 3 -88 4 
-92 6 -88 7 -85 8 -85 11 -78 13 -70 16 -61 16 -59 19 
-54 21 -40 16 -26 12 -20 9 -15 7 -4 2 3 -2 3 -1 
3 0 8 -2 21 -4 31 -7 38 -10 44 -13 44 -16 37 -14 
26 -12 16 -6 8 -4 8 -4 7 -3 2 -1 2 -1 -1 0 
-7 1 -10 3 -11 3 -19 5 -24 7 -30 9 -33 11 -33 13 
-28 11 -23 9 -25 11 -25 11 -21 10 -11 5 2 0 17 -3 
27 -5 32 -7 32 -9 28 -8 23 -7 20 -8 13 -5 8 -3 
6 -2 5 -3 4 -1 1 0 1 -1 5 -2 8 -3 5 -2 
3 -1 4 -1 8 -4 11 -5 13 -5 15 -7 15 -7 13 -5 
8 -4 -13 3 -24 5 -29 7 -32 8 -36 10 -30 9 -33 12 
-38 13 -34 13 -31 13 -31 13 -29 13 -22 11 -14 6 -4 2 
10 -1 28 0 46 0 59 -1 59 -1 56 0 57 -1 63 -1 
73 0 79 -1 85 -2 92 -1 101 -2 112 -2 124 -2 125 -3 
119 -3 108 -4 96 -4 93 -4 90 -4 76 -4 65 -5 55 -5 
62 -5 80 -7 75 -7 64 -8 57 -10 63 -12 79 -17 66 -18 
69 -24 61 -26 52 -25 44 -23 37 -22 26 -15 15 -8 8 -5 
0 -4 -6 1 -11 4 -19 1 -33 -5 -48 1 -67 8 -100 2 
-136 -9 -167 -1 -205 11 1883 2668 300 MP stroke
-228 2 -285 -2 -224 5 -177 12 -163 23 -162 10 -194 2 -172 1 
-139 1 -113 0 -53 1 -54 0 -69 1 -82 0 -115 1 -103 1 
-128 2 -160 2 -180 5 -189 13 -181 24 -185 31 -169 37 -110 41 
-85 43 -60 34 -40 24 -23 15 -3 6 58 0 114 -2 147 1 
152 0 152 -1 147 -2 142 0 128 1 123 0 113 -3 103 -3 
97 -3 79 -6 76 -10 63 -11 29 -20 27 -22 25 -21 20 -15 
16 -13 15 -14 10 -9 9 -6 7 -7 4 -3 2 -2 1 -1 
1 -1 1 0 2 -2 2 -1 0 -1 1 -1 -1 1 -2 1 
-1 2 -1 0 1 0 1 -2 2 0 3 -3 3 -3 2 -2 
0 1 -2 1 -6 5 -5 4 -4 3 -6 6 -3 2 -6 4 
-5 6 -4 4 1 -2 0 -1 0 2 2 -2 5 -6 2 -2 
2 1 6 -6 9 -7 9 -8 8 -8 4 -2 1 -1 0 1 
0 -2 0 0 -2 1 -5 6 -5 4 -3 2 -6 5 -7 5 
-5 5 -5 5 -4 3 -3 2 0 1 1 -1 4 -4 2 -2 
3 -1 4 -3 6 -6 5 -4 4 -4 2 -2 1 -1 -1 1 
-2 2 -2 2 -3 2 -3 3 -3 3 -3 1 -2 3 -2 1 
1 -1 2 -2 1 -1 2 0 4 -4 3 -3 4 -3 3 -3 
1 -1 0 1 -2 1 -1 0 -1 2 -2 1 -1 1 -1 2 
-1 1 -1 0 -2 1 -2 2 -1 1 -1 1 2 -1 1 -2 
1 0 0 -1 0 1 -1 1 -1 0 -1 1 1 -1 1 -1 
1 0 1 -1 1 -1 1 -1 -1 1 -1 1 -2 1 -1 1 
-1 1 0 1 0 -1 2 -2 1 -1 1 -1 1 0 1 -1 
-1 1 -1 0 -1 1 -1 1 3874 2502 181 MP stroke
DA
0 sg
0 -2 0 0 0 1 0 -1 0 0 0 2 -1 2 0 1 
-1 1 0 1 0 -1 1 -1 0 -1 1 -1 0 -2 1 -1 
0 -2 1 -1 0 -2 0 1 -1 1 0 2 -1 1 0 2 
-1 1 0 2 0 -2 1 -1 0 -1 1 -2 0 -1 0 1 
-1 1 0 2 -1 2 -1 2 0 1 -1 2 0 -1 1 -1 
1 -2 1 -2 0 -3 1 -2 1 -2 0 -1 1 -1 -1 1 
-1 2 0 3 -1 3 -2 3 -1 2 0 3 -1 2 0 1 
0 -3 1 -3 2 -3 1 -5 2 -5 2 -4 1 -3 0 -1 
-1 2 -1 4 -2 6 -2 6 -2 5 -2 5 -1 4 -1 2 
0 -1 2 -4 2 -5 2 -6 2 -7 2 -6 2 -5 1 -4 
1 -2 0 1 -1 2 -2 5 -2 6 -2 7 -3 6 -2 6 
-1 5 -1 3 -1 0 1 -1 1 -2 1 -5 2 -5 3 -7 
2 -6 2 -5 2 -5 1 -3 0 -1 0 1 -1 2 -2 5 
-2 5 -2 7 -2 6 -2 5 -2 4 -1 2 1 -2 2 -4 
2 -5 2 -7 3 -7 2 -6 2 -6 1 -3 1 -2 -1 1 
-1 4 -2 5 -3 8 -3 8 -3 8 -2 8 -3 6 -1 4 
0 1 0 -2 2 -5 2 -6 3 -8 3 -9 3 -8 3 -7 
2 -5 0 -2 0 1 -1 3 -2 5 -2 7 -3 7 -2 7 
-2 5 -2 4 0 2 1 -3 1 -4 2 -5 2 -6 2 -5 
2 -5 1 -3 0 -1 0 1 -1 3 -1 3 -2 4 -1 4 
-2 4 -1 3 0 2 -1 1 1 -1 0 -2 1 -2 1 -2 
1 -3 0 -2 1 -1 0 -1 0 1 -1 1 0 2 -1 2 
-1 2 0 1 -1 1 1 0 -1 0 2 -3 0 -2 1 -2 
1 -2 0 -1 1 -1 0 -1 0 1 -1 1 -1 2 0 2 
-1 2 -1 2 0 2 -1 2 0 1 -1 1 0 -1 1 -1 
1 -3 1 -3 1 -4 2 -4 1 -3 1 -3 1 -2 0 -1 
0 1 -1 3 -1 3 -2 4 -1 4 -2 4 -1 4 -1 3 
-1 1 1 -2 1 -3 2 -4 2 -5 1 -6 2 -5 2 -4 
1 -2 0 -1 0 1 -1 3 -2 4 -2 5 -2 6 -2 5 
-2 5 -1 4 -1 3 1 -3 1 -4 2 -5 2 -6 3 -6 
2 -6 1 -4 2 -4 0 -1 -1 3 -2 5 -2 6 -2 6 
-3 7 -2 7 -2 5 -2 4 0 3 -1 1 1 -2 1 -2 
1 -5 2 -5 3 -7 2 -6 2 -7 2 -5 2 -4 1 -3 
-1 2 -1 3 -2 4 -1 5 -3 6 -2 6 -1 4 -2 4 
0 2 0 -1 1 -3 1 -3 2 -4 1 -4 1 -3 1 -2 
1 -2 0 -1 0 1 -1 1 -1 3 -1 3 -1 3 -1 3 
-1 3 -1 3 -1 1 0 1 1 -1 1 -3 1 -4 2 -5 
2 -5 1 -5 2 -4 3869 2515 300 MP stroke
1 -3 0 -1 0 2 -2 3 -1 5 -2 5 -2 5 -2 4 
-1 4 -1 2 0 1 0 -1 1 -2 1 -2 1 -3 1 -2 
1 -3 0 -1 1 -1 0 -1 0 1 -1 1 0 1 -1 2 
-1 2 0 2 -1 1 1 -1 0 -2 1 -2 1 -2 1 -2 
0 -2 1 -1 0 -2 1 -1 -1 1 0 2 -1 3 -2 3 
-1 4 -1 3 -1 3 -1 1 1 0 0 -2 1 -3 2 -5 
2 -5 2 -5 1 -4 1 -3 1 -2 -1 3 -2 4 -2 6 
-2 6 -2 7 -3 6 -1 4 -1 2 1 -2 1 -4 2 -5 
3 -7 2 -6 2 -7 2 -5 2 -5 1 -3 0 -1 0 1 
-1 2 -1 5 -3 6 -2 7 -3 7 -2 6 -2 5 -1 4 
-1 2 1 -2 1 -3 2 -5 2 -6 2 -6 2 -5 1 -4 
1 -2 0 -1 0 2 -1 3 -2 4 -2 6 -2 5 -1 4 
-1 2 1 -2 1 -3 2 -6 2 -6 3 -7 2 -6 2 -6 
1 -4 1 -2 0 1 -1 3 -2 5 -3 8 -3 8 -3 9 
-3 9 -3 7 -1 4 -1 2 0 -1 1 -2 2 -5 2 -6 
3 -7 2 -7 3 -7 2 -6 1 -3 1 -2 0 -1 -1 2 
-1 3 -2 5 -2 6 -2 5 -2 6 -1 4 -1 3 -1 1 
1 -2 1 -4 2 -4 2 -5 2 -5 1 -4 1 -3 1 -1 
-1 1 -1 2 -1 4 -1 3 -2 4 -1 3 0 2 0 -2 
1 -2 1 -2 1 -3 1 -3 1 -3 1 -3 1 -1 0 -1 
-1 2 -1 2 -1 3 -1 3 -1 5 -2 4 -2 5 -1 4 
-1 3 -1 2 0 1 0 -1 1 -2 1 -3 1 -5 2 -5 
2 -5 2 -5 2 -5 1 -3 0 -2 0 1 -1 2 -1 4 
-1 4 -2 4 -2 6 -2 5 -2 5 -1 4 -1 3 -1 1 
1 -1 1 -3 1 -4 3 -6 2 -6 2 -6 2 -5 1 -5 
1 -2 1 -2 -1 2 0 1 -1 3 -2 4 -1 4 -2 4 
-1 5 -1 3 -1 1 1 -2 1 -3 1 -4 2 -5 2 -4 
1 -3 0 -2 0 2 -1 2 0 1 -1 2 -1 2 -1 3 
-1 3 -1 3 -1 3 -1 2 0 2 -1 1 0 -1 1 -1 
1 -3 1 -4 2 -6 3 -6 2 -6 1 -4 1 -3 0 1 
-1 4 -2 5 -2 6 -3 7 -2 7 -3 6 -2 5 -1 4 
0 2 0 -3 2 -4 2 -6 3 -7 3 -8 2 -8 2 -6 
2 -4 1 -2 -1 2 -1 3 -2 5 -2 5 -2 5 -1 5 
-2 5 -1 3 -1 2 0 -1 1 -2 1 -3 2 -4 1 -4 
2 -4 1 -3 -1 1 -1 4 -2 4 -1 5 -2 4 -1 2 
1 -2 1 -3 2 -4 2 -6 2 -6 2 -6 2 -6 2 -4 
0 -1 -1 2 -1 5 -3 6 -2 6 -2 6 -2 5 -1 4 
-1 3 -1 2 1 -1 3878 2489 300 MP stroke
1 -4 1 -4 2 -4 1 -5 2 -3 0 -2 0 1 -1 2 
-1 3 -1 4 -1 3 -1 2 0 1 0 -2 1 -2 1 -3 
1 -4 2 -3 1 -3 1 -2 0 -1 -1 1 -1 3 -1 5 
-2 4 -1 3 -1 2 1 -1 1 -3 1 -4 1 -3 1 -2 
0 1 -1 3 -2 5 -2 6 -2 5 -2 4 -1 2 1 0 
1 -3 1 -5 3 -7 3 -7 2 -7 2 -6 1 -3 1 -2 
0 1 -1 3 -2 4 -2 6 -2 6 -2 6 -2 4 -1 3 
1 -2 1 -3 1 -2 1 -3 1 -3 0 -2 1 -1 0 1 
-1 1 -1 3 -1 3 -1 4 -2 3 -1 3 0 1 1 -2 
1 -2 1 -4 1 -4 2 -5 2 -4 1 -3 1 -2 -1 1 
-1 4 -2 3 -1 4 -1 4 -1 3 -2 3 -1 3 0 2 
-1 1 1 -2 1 -2 1 -4 2 -4 2 -5 1 -5 1 -3 
1 -2 1 -1 -1 0 0 2 -1 3 -2 4 -1 4 -1 3 
-1 3 -1 1 0 -1 1 -1 1 -2 1 -3 1 -2 0 -2 
1 -2 -1 2 -1 3 -1 3 -1 3 -1 3 -1 2 -1 2 
1 -2 1 -2 1 -3 1 -3 1 -3 1 -3 1 -2 1 -3 
1 -2 0 -2 0 1 -1 3 -1 4 -2 4 -2 5 -1 5 
-2 3 -1 3 0 1 1 -2 1 -2 1 -3 0 -2 1 -2 
1 -2 0 -2 1 -1 0 -1 0 1 -1 2 -1 4 -2 4 
-1 4 -1 3 -1 1 1 -1 1 -4 3 -7 3 -9 4 -10 
3 -11 4 -10 3 -7 1 -5 1 -1 -1 2 -2 5 -3 9 
-4 12 -5 13 -5 13 -4 11 -3 8 -1 4 1 -4 3 -7 
3 -9 4 -9 3 -9 2 -7 1 -3 -1 4 -2 6 -3 9 
-4 9 -3 8 -2 7 -2 4 0 1 1 -2 2 -5 2 -7 
3 -9 4 -10 3 -10 3 -8 3 -8 2 -4 0 -2 0 2 
-2 6 -4 9 -4 10 -4 13 -4 12 -4 11 -4 9 -2 6 
-1 3 0 -1 2 -4 3 -9 4 -12 6 -14 5 -15 5 -14 
5 -13 3 -8 1 -5 1 0 -2 4 -3 9 -4 11 -5 13 
-5 14 -4 11 -3 9 -2 5 2 -5 3 -8 4 -12 4 -11 
4 -11 3 -9 2 -5 1 -2 -2 4 -2 7 -5 12 -5 14 
-5 15 -5 13 -3 9 -1 4 1 -4 2 -7 4 -8 3 -11 
5 -12 4 -11 3 -10 3 -8 2 -4 0 -2 -1 3 -2 5 
-3 9 -4 13 -5 13 -5 14 -5 12 -2 8 -2 4 1 -2 
3 -8 4 -11 5 -16 7 -17 6 -16 5 -14 3 -10 1 -4 
0 2 -3 7 -4 12 -6 15 -6 18 -6 17 -6 17 -5 13 
-3 8 -1 2 2 -5 4 -10 5 -15 6 -17 6 -16 6 -16 
4 -12 3 -8 1 -3 0 1 -2 5 -3 9 -4 10 -3 10 
-4 9 -2 7 -2 6 3879 2487 300 MP stroke
-1 3 -1 1 1 -2 1 -3 2 -4 1 -5 2 -4 1 -4 
1 -3 1 -2 -1 2 0 2 -1 2 -1 1 0 1 1 -1 
0 -2 1 -2 1 -2 0 -2 0 1 -1 3 -2 5 -2 7 
-4 9 -3 8 -2 8 -2 5 -1 2 1 -3 3 -9 5 -12 
5 -16 7 -18 6 -17 6 -16 4 -11 2 -6 -3 7 -4 13 
-6 17 -8 20 -7 20 -7 19 -5 16 -5 12 -2 7 -1 2 
1 -3 3 -7 4 -12 6 -16 6 -18 7 -20 7 -20 6 -16 
4 -11 2 -4 -2 5 -4 11 -6 18 -8 21 -8 21 -6 19 
-5 13 -3 8 0 1 2 -6 4 -10 5 -16 6 -17 7 -19 
6 -17 5 -13 3 -7 0 -1 -2 6 -4 12 -6 15 -6 17 
-6 18 -6 15 -4 11 -2 6 0 -1 3 -8 5 -14 6 -17 
7 -20 7 -18 6 -16 3 -10 2 -5 0 1 -2 6 -4 11 
-6 15 -6 18 -7 19 -7 19 -6 16 -4 12 -2 5 1 -1 
2 -6 3 -11 5 -13 5 -14 6 -15 4 -13 4 -10 3 -8 
2 -4 0 -3 0 2 -1 3 -2 4 -2 5 -2 7 -3 8 
-3 9 -4 11 -4 10 -3 9 -3 7 -1 4 2 -4 2 -8 
4 -10 4 -12 5 -13 4 -11 3 -9 2 -6 1 -2 -1 3 
-3 8 -4 12 -6 15 -5 16 -6 15 -4 11 -2 7 -1 0 
3 -6 4 -13 7 -18 8 -21 8 -23 7 -21 6 -15 3 -8 
-3 9 -6 14 -6 19 -8 20 -7 21 -7 18 -5 15 -4 10 
-1 4 1 -2 2 -6 3 -10 4 -11 4 -11 4 -10 4 -10 
3 -9 3 -8 2 -5 1 -4 0 -1 0 1 -1 2 0 2 
-1 1 0 1 -1 1 1 -1 0 -2 0 1 -1 3 -3 7 
-3 9 -3 10 -3 8 -2 6 -2 3 1 -2 2 -4 2 -6 
2 -7 3 -7 2 -7 2 -4 0 -1 0 1 -2 5 -3 8 
-3 9 -3 9 -4 9 -2 7 -2 5 -1 3 0 1 1 -3 
1 -4 3 -7 3 -9 4 -12 5 -13 5 -14 4 -11 3 -8 
1 -3 -2 5 -4 11 -6 16 -6 18 -6 17 -5 14 -4 10 
-1 4 0 -2 4 -9 5 -16 7 -19 8 -21 7 -20 6 -16 
4 -13 3 -7 1 -2 -2 4 -3 9 -5 13 -5 16 -7 19 
-8 20 -8 23 -8 24 -9 23 -7 20 -5 13 -1 4 3 -7 
6 -19 11 -29 13 -36 15 -41 14 -41 14 -37 10 -28 6 -18 
2 -4 -3 7 -7 19 -10 27 -12 34 -12 35 -13 34 -10 29 
-8 22 -4 12 -1 3 2 -7 6 -15 7 -21 9 -25 10 -27 
9 -25 7 -20 5 -14 2 -4 -2 5 -5 14 -8 21 -10 27 
-10 30 -11 29 -9 26 -7 18 -3 9 1 -2 4 -12 8 -20 
9 -27 10 -29 10 -27 8 -22 5 -12 1 -3 -3 7 -4 12 
-5 14 -5 13 -3 8 3874 2502 300 MP stroke
-2 5 -1 2 0 3 -2 5 -4 10 -4 13 -5 13 -4 10 
-1 3 2 -6 6 -15 9 -25 12 -33 14 -39 14 -40 13 -35 
9 -25 3 -9 -4 12 -12 33 -19 50 -22 63 -24 67 -23 63 
-18 51 -12 32 -3 9 6 -16 14 -40 22 -61 27 -75 30 -82 
28 -79 24 -67 18 -49 8 -23 -2 6 -12 35 -23 62 -31 85 
-35 100 -37 102 -34 92 -25 70 -13 38 0 -1 14 -39 27 -74 
35 -99 40 -110 39 -109 34 -94 25 -69 13 -35 -1 1 -13 38 
-25 70 -34 93 -39 108 -40 110 -36 102 -31 84 -20 57 -9 24 
5 -13 17 -49 29 -79 36 -100 40 -111 40 -110 35 -99 28 -77 
17 -48 6 -15 -7 20 -19 52 -29 79 -34 96 -37 101 -34 96 
-30 81 -21 61 -13 36 -3 7 8 -22 17 -49 26 -72 32 -88 
36 -98 35 -99 32 -89 26 -71 15 -41 2 -7 -10 29 -23 64 
-33 91 -39 109 -42 115 -39 110 -33 91 -23 62 -9 27 4 -12 
17 -48 29 -80 37 -101 40 -111 39 -110 35 -98 27 -75 16 -43 
3 -8 -10 27 -21 58 -28 80 -33 90 -33 91 -28 79 -22 59 
-11 32 -1 2 11 -30 20 -56 27 -75 30 -81 27 -76 21 -58 
12 -34 2 -5 -9 25 -19 52 -25 70 -29 80 -28 78 -23 63 
-14 39 -4 13 6 -17 15 -44 24 -66 29 -79 29 -82 27 -74 
21 -58 13 -37 4 -11 -7 20 -18 51 -29 78 -37 103 -42 116 
-42 118 -39 107 -30 84 -19 53 -6 17 7 -21 20 -55 31 -84 
38 -106 41 -116 42 -115 37 -103 29 -81 21 -57 11 -31 4 -11 
-2 6 -7 19 -11 30 -15 43 -21 58 -27 75 -33 92 -38 104 
-38 105 -33 92 -25 69 -12 34 1 -4 16 -43 29 -80 39 -110 
48 -131 51 -141 49 -138 43 -119 30 -84 14 -39 -3 9 -20 56 
-34 95 -45 123 -49 137 -49 136 -44 121 -34 95 -21 57 -4 12 
13 -37 31 -83 44 -123 53 -148 57 -157 54 -151 46 -128 34 -94 
18 -50 0 1 -20 54 -37 104 -53 148 -65 178 -69 193 -68 188 
-58 162 -41 113 -17 47 10 -26 35 -98 55 -155 68 -187 69 -192 
62 -172 49 -135 31 -86 12 -33 -8 21 -26 72 -40 113 -52 142 
-55 155 -55 152 -49 134 -38 105 -24 68 -9 24 9 -23 25 -70 
40 -112 52 -143 58 -162 60 -165 54 -152 46 -127 32 -89 15 -40 
-6 16 -28 77 -49 135 -66 184 -77 213 -79 222 -75 205 -60 168 
-39 108 -13 35 16 -44 43 -119 66 -184 84 -231 92 -257 93 -256 
82 -228 63 -176 38 -104 7 -20 -24 67 -54 149 -78 217 -95 263 
-103 286 -101 279 -88 245 -66 183 -36 99 0 2 36 -102 70 -194 
96 -265 110 -305 112 -311 103 -285 83 -231 54 -150 21 -57 -15 40 
-48 134 -78 216 -100 278 -113 313 -114 315 -103 287 -83 230 -53 148 
-19 51 20 -56 58 -159 4178 1658 300 MP stroke
90 -250 114 -318 128 -353 127 -353 112 -310 83 -231 43 -119 -4 11 
-52 144 -95 264 -129 359 -149 411 -150 418 -135 373 -103 288 -61 168 
-10 28 43 -119 93 -258 135 -375 164 -456 176 -489 169 -469 142 -392 
96 -266 37 -104 -26 73 -87 241 -138 384 -175 486 -193 534 -188 521 
-161 447 -114 317 -54 151 11 -33 76 -211 132 -366 172 -475 189 -526 
186 -516 163 -452 127 -352 81 -225 29 -79 -27 73 -79 218 -122 339 
-151 420 -162 449 -152 423 -127 351 -89 248 -46 127 1 -2 44 -123 
80 -221 102 -284 111 -309 107 -295 88 -244 59 -166 30 -80 4 -12 
-15 41 -31 85 -42 118 -49 136 -50 138 -45 125 -37 102 -27 74 
-17 47 -9 27 -6 15 -5 14 -6 17 -7 20 -7 21 -8 21 
-7 19 -5 13 -1 4 3 -8 7 -19 10 -29 14 -37 15 -42 
14 -41 14 -38 12 -32 8 -24 6 -17 3 -9 1 -1 -1 4 
-2 5 -2 4 0 1 2 -5 3 -8 4 -11 4 -11 4 -11 
3 -10 3 -8 2 -6 1 -3 0 1 -1 4 -2 4 -2 6 
-2 6 -2 5 -2 5 -1 4 -2 6 -3 6 -3 9 -3 10 
-3 8 -2 5 -1 3 0 -1 2 -5 4 -12 6 -15 6 -17 
5 -16 4 -10 1 -4 0 2 -3 7 -3 8 -2 7 -2 5 
-2 5 -4 11 -5 14 -5 15 -4 12 -2 4 3 -7 6 -17 
7 -21 7 -20 7 -19 7 -18 4 -13 2 -5 -1 3 -3 9 
-5 13 -6 18 -7 20 -7 18 -6 16 -5 14 -4 12 -2 6 
1 -3 3 -9 5 -13 5 -14 5 -14 5 -14 4 -12 4 -10 
2 -7 1 -3 0 2 -2 6 -3 8 -4 10 -4 11 -4 11 
-2 7 -2 4 -1 2 1 -1 2 -5 3 -9 3 -9 3 -8 
2 -4 0 -1 0 1 -1 1 0 1 -1 1 0 2 -1 3 
-2 4 -2 6 -2 4 0 1 1 -2 2 -5 1 -5 1 -2 
-1 3 -1 4 -1 3 -1 2 0 -1 1 -1 0 -2 1 -1 
0 -1 1 -3 1 -2 1 -3 0 1 -1 1 0 1 -1 4 
-2 4 -1 4 -1 2 1 -2 1 -3 1 -4 1 -3 1 -1 
-1 1 0 1 -1 2 -1 2 -1 3 0 2 0 -1 1 -2 
1 -3 1 -2 1 -3 0 -2 1 -1 -1 0 0 3 -1 1 
0 2 -1 1 3874 2502 243 MP stroke
gr

DA
2480  156 mt 
(Moment-curvature response at section B) s
3016  294 mt 
(force-based element) s
3103 4903 mt 
(Curvature \(rad/m\)) s
 446 2923 mt  -90 rotate
(Moment \(kN*M\)) s
90 rotate
 882 4658 mt 
( ) s
6239  431 mt 
( ) s
SO
1 sg
0 334 1172 0 0 -334 5023 4556 4 MP
PP
-1172 0 0 334 1172 0 0 -334 5023 4556 5 MP stroke
4 w
DO
SO
6 w
0 sg
5023 4556 mt 6195 4556 L
5023 4222 mt 6195 4222 L
5023 4556 mt 5023 4222 L
6195 4556 mt 6195 4222 L
5023 4556 mt 6195 4556 L
5023 4556 mt 5023 4222 L
5023 4556 mt 6195 4556 L
5023 4222 mt 6195 4222 L
5023 4556 mt 5023 4222 L
6195 4556 mt 6195 4222 L
5482 4357 mt 
(nonlinear) s
gs 5023 4222 1173 335 rc
c8
353 0 5093 4315 2 MP stroke
gr

c8
0 sg
5482 4506 mt 
(linear elastic) s
gs 5023 4222 1173 335 rc
DA
353 0 5093 4462 2 MP stroke
SO
gr


end %%Color Dict

eplot
%%EndObject

epage
end

showpage

%%Trailer
%%EOF
