%!PS-Adobe-3.0 EPSF-3.0
%%Creator: MATLAB, The Mathworks, Inc. Version 7.10.0.499 (R2010a). Operating System: Darwin 10.8.0 Darwin Kernel Version 10.8.0: Tue Jun  7 16:33:36 PDT 2011; root:xnu-1504.15.3~1/RELEASE_I386 i386.
%%Title: ./fig2d_response_3.eps
%%CreationDate: 03/24/2012  11:53:14
%%DocumentNeededFonts: Helvetica
%%DocumentProcessColors: Cyan Magenta Yellow Black
%%LanguageLevel: 2
%%Pages: 1
%%BoundingBox:    60   199   548   614
%%EndComments

%%BeginProlog
% MathWorks dictionary
/MathWorks 160 dict begin
% definition operators
/bdef {bind def} bind def
/ldef {load def} bind def
/xdef {exch def} bdef
/xstore {exch store} bdef
% operator abbreviations
/c  /clip ldef
/cc /concat ldef
/cp /closepath ldef
/gr /grestore ldef
/gs /gsave ldef
/mt /moveto ldef
/np /newpath ldef
/cm /currentmatrix ldef
/sm /setmatrix ldef
/rm /rmoveto ldef
/rl /rlineto ldef
/s {show newpath} bdef
/sc {setcmykcolor} bdef
/sr /setrgbcolor ldef
/sg /setgray ldef
/w /setlinewidth ldef
/j /setlinejoin ldef
/cap /setlinecap ldef
/rc {rectclip} bdef
/rf {rectfill} bdef
% page state control
/pgsv () def
/bpage {/pgsv save def} bdef
/epage {pgsv restore} bdef
/bplot /gsave ldef
/eplot {stroke grestore} bdef
% orientation switch
/portraitMode 0 def /landscapeMode 1 def /rotateMode 2 def
% coordinate system mappings
/dpi2point 0 def
% font control
/FontSize 0 def
/FMS {/FontSize xstore findfont [FontSize 0 0 FontSize neg 0 0]
  makefont setfont} bdef
/reencode {exch dup where {pop load} {pop StandardEncoding} ifelse
  exch dup 3 1 roll findfont dup length dict begin
  { 1 index /FID ne {def}{pop pop} ifelse } forall
  /Encoding exch def currentdict end definefont pop} bdef
/isroman {findfont /CharStrings get /Agrave known} bdef
/FMSR {3 1 roll 1 index dup isroman {reencode} {pop pop} ifelse
  exch FMS} bdef
/csm {1 dpi2point div -1 dpi2point div scale neg translate
 dup landscapeMode eq {pop -90 rotate}
  {rotateMode eq {90 rotate} if} ifelse} bdef
% line types: solid, dotted, dashed, dotdash
/SO { [] 0 setdash } bdef
/DO { [.5 dpi2point mul 4 dpi2point mul] 0 setdash } bdef
/DA { [6 dpi2point mul] 0 setdash } bdef
/DD { [.5 dpi2point mul 4 dpi2point mul 6 dpi2point mul 4
  dpi2point mul] 0 setdash } bdef
% macros for lines and objects
/L {lineto stroke} bdef
/MP {3 1 roll moveto 1 sub {rlineto} repeat} bdef
/AP {{rlineto} repeat} bdef
/PDlw -1 def
/W {/PDlw currentlinewidth def setlinewidth} def
/PP {closepath eofill} bdef
/DP {closepath stroke} bdef
/MR {4 -2 roll moveto dup  0 exch rlineto exch 0 rlineto
  neg 0 exch rlineto closepath} bdef
/FR {MR stroke} bdef
/PR {MR fill} bdef
/L1i {{currentfile picstr readhexstring pop} image} bdef
/tMatrix matrix def
/MakeOval {newpath tMatrix currentmatrix pop translate scale
0 0 1 0 360 arc tMatrix setmatrix} bdef
/FO {MakeOval stroke} bdef
/PO {MakeOval fill} bdef
/PD {currentlinewidth 2 div 0 360 arc fill
   PDlw -1 eq not {PDlw w /PDlw -1 def} if} def
/FA {newpath tMatrix currentmatrix pop translate scale
  0 0 1 5 -2 roll arc tMatrix setmatrix stroke} bdef
/PA {newpath tMatrix currentmatrix pop	translate 0 0 moveto scale
  0 0 1 5 -2 roll arc closepath tMatrix setmatrix fill} bdef
/FAn {newpath tMatrix currentmatrix pop translate scale
  0 0 1 5 -2 roll arcn tMatrix setmatrix stroke} bdef
/PAn {newpath tMatrix currentmatrix pop translate 0 0 moveto scale
  0 0 1 5 -2 roll arcn closepath tMatrix setmatrix fill} bdef
/vradius 0 def /hradius 0 def /lry 0 def
/lrx 0 def /uly 0 def /ulx 0 def /rad 0 def
/MRR {/vradius xdef /hradius xdef /lry xdef /lrx xdef /uly xdef
  /ulx xdef newpath tMatrix currentmatrix pop ulx hradius add uly
  vradius add translate hradius vradius scale 0 0 1 180 270 arc 
  tMatrix setmatrix lrx hradius sub uly vradius add translate
  hradius vradius scale 0 0 1 270 360 arc tMatrix setmatrix
  lrx hradius sub lry vradius sub translate hradius vradius scale
  0 0 1 0 90 arc tMatrix setmatrix ulx hradius add lry vradius sub
  translate hradius vradius scale 0 0 1 90 180 arc tMatrix setmatrix
  closepath} bdef
/FRR {MRR stroke } bdef
/PRR {MRR fill } bdef
/MlrRR {/lry xdef /lrx xdef /uly xdef /ulx xdef /rad lry uly sub 2 div def
  newpath tMatrix currentmatrix pop ulx rad add uly rad add translate
  rad rad scale 0 0 1 90 270 arc tMatrix setmatrix lrx rad sub lry rad
  sub translate rad rad scale 0 0 1 270 90 arc tMatrix setmatrix
  closepath} bdef
/FlrRR {MlrRR stroke } bdef
/PlrRR {MlrRR fill } bdef
/MtbRR {/lry xdef /lrx xdef /uly xdef /ulx xdef /rad lrx ulx sub 2 div def
  newpath tMatrix currentmatrix pop ulx rad add uly rad add translate
  rad rad scale 0 0 1 180 360 arc tMatrix setmatrix lrx rad sub lry rad
  sub translate rad rad scale 0 0 1 0 180 arc tMatrix setmatrix
  closepath} bdef
/FtbRR {MtbRR stroke } bdef
/PtbRR {MtbRR fill } bdef
/stri 6 array def /dtri 6 array def
/smat 6 array def /dmat 6 array def
/tmat1 6 array def /tmat2 6 array def /dif 3 array def
/asub {/ind2 exch def /ind1 exch def dup dup
  ind1 get exch ind2 get sub exch } bdef
/tri_to_matrix {
  2 0 asub 3 1 asub 4 0 asub 5 1 asub
  dup 0 get exch 1 get 7 -1 roll astore } bdef
/compute_transform {
  dmat dtri tri_to_matrix tmat1 invertmatrix 
  smat stri tri_to_matrix tmat2 concatmatrix } bdef
/ds {stri astore pop} bdef
/dt {dtri astore pop} bdef
/db {2 copy /cols xdef /rows xdef mul dup 3 mul string
  currentfile 
  3 index 0 eq {/ASCIIHexDecode filter}
  {/ASCII85Decode filter 3 index 2 eq {/RunLengthDecode filter} if }
  ifelse exch readstring pop
  dup 0 3 index getinterval /rbmap xdef
  dup 2 index dup getinterval /gbmap xdef
  1 index dup 2 mul exch getinterval /bbmap xdef pop pop}bdef
/it {gs np dtri aload pop moveto lineto lineto cp c
  cols rows 8 compute_transform 
  rbmap gbmap bbmap true 3 colorimage gr}bdef
/il {newpath moveto lineto stroke}bdef
currentdict end def
%%EndProlog

%%BeginSetup
MathWorks begin

0 cap

end
%%EndSetup

%%Page: 1 1
%%BeginPageSetup
%%PageBoundingBox:    60   199   548   614
MathWorks begin
bpage
%%EndPageSetup

%%BeginObject: obj1
bplot

/dpi2point 12 def
portraitMode 0216 7344 csm

  510   -28  5861  4983 rc
85 dict begin %Colortable dictionary
/c0 { 0.000000 0.000000 0.000000 sr} bdef
/c1 { 1.000000 1.000000 1.000000 sr} bdef
/c2 { 0.900000 0.000000 0.000000 sr} bdef
/c3 { 0.000000 0.820000 0.000000 sr} bdef
/c4 { 0.000000 0.000000 0.800000 sr} bdef
/c5 { 0.910000 0.820000 0.320000 sr} bdef
/c6 { 1.000000 0.260000 0.820000 sr} bdef
/c7 { 0.000000 0.820000 0.820000 sr} bdef
c0
1 j
1 sg
   0    0 6913 5186 rf
6 w
0 4226 5356 0 0 -4226 899 4615 4 MP
PP
-5356 0 0 4226 5356 0 0 -4226 899 4615 5 MP stroke
4 w
DO
0 sg
 899 4615 mt  899  389 L
 899  389 mt  899  389 L
1434 4615 mt 1434  389 L
1434  389 mt 1434  389 L
1970 4615 mt 1970  389 L
1970  389 mt 1970  389 L
2505 4615 mt 2505  389 L
2505  389 mt 2505  389 L
3041 4615 mt 3041  389 L
3041  389 mt 3041  389 L
3577 4615 mt 3577  389 L
3577  389 mt 3577  389 L
4112 4615 mt 4112  389 L
4112  389 mt 4112  389 L
4648 4615 mt 4648  389 L
4648  389 mt 4648  389 L
5183 4615 mt 5183  389 L
5183  389 mt 5183  389 L
5719 4615 mt 5719  389 L
5719  389 mt 5719  389 L
6255 4615 mt 6255  389 L
6255  389 mt 6255  389 L
 899 4615 mt 6255 4615 L
6255 4615 mt 6255 4615 L
 899 3910 mt 6255 3910 L
6255 3910 mt 6255 3910 L
 899 3206 mt 6255 3206 L
6255 3206 mt 6255 3206 L
 899 2502 mt 6255 2502 L
6255 2502 mt 6255 2502 L
 899 1797 mt 6255 1797 L
6255 1797 mt 6255 1797 L
 899 1093 mt 6255 1093 L
6255 1093 mt 6255 1093 L
 899  389 mt 6255  389 L
6255  389 mt 6255  389 L
SO
6 w
 899 4615 mt 6255 4615 L
 899 4615 mt  899  389 L
 899 4615 mt  899 4561 L
%%IncludeResource: font Helvetica
/Helvetica /ISOLatin1Encoding 120 FMSR

 866 4760 mt 
(0) s
1434 4615 mt 1434 4561 L
1401 4760 mt 
(5) s
1970 4615 mt 1970 4561 L
1904 4760 mt 
(10) s
2505 4615 mt 2505 4561 L
2439 4760 mt 
(15) s
3041 4615 mt 3041 4561 L
2975 4760 mt 
(20) s
3577 4615 mt 3577 4561 L
3511 4760 mt 
(25) s
4112 4615 mt 4112 4561 L
4046 4760 mt 
(30) s
4648 4615 mt 4648 4561 L
4582 4760 mt 
(35) s
5183 4615 mt 5183 4561 L
5117 4760 mt 
(40) s
5719 4615 mt 5719 4561 L
5653 4760 mt 
(45) s
6255 4615 mt 6255 4561 L
6189 4760 mt 
(50) s
 899 4615 mt  952 4615 L
 728 4659 mt 
(-3) s
 899 3910 mt  952 3910 L
 728 3954 mt 
(-2) s
 899 3206 mt  952 3206 L
 728 3250 mt 
(-1) s
 899 2502 mt  952 2502 L
 798 2546 mt 
(0) s
 899 1797 mt  952 1797 L
 798 1841 mt 
(1) s
 899 1093 mt  952 1093 L
 798 1137 mt 
(2) s
 899  389 mt  952  389 L
 798  433 mt 
(3) s
gs 899 389 5357 4227 rc
/c8 { 1.000000 0.000000 0.000000 sr} bdef
c8
3 0 2 0 2 0 2 0 2 0 2 0 2 0 3 0 
2 0 2 0 2 1 2 0 2 0 2 0 3 0 2 0 
2 0 2 0 2 0 2 0 2 0 3 0 2 0 2 0 
2 0 2 0 2 -1 2 0 3 0 2 0 2 0 2 0 
2 0 2 0 2 0 3 0 2 0 2 0 2 0 2 0 
2 0 2 0 3 0 2 1 2 0 2 0 2 0 2 0 
2 0 3 0 2 0 2 0 2 0 2 0 2 0 2 0 
3 0 2 0 2 0 2 0 2 -1 2 0 2 0 3 0 
2 0 2 0 2 0 2 0 2 0 2 0 3 0 2 0 
2 0 2 0 2 0 2 0 2 0 3 1 2 0 2 0 
2 0 2 0 2 0 2 0 3 0 2 0 2 0 2 0 
2 0 2 0 2 0 3 0 2 0 2 -1 2 0 2 0 
2 0 2 0 3 0 2 0 2 0 2 0 2 0 2 0 
2 0 3 0 2 0 2 0 2 0 2 0 2 1 2 0 
3 0 2 0 2 0 2 0 2 0 2 0 2 0 3 0 
2 0 2 0 2 0 2 0 2 0 2 0 3 0 2 -1 
2 0 2 0 2 0 2 0 2 0 3 0 2 0 2 0 
2 0 2 0 2 0 2 0 3 0 2 0 2 0 2 0 
2 1 2 0 2 0 3 0 2 0 2 0 2 0 2 0 
2 0 2 0 3 0 2 0 2 0 2 0 2 0 2 0 
2 -1 3 0 2 0 2 0 2 0 2 0 2 0 2 0 
3 0 2 0 2 0 2 0 2 0 2 0 2 0 3 0 
2 0 2 1 2 0 2 0 2 0 2 0 3 0 2 0 
2 0 2 0 2 0 2 0 2 0 3 0 2 0 2 0 
2 0 2 0 2 -1 2 0 3 0 2 0 2 0 2 0 
2 0 2 0 2 0 3 0 2 0 2 0 2 0 2 0 
2 0 2 0 3 1 2 0 2 0 2 0 2 0 2 0 
2 0 3 0 2 0 2 0 2 0 2 0 2 0 2 0 
3 0 2 0 2 0 2 -1 2 0 2 0 2 0 3 0 
2 0 2 0 2 0 2 0 2 0 2 0 3 0 2 0 
2 0 2 0 2 0 2 0 2 1 3 0 2 0 2 0 
2 0 2 0 2 0 2 0 3 0 2 0 2 0 2 0 
2 0 2 0 2 0 3 0 2 0 2 -1 2 0 2 0 
2 0 2 0 3 0 2 0 2 0 2 0 2 0 2 0 
2 0 3 0 2 0 2 0 2 0 2 1 2 0 2 0 
3 0 2 0 2 0 2 0 2 0 2 0 2 0 3 0 
2 0 2 0 2 0 2 0 2 0 2 0 3 -1 2 0 
2 0 2 0 2 0 5614 2502 300 MP stroke
2 0 2 -1 3 0 2 0 2 0 2 0 2 1 2 0 
2 0 3 0 2 0 2 0 2 1 2 0 2 0 2 0 
2 0 3 1 2 0 2 0 2 0 2 0 2 0 2 0 
3 -1 2 0 2 0 2 0 2 0 2 -1 2 0 3 0 
2 0 2 -1 2 0 2 0 2 0 2 0 3 0 2 0 
2 0 2 1 2 0 2 0 2 0 3 1 2 0 2 0 
2 0 2 1 2 0 2 0 3 0 2 0 2 0 2 0 
2 0 2 0 2 0 3 -1 2 0 2 0 2 -1 2 0 
2 0 2 -1 3 0 2 0 2 0 2 0 2 0 2 0 
2 0 3 0 2 0 2 0 2 1 2 0 2 0 2 1 
3 0 2 0 2 1 2 0 2 0 2 0 2 0 3 0 
2 0 2 0 2 0 2 0 2 0 2 -1 3 0 2 0 
2 -1 2 0 2 -1 2 0 2 0 3 0 2 -1 2 0 
2 0 2 0 2 0 2 1 3 0 2 0 2 1 2 0 
2 1 2 0 2 0 3 1 2 0 2 0 2 1 2 0 
2 0 2 0 3 0 2 0 2 -1 2 0 2 0 2 -1 
2 0 3 -1 2 0 2 -1 2 0 2 0 2 -1 2 0 
3 0 2 0 2 0 2 0 2 0 2 0 2 1 3 0 
2 1 2 0 2 1 2 0 2 1 2 0 3 1 2 0 
2 0 2 1 2 0 2 -1 2 0 3 0 2 0 2 -1 
2 0 2 -1 2 0 2 -1 3 -1 2 0 2 -1 2 0 
2 -1 2 0 2 0 3 0 2 0 2 0 2 1 2 0 
2 1 2 0 3 1 2 1 2 0 2 1 2 1 2 0 
2 1 3 0 2 0 2 0 2 0 2 0 2 0 2 0 
3 -1 2 0 2 -1 2 -1 2 -1 2 -1 2 0 3 -1 
2 0 2 -1 2 0 2 -1 2 0 2 0 3 0 2 0 
2 1 2 0 2 1 2 1 2 1 3 1 2 1 2 0 
2 1 2 0 2 1 2 0 3 1 2 0 2 0 2 0 
2 0 2 -1 2 -1 3 -1 2 -1 2 -1 2 0 2 -1 
2 -1 2 -1 3 -1 2 0 2 -1 2 -1 2 0 2 0 
2 0 3 1 2 1 2 1 2 1 2 1 2 0 2 1 
3 1 2 1 2 1 2 2 2 1 2 1 2 0 3 0 
2 0 2 -1 2 0 2 -1 2 0 2 -1 3 0 2 -1 
2 -1 2 -1 2 -2 2 -1 2 -2 3 -1 2 0 2 -1 
2 0 2 0 2 1 2 0 3 1 2 0 2 1 2 1 
2 1 2 1 2 1 3 2 2 2 2 1 2 1 2 0 
2 0 2 0 3 0 2 0 2 0 2 0 2 -1 2 0 
2 -2 3 -1 2 -2 4973 2501 300 MP stroke
2 -2 2 -2 2 -1 2 -1 2 0 3 0 2 0 2 0 
2 0 2 0 2 0 2 0 3 1 2 2 2 2 2 2 
2 2 2 3 2 1 3 1 2 1 2 0 2 0 2 1 
2 1 2 0 2 1 3 0 2 -1 2 -2 2 -3 2 -2 
2 -3 2 -2 3 -2 2 -1 2 -2 2 -1 2 -2 2 -2 
2 -2 3 -2 2 -1 2 0 2 0 2 1 2 1 2 2 
3 1 2 2 2 2 2 2 2 2 2 3 2 2 3 2 
2 2 2 2 2 2 2 2 2 1 2 2 3 0 2 1 
2 -1 2 0 2 -2 2 -1 2 -2 3 -2 2 -2 2 -2 
2 -2 2 -2 2 -2 2 -3 3 -2 2 -2 2 -3 2 -1 
2 -1 2 0 2 0 3 1 2 1 2 1 2 1 2 1 
2 1 2 2 3 2 2 3 2 3 2 3 2 2 2 1 
2 0 3 0 2 0 2 0 2 0 2 1 2 0 2 0 
3 -1 2 -2 2 -3 2 -4 2 -4 2 -2 2 -2 3 -2 
2 0 2 -1 2 0 2 -1 2 -1 2 -1 3 0 2 0 
2 2 2 2 2 4 2 3 2 4 3 3 2 2 2 1 
2 1 2 1 2 1 2 2 3 1 2 1 2 0 2 0 
2 -2 2 -3 2 -4 3 -3 2 -3 2 -2 2 -1 2 -1 
2 -2 2 -3 3 -2 2 -2 2 -2 2 -1 2 0 2 1 
2 2 3 2 2 3 2 2 2 2 2 3 2 2 2 3 
3 2 2 3 2 3 2 3 2 2 2 1 2 0 3 0 
2 -1 2 0 2 0 2 -1 2 -2 2 -2 3 -3 2 -3 
2 -3 2 -3 2 -3 2 -2 2 -2 3 -2 2 -2 2 -1 
2 -1 2 -1 2 0 2 0 3 2 2 2 2 2 2 3 
2 3 2 2 2 1 3 2 2 1 2 2 2 1 2 2 
2 1 2 2 3 1 2 1 2 0 2 -1 2 -2 2 -1 
2 -2 3 -2 2 -1 2 -2 2 -1 2 -1 2 -1 2 -2 
3 -3 2 -2 2 -2 2 -1 2 0 2 1 2 2 3 1 
2 1 2 1 2 1 2 1 2 2 2 2 3 3 2 2 
2 3 2 2 2 0 2 0 2 0 3 -1 2 -2 2 -1 
2 -2 2 -1 2 -2 2 -2 3 -2 2 -3 2 -3 2 -3 
2 -2 2 -2 2 -1 3 0 2 1 2 1 2 3 2 2 
2 1 2 2 3 1 2 2 2 3 2 3 2 3 2 3 
2 3 3 2 2 1 2 0 2 0 2 -1 2 0 2 -1 
3 -2 2 -1 2 -2 2 -1 2 -2 2 -2 2 -3 3 -2 
2 -3 2 -2 2 -2 2 -1 2 0 2 0 3 2 2 1 
2 1 2 1 2 1 2 1 2 2 3 2 2 3 2 4 
2 3 2 3 2 2 4333 2486 300 MP stroke
2 2 3 0 2 0 2 -1 2 -1 2 0 2 -1 2 -2 
3 -1 2 -3 2 -3 2 -3 2 -4 2 -3 2 -4 3 -2 
2 -3 2 -1 2 -1 2 0 2 0 2 1 3 2 2 1 
2 2 2 2 2 2 2 2 2 3 3 2 2 2 2 3 
2 2 2 1 2 1 2 1 3 -1 2 -1 2 -1 2 -1 
2 -1 2 0 2 0 2 0 3 -1 2 -1 2 -2 2 -2 
2 -2 2 -2 2 -1 3 -1 2 0 2 -1 2 0 2 -1 
2 0 2 -1 3 -1 2 -1 2 0 2 0 2 1 2 2 
2 1 3 1 2 1 2 1 2 2 2 2 2 2 2 2 
3 2 2 2 2 0 2 1 2 0 2 1 2 1 3 1 
2 0 2 1 2 -1 2 -1 2 -2 2 -2 3 -2 2 -3 
2 -3 2 -3 2 -2 2 -2 2 -3 3 -2 2 -2 2 -3 
2 -3 2 -2 2 -1 2 0 3 0 2 2 2 2 2 3 
2 3 2 3 2 3 3 4 2 3 2 5 2 3 2 3 
2 3 2 2 3 3 2 2 2 2 2 2 2 0 2 -1 
2 -2 3 -2 2 -3 2 -3 2 -3 2 -2 2 -3 2 -4 
3 -4 2 -4 2 -5 2 -5 2 -3 2 -3 2 -1 3 0 
2 0 2 1 2 1 2 2 2 2 2 3 3 4 2 5 
2 5 2 6 2 5 2 5 2 2 3 2 2 2 2 1 
2 1 2 1 2 -1 2 -1 3 -2 2 -4 2 -4 2 -5 
2 -5 2 -4 2 -3 3 -3 2 -4 2 -3 2 -4 2 -4 
2 -3 2 -1 3 1 2 2 2 3 2 4 2 4 2 3 
2 4 3 2 2 3 2 2 2 3 2 3 2 3 2 3 
3 2 2 2 2 0 2 -2 2 -2 2 -2 2 -2 3 -1 
2 -2 2 -1 2 -1 2 -2 2 -2 2 -2 3 -1 2 -2 
2 -1 2 0 2 1 2 1 2 1 3 1 2 2 2 1 
2 1 2 1 2 -1 2 0 3 -1 2 -1 2 0 2 0 
2 0 2 1 2 -1 3 -1 2 -2 2 -3 2 -2 2 -2 
2 0 2 0 3 2 2 2 2 3 2 1 2 1 2 0 
2 0 3 0 2 1 2 1 2 3 2 3 2 2 2 1 
3 0 2 -2 2 -2 2 -2 2 -1 2 0 2 1 3 2 
2 1 2 -1 2 -2 2 -3 2 -3 2 -2 3 0 2 1 
2 3 2 2 2 2 2 1 2 -1 3 -2 2 -2 2 -2 
2 -1 2 0 2 2 2 2 3 2 2 0 2 -2 2 -4 
2 -4 2 -5 2 -3 3 -1 2 0 2 3 2 2 2 2 
2 0 2 -1 3 -1 2 -2 2 0 2 2 2 4 2 5 
2 5 3 5 2 2 2 0 2 -2 2 -3 2 -3 2 -1 
3 -1 2 2 2 1 3692 2498 300 MP stroke
2 1 2 -1 2 -2 2 -4 3 -4 2 -4 2 -3 2 0 
2 1 2 3 2 3 3 4 2 3 2 2 2 1 2 0 
2 0 2 0 3 2 2 3 2 4 2 4 2 3 2 3 
2 0 3 -1 2 -3 2 -4 2 -5 2 -5 2 -2 2 -1 
3 0 2 0 2 -1 2 -3 2 -6 2 -6 2 -6 3 -5 
2 -1 2 2 2 4 2 4 2 5 2 3 3 2 2 1 
2 0 2 2 2 3 2 5 2 7 2 6 3 4 2 2 
2 -1 2 -4 2 -4 2 -3 2 -3 3 -1 2 -2 2 -1 
2 -3 2 -3 2 -4 2 -5 3 -6 2 -5 2 -3 2 -1 
2 1 2 4 2 4 3 5 2 4 2 2 2 1 2 1 
2 2 2 4 3 4 2 4 2 3 2 3 2 0 2 0 
2 0 3 -1 2 -1 2 -2 2 -2 2 -4 2 -3 2 -2 
3 -1 2 -1 2 -1 2 -1 2 -3 2 -3 2 -3 3 0 
2 3 2 5 2 4 2 3 2 0 2 -1 3 -1 2 0 
2 1 2 3 2 4 2 4 2 3 3 0 2 -2 2 -4 
2 -5 2 -4 2 -3 2 0 3 2 2 2 2 1 2 -1 
2 -3 2 -5 2 -5 3 -4 2 -1 2 2 2 4 2 6 
2 5 2 4 3 2 2 0 2 -1 2 0 2 0 2 2 
2 2 3 3 2 2 2 1 2 -1 2 -2 2 -3 2 -2 
3 -3 2 -3 2 -2 2 -2 2 -3 2 -4 2 -4 3 -5 
2 -3 2 -2 2 2 2 3 2 4 2 5 3 3 2 3 
2 2 2 2 2 3 2 2 2 4 3 4 2 4 2 4 
2 4 2 2 2 0 2 -1 3 -4 2 -5 2 -6 2 -6 
2 -5 2 -4 2 -3 3 -2 2 -4 2 -5 2 -7 2 -9 
2 -7 2 -5 3 -1 2 2 2 5 2 7 2 7 2 6 
2 4 3 4 2 4 2 5 2 5 2 7 2 8 2 8 
3 8 2 6 2 3 2 -1 2 -2 2 -5 2 -5 3 -5 
2 -3 2 -3 2 -4 2 -6 2 -6 2 -8 3 -10 2 -11 
2 -9 2 -7 2 -5 2 0 2 1 3 2 2 2 2 2 
2 2 2 3 2 5 2 6 3 9 2 12 2 13 2 11 
2 9 2 4 2 1 3 -1 2 0 2 2 2 4 2 5 
2 2 2 0 3 -4 2 -8 2 -11 2 -12 2 -12 2 -10 
2 -7 3 -4 2 -3 2 -4 2 -5 2 -9 2 -10 2 -10 
3 -6 2 -1 2 3 2 6 2 10 2 11 2 11 3 8 
2 6 2 5 2 5 2 7 2 9 2 10 3 11 2 10 
2 8 2 4 2 1 2 -2 2 -4 3 -5 2 -5 2 -4 
2 -3 2 -3 2 -4 2 -7 3 -9 2 -10 2 -10 2 -10 
2 -7 2 -6 2 -2 3052 2536 300 MP stroke
3 0 2 2 2 2 2 3 2 3 2 2 2 3 3 3 
2 4 2 7 2 8 2 9 2 8 2 5 3 2 2 0 
2 -2 2 -2 2 -1 2 -1 2 -2 3 -1 2 -4 2 -6 
2 -7 2 -7 2 -8 2 -6 3 -4 2 -2 2 0 2 -1 
2 -1 2 -1 2 -2 3 -1 2 1 2 3 2 5 2 7 
2 7 2 7 3 6 2 4 2 2 2 1 2 2 2 2 
2 3 3 4 2 4 2 3 2 2 2 -1 2 -2 2 -4 
3 -4 2 -3 2 -1 2 1 2 2 2 2 2 0 3 -3 
2 -6 2 -9 2 -8 2 -7 2 -2 2 1 2 2 3 3 
2 0 2 -3 2 -5 2 -6 2 -5 2 -3 3 -1 2 2 
2 4 2 6 2 7 2 6 2 5 3 2 2 0 2 -2 
2 0 2 2 2 5 2 6 3 6 2 4 2 2 2 -1 
2 -2 2 -4 2 -5 3 -4 2 -2 2 0 2 0 2 0 
2 -3 2 -4 3 -7 2 -6 2 -5 2 -3 2 -1 2 0 
2 2 3 2 2 1 2 1 2 1 2 0 2 -1 2 0 
3 2 2 2 2 5 2 6 2 7 2 5 2 5 3 2 
2 0 2 0 2 1 2 1 2 2 2 3 3 3 2 2 
2 1 2 -1 2 -4 2 -4 2 -6 3 -6 2 -5 2 -4 
2 -4 2 -2 2 -4 2 -4 3 -6 2 -7 2 -6 2 -3 
2 -1 2 3 2 6 3 8 2 7 2 7 2 4 2 1 
2 -1 2 -1 3 2 2 5 2 9 2 10 2 8 2 6 
2 0 3 -3 2 -8 2 -9 2 -7 2 -1 2 4 2 8 
3 8 2 4 2 0 2 -6 2 -9 2 -11 2 -12 3 -7 
2 -2 2 2 2 5 2 3 2 0 2 -6 3 -10 2 -12 
2 -10 2 -5 2 0 2 4 2 7 3 8 2 8 2 6 
2 4 2 3 2 4 2 4 3 7 2 8 2 9 2 10 
2 8 2 7 2 4 3 1 2 -3 2 -5 2 -5 2 -6 
2 -3 2 -3 3 -3 2 -5 2 -8 2 -11 2 -13 2 -13 
2 -11 3 -9 2 -6 2 -2 2 1 2 3 2 3 2 3 
3 4 2 5 2 7 2 8 2 9 2 11 2 12 3 11 
2 10 2 8 2 6 2 3 2 0 2 -1 3 -1 2 -2 
2 -2 2 -3 2 -4 2 -7 2 -9 3 -11 2 -11 2 -12 
2 -11 2 -11 2 -9 2 -7 3 -6 2 -4 2 -2 2 1 
2 2 2 2 2 4 3 5 2 6 2 8 2 8 2 10 
2 10 2 12 3 10 2 8 2 5 2 4 2 4 2 3 
2 4 3 3 2 3 2 0 2 -2 2 -5 2 -9 2 -10 
3 -10 2 -10 2 -8 2 -8 2 -7 2 -6 2 -5 3 -4 
2 -3 2 -4 2 -6 2411 2547 300 MP stroke
2 -5 2 -3 2 0 3 3 2 6 2 9 2 10 2 8 
2 8 2 6 3 5 2 5 2 5 2 6 2 6 2 7 
2 7 3 7 2 6 2 4 2 1 2 -1 2 -1 2 0 
3 1 2 2 2 0 2 -2 2 -5 2 -8 2 -10 3 -8 
2 -8 2 -7 2 -6 2 -8 2 -12 2 -13 3 -15 2 -14 
2 -11 2 -7 2 -3 2 -1 2 2 3 2 2 3 2 2 
2 3 2 4 2 5 2 7 3 10 2 13 2 14 2 15 
2 16 2 14 2 10 3 9 2 7 2 4 2 4 2 1 
2 0 2 -2 3 -2 2 -1 2 -2 2 -4 2 -7 2 -12 
2 -15 3 -16 2 -18 2 -19 2 -15 2 -11 2 -6 2 -2 
2 0 3 -1 2 -1 2 -2 2 -1 2 -1 2 3 2 9 
3 13 2 16 2 18 2 18 2 14 2 10 2 7 3 7 
2 8 2 9 2 8 2 7 2 4 2 1 3 -2 2 -4 
2 -4 2 -3 2 -2 2 0 2 0 3 -1 2 -3 2 -8 
2 -11 2 -13 2 -14 2 -12 3 -9 2 -4 2 -3 2 -3 
2 -5 2 -9 2 -15 3 -15 2 -13 2 -8 2 0 2 4 
2 7 2 11 3 12 2 11 2 8 2 4 2 2 2 2 
2 5 3 10 2 14 2 14 2 14 2 12 2 8 2 5 
3 2 2 0 2 -2 2 -6 2 -10 2 -12 2 -12 3 -13 
2 -11 2 -5 2 2 2 5 2 4 2 -4 3 -14 2 -21 
2 -20 2 -12 2 -5 2 3 2 11 3 17 2 20 2 20 
2 14 2 6 2 -1 2 -4 3 -2 2 4 2 12 2 17 
2 19 2 16 2 7 3 -1 2 -9 2 -12 2 -12 2 -7 
2 -2 2 2 3 4 2 2 2 -2 2 -9 2 -16 2 -17 
2 -21 3 -21 2 -20 2 -15 2 -9 2 -5 2 -3 2 0 
3 2 2 1 2 1 2 0 2 0 2 1 2 2 3 5 
2 8 2 11 2 17 2 21 2 17 2 12 3 6 2 2 
2 1 2 2 2 7 2 12 2 15 3 12 2 6 2 -1 
2 -5 2 -8 2 -10 2 -10 3 -9 2 -6 2 -4 2 -2 
2 -2 2 -3 2 -8 3 -12 2 -13 2 -16 2 -18 2 -16 
2 -11 2 -4 3 2 2 7 2 9 2 10 2 10 2 11 
2 4 3 0 2 -1 2 2 2 7 2 14 2 20 2 23 
3 19 2 11 2 1 2 -4 2 -7 2 -4 2 7 3 18 
2 21 2 18 2 16 2 8 2 -5 2 -13 3 -13 2 -11 
2 -7 2 -5 2 1 2 5 2 8 3 6 2 2 2 -4 
2 -21 2 -29 2 -37 2 -46 3 -44 2 -22 2 -4 2 7 
2 8 2 0 2 -9 3 -17 2 -21 2 -17 2 -8 2 -1 
2 8 2 17 3 31 1770 2606 300 MP stroke
2 35 2 30 2 8 2 -13 2 -27 2 -33 3 -20 2 -12 
2 5 2 26 2 32 2 28 2 8 3 -9 2 -19 2 -20 
2 -10 2 -5 2 -3 2 17 3 16 2 2 2 4 2 6 
2 13 2 22 2 36 3 43 2 36 2 24 2 8 2 -4 
2 -7 2 -1 3 5 2 13 2 15 2 15 2 11 2 6 
2 3 3 -1 2 -7 2 -10 2 -15 2 -18 2 -15 2 -12 
3 -4 2 4 2 8 2 4 2 0 2 -11 2 -35 3 -48 
2 -54 2 -44 2 -21 2 2 2 13 2 20 3 19 2 7 
2 -4 2 -9 2 -4 2 1 2 8 3 18 2 18 2 10 
2 7 2 8 2 13 2 19 3 21 2 15 2 7 2 -3 
2 -12 2 -23 2 -27 3 -24 2 -18 2 -9 2 -3 2 8 
2 16 2 13 3 -2 2 -21 2 -35 2 -35 2 -22 2 -7 
2 2 2 9 3 20 2 28 2 26 2 15 2 3 2 -11 
2 -18 3 -9 2 2 2 10 2 23 2 33 2 27 2 13 
3 -5 2 -19 2 -27 2 -19 2 -1 2 12 2 23 3 31 
2 25 2 5 2 -10 2 -24 2 -35 2 -25 3 -18 2 -10 
2 -4 2 3 2 4 2 1 2 -12 3 -23 2 -27 2 -24 
2 -17 2 -7 2 -3 2 4 3 12 2 5 2 2 2 2 
2 2 2 3 2 14 3 7 2 4 2 3 2 5 2 4 
2 0 2 -2 3 -6 2 -6 2 -6 2 -3 2 3 2 10 
2 18 3 29 2 32 2 28 2 14 2 8 2 1 2 -9 
3 -12 2 -4 2 15 2 29 2 44 2 51 2 43 3 28 
2 9 2 -5 2 -10 2 -15 2 -13 2 -7 3 -5 2 -2 
2 5 2 6 2 0 2 -1 2 5 3 10 2 13 2 5 
2 -5 2 12 2 13 2 3 3 -1 2 -11 2 -11 2 -18 
2 -58 2 -60 2 -57 3 -20 2 -5 2 -2 2 7 2 18 
2 31 2 18 3 4 2 -13 2 -32 2 -45 2 -55 2 -60 
2 -62 3 -32 2 -16 2 -9 2 -2 2 2 2 5 2 5 
3 8 2 11 2 7 2 2 2 2 2 -2 2 -3 3 8 
2 20 2 39 2 39 2 25 2 6 2 -7 3 1 2 13 
2 39 2 48 2 22 2 -12 2 -33 3 -18 2 6 2 30 
2 31 2 6 2 -23 2 -35 3 -15 2 11 2 35 2 24 
2 3 2 -23 2 -35 3 -10 2 18 2 38 2 21 2 -6 
2 -36 2 -37 3 -19 2 12 2 37 2 13 2 -8 2 -27 
2 -38 3 -22 2 -2 2 21 2 35 2 24 2 7 2 -18 
3 -26 2 4 2 28 2 33 2 14 2 -3 2 -11 3 -5 
2 10 2 18 2 6 2 -17 2 -30 2 -20 3 -3 2 13 
2 14 2 -2 2 -19 1130 2501 300 MP stroke
2 -33 2 -22 3 4 2 26 2 24 2 7 2 -13 2 -18 
2 -1 3 15 2 25 2 20 2 2 2 -17 2 -18 2 -6 
3 9 2 15 2 6 2 -11 2 -22 2 -21 2 -1 3 22 
2 24 2 6 2 -15 2 -20 2 -3 2 15 3 24 2 13 
2 -7 2 -17 2 -11 2 4 2 17 3 13 2 -6 2 -21 
2 -22 2 -7 2 10 2 21 3 13 2 1 2 -17 2 -24 
2 -13 2 6 2 24 3 21 2 3 2 -18 2 -22 2 -8 
2 14 2 21 3 9 2 -9 2 -17 2 -9 2 6 2 18 
2 13 3 -3 2 -14 2 -11 2 -2 2 6 2 9 2 5 
3 -1 2 -7 2 -11 2 -5 2 3 2 8 2 5 3 -1 
2 -6 2 -6 2 -1 2 4 2 5 2 1 3 -3 2 -3 
2 0 2 4 2 6 2 2 2 -1 3 -3 2 -2 2 2 
2 4 2 2 2 0 2 -3 3 -2 2 -2 2 1 2 0 
2 -1 2 -1 2 0 -105 -1 11 0 11 0 11 0 10 0 
11 0 11 0 10 0 11 0 11 0 909 2502 118 MP stroke
DA
0 sg
3 0 2 0 2 0 2 0 2 0 2 0 2 0 3 1 
2 0 2 0 2 0 2 0 2 0 2 0 3 0 2 0 
2 0 2 -1 2 0 2 0 2 0 3 0 2 0 2 0 
2 0 2 0 2 1 2 0 3 0 2 0 2 0 2 0 
2 0 2 0 2 0 3 0 2 -1 2 0 2 0 2 0 
2 0 2 0 3 0 2 0 2 0 2 1 2 0 2 0 
2 0 3 0 2 0 2 0 2 0 2 0 2 0 2 -1 
3 0 2 0 2 0 2 0 2 0 2 0 2 0 3 0 
2 1 2 0 2 0 2 0 2 0 2 0 3 0 2 0 
2 0 2 0 2 -1 2 0 2 0 3 0 2 0 2 0 
2 0 2 0 2 0 2 1 3 0 2 0 2 0 2 0 
2 0 2 0 2 0 3 0 2 0 2 -1 2 0 2 0 
2 0 2 0 3 0 2 0 2 0 2 0 2 1 2 0 
2 0 3 0 2 0 2 0 2 0 2 0 2 0 2 0 
3 -1 2 0 2 0 2 0 2 0 2 0 2 0 3 0 
2 0 2 1 2 0 2 0 2 0 2 0 3 0 2 0 
2 0 2 0 2 0 2 -1 2 0 3 0 2 0 2 0 
2 0 2 0 2 0 2 0 3 1 2 0 2 0 2 0 
2 0 2 0 2 0 3 0 2 0 2 -1 2 0 2 0 
2 0 2 0 3 0 2 0 2 0 2 0 2 0 2 1 
2 0 3 0 2 0 2 0 2 0 2 0 2 0 2 0 
3 -1 2 0 2 0 2 0 2 0 2 0 2 0 3 0 
2 0 2 0 2 1 2 0 2 0 2 0 3 0 2 0 
2 0 2 0 2 0 2 -1 2 0 3 0 2 0 2 0 
2 0 2 0 2 0 2 0 3 0 2 1 2 0 2 0 
2 0 2 0 2 0 3 0 2 0 2 0 2 -1 2 0 
2 0 2 0 3 0 2 0 2 0 2 0 2 0 2 0 
2 1 3 0 2 0 2 0 2 0 2 0 2 0 2 0 
3 0 2 -1 2 0 2 0 2 0 2 0 2 0 3 0 
2 0 2 0 2 0 2 1 2 0 2 0 3 0 2 0 
2 0 2 0 2 0 2 0 2 -1 3 0 2 0 2 0 
2 0 2 0 2 0 2 0 3 0 2 0 2 1 2 0 
2 0 2 0 2 0 3 0 2 0 2 0 2 0 2 -1 
2 0 2 0 3 0 2 0 2 0 2 0 2 0 2 0 
2 0 3 1 2 0 2 0 2 0 2 0 2 0 2 0 
3 0 2 0 2 -1 2 0 2 0 2 0 2 0 3 0 
2 0 2 0 2 0 2 0 2 1 2 0 3 0 2 0 
2 0 2 0 2 0 5614 2501 300 MP stroke
2 0 2 0 3 -1 2 0 2 0 2 0 2 0 2 0 
2 0 3 0 2 0 2 0 2 1 2 0 2 0 2 0 
2 0 3 0 2 0 2 0 2 0 2 -1 2 0 2 0 
3 0 2 0 2 0 2 0 2 0 2 0 2 0 3 1 
2 0 2 0 2 0 2 0 2 0 2 0 3 0 2 0 
2 -1 2 0 2 0 2 0 2 0 3 0 2 0 2 0 
2 0 2 0 2 1 2 0 3 0 2 0 2 0 2 0 
2 0 2 0 2 0 3 -1 2 0 2 0 2 0 2 0 
2 0 2 0 3 0 2 0 2 1 2 0 2 0 2 0 
2 0 3 0 2 0 2 0 2 0 2 0 2 -1 2 0 
3 0 2 0 2 0 2 0 2 0 2 0 2 0 3 1 
2 0 2 0 2 0 2 0 2 0 2 0 3 0 2 0 
2 0 2 -1 2 0 2 0 2 0 3 0 2 0 2 0 
2 0 2 0 2 1 2 0 3 0 2 0 2 0 2 0 
2 0 2 0 2 0 3 0 2 -1 2 0 2 0 2 0 
2 0 2 0 3 0 2 0 2 0 2 1 2 0 2 0 
2 0 3 0 2 0 2 0 2 0 2 0 2 0 2 -1 
3 0 2 0 2 0 2 0 2 0 2 0 2 0 3 0 
2 0 2 1 2 0 2 0 2 0 2 0 3 0 2 0 
2 0 2 0 2 -1 2 0 2 0 3 0 2 0 2 0 
2 0 2 0 2 0 2 0 3 1 2 0 2 0 2 0 
2 0 2 0 2 0 3 0 2 0 2 -1 2 0 2 0 
2 0 2 0 3 0 2 0 2 0 2 0 2 0 2 1 
2 0 3 0 2 0 2 0 2 0 2 0 2 0 2 0 
3 -1 2 0 2 0 2 0 2 0 2 0 2 0 3 0 
2 0 2 0 2 1 2 0 2 0 2 0 3 0 2 0 
2 -1 2 0 2 0 2 0 2 0 3 0 2 0 2 0 
2 0 2 0 2 0 2 0 3 0 2 1 2 0 2 0 
2 0 2 -1 2 0 3 0 2 0 2 0 2 0 2 0 
2 -1 2 1 3 0 2 0 2 0 2 0 2 0 2 0 
2 0 3 0 2 0 2 0 2 0 2 0 2 0 2 0 
3 0 2 0 2 0 2 0 2 1 2 0 2 0 3 0 
2 0 2 1 2 0 2 0 2 -1 2 0 3 0 2 0 
2 0 2 0 2 0 2 0 2 0 3 0 2 0 2 0 
2 0 2 0 2 0 2 0 3 0 2 -1 2 0 2 0 
2 0 2 0 2 0 3 1 2 0 2 0 2 0 2 0 
2 1 2 0 3 -1 2 0 2 -1 2 1 2 0 2 0 
2 -1 3 0 2 0 4973 2502 300 MP stroke
2 1 2 0 2 0 2 0 2 0 3 0 2 1 2 1 
2 0 2 0 2 0 2 0 3 0 2 0 2 1 2 -1 
2 0 2 -1 2 0 3 0 2 0 2 0 2 0 2 0 
2 0 2 0 2 1 3 1 2 0 2 -1 2 0 2 0 
2 0 2 0 3 -1 2 -2 2 -2 2 -1 2 0 2 0 
2 -1 3 -2 2 -1 2 0 2 2 2 1 2 1 2 -1 
3 0 2 0 2 2 2 2 2 0 2 0 2 -1 3 1 
2 2 2 2 2 0 2 0 2 -1 2 0 3 3 2 2 
2 1 2 -1 2 -1 2 -1 2 1 3 1 2 -1 2 -3 
2 -3 2 -3 2 0 2 1 3 0 2 -2 2 -1 2 -1 
2 2 2 4 2 3 3 0 2 -1 2 -2 2 -1 2 1 
2 1 2 -3 3 -4 2 -3 2 -2 2 1 2 2 2 1 
2 0 3 1 2 2 2 5 2 4 2 2 2 0 2 -1 
3 0 2 0 2 -1 2 -2 2 -4 2 -6 2 -4 3 -2 
2 1 2 0 2 0 2 0 2 2 2 6 3 7 2 6 
2 3 2 1 2 0 2 0 2 0 3 -3 2 -6 2 -9 
2 -7 2 -6 2 -2 2 -1 3 -1 2 1 2 3 2 6 
2 8 2 8 2 7 3 5 2 3 2 2 2 0 2 -2 
2 -5 2 -7 3 -8 2 -7 2 -6 2 -6 2 -4 2 -1 
2 1 3 4 2 5 2 6 2 7 2 7 2 6 2 6 
3 4 2 1 2 -1 2 -3 2 -5 2 -7 2 -6 3 -7 
2 -6 2 -4 2 -3 2 -1 2 2 2 5 3 8 2 7 
2 8 2 6 2 5 2 5 2 3 3 -1 2 -5 2 -7 
2 -9 2 -9 2 -9 2 -7 3 -7 2 -5 2 -3 2 2 
2 6 2 9 2 9 3 8 2 8 2 8 2 5 2 4 
2 0 2 -3 3 -6 2 -8 2 -8 2 -6 2 -6 2 -4 
2 -3 3 -1 2 2 2 5 2 7 2 6 2 5 2 4 
3 4 2 3 2 1 2 -1 2 -3 2 -5 2 -5 3 -5 
2 -3 2 -2 2 -2 2 -2 2 -1 2 1 3 3 2 4 
2 3 2 1 2 1 2 0 2 1 3 1 2 -2 2 -2 
2 -3 2 -2 2 -1 2 0 3 0 2 0 2 0 2 1 
2 3 2 3 2 2 3 1 2 2 2 1 2 1 2 -1 
2 -1 2 -2 3 -2 2 -2 2 -2 2 -3 2 -3 2 -2 
2 -1 3 0 2 1 2 2 2 2 2 4 2 4 2 5 
3 4 2 3 2 3 2 1 2 0 2 -1 2 -4 3 -4 
2 -5 2 -4 2 -5 2 -4 2 -3 2 -2 3 1 2 2 
2 4 2 5 2 6 2 5 2 5 3 5 2 3 2 1 
2 -1 2 -3 2 -5 4333 2488 300 MP stroke
2 -6 3 -6 2 -7 2 -5 2 -5 2 -3 2 -1 2 1 
3 3 2 5 2 6 2 7 2 7 2 6 2 5 3 4 
2 2 2 -1 2 -3 2 -5 2 -7 2 -8 3 -8 2 -7 
2 -7 2 -5 2 -3 2 -1 2 1 3 3 2 5 2 7 
2 8 2 8 2 7 2 6 3 4 2 3 2 2 2 -1 
2 -4 2 -5 2 -7 2 -7 3 -6 2 -4 2 -4 2 -3 
2 -1 2 0 2 3 3 4 2 5 2 4 2 3 2 3 
2 2 2 1 3 0 2 -2 2 -3 2 -3 2 -4 2 -3 
2 -4 3 -4 2 -1 2 0 2 3 2 4 2 4 2 4 
3 4 2 6 2 7 2 4 2 1 2 -2 2 -3 3 -3 
2 -4 2 -4 2 -6 2 -7 2 -5 2 -2 3 0 2 1 
2 1 2 1 2 2 2 3 2 5 3 3 2 1 2 -2 
2 -1 2 -1 2 1 2 0 3 -3 2 -4 2 -3 2 0 
2 2 2 2 2 1 3 0 2 1 2 2 2 3 2 3 
2 1 2 0 3 -1 2 0 2 1 2 1 2 0 2 0 
2 0 3 1 2 2 2 2 2 0 2 -2 2 -3 2 -2 
3 -3 2 -2 2 -4 2 -4 2 -4 2 -1 2 1 3 3 
2 4 2 4 2 5 2 5 2 5 2 5 3 2 2 -2 
2 -4 2 -5 2 -6 2 -6 2 -6 3 -7 2 -5 2 -3 
2 -1 2 3 2 5 2 6 3 7 2 7 2 8 2 7 
2 5 2 4 2 1 3 -1 2 -4 2 -5 2 -7 2 -7 
2 -7 2 -7 3 -7 2 -6 2 -3 2 1 2 3 2 5 
2 5 3 5 2 5 2 6 2 6 2 4 2 0 2 -3 
3 -4 2 -5 2 -4 2 -4 2 -3 2 -4 2 -1 3 1 
2 5 2 7 2 8 2 7 2 6 2 6 3 5 2 3 
2 0 2 -5 2 -7 2 -9 2 -10 3 -8 2 -9 2 -7 
2 -7 2 -4 2 -1 2 4 3 6 2 8 2 8 2 7 
2 7 2 6 2 6 3 4 2 1 2 -2 2 -6 2 -6 
2 -6 2 -5 3 -4 2 -6 2 -5 2 -3 2 1 2 3 
2 6 3 5 2 4 2 3 2 4 2 5 2 4 2 1 
3 -2 2 -5 2 -5 2 -3 2 -1 2 -1 2 -3 3 -3 
2 -2 2 1 2 4 2 5 2 4 2 3 3 1 2 1 
2 3 2 3 2 1 2 -1 2 -4 3 -6 2 -5 2 -5 
2 -3 2 -4 2 -5 2 -6 3 -4 2 0 2 3 2 4 
2 3 2 3 2 4 3 7 2 8 2 6 2 4 2 1 
2 -1 2 -1 3 -1 2 -2 2 -5 2 -8 2 -9 2 -6 
2 -4 3 -2 2 -2 2 -3 2 -1 2 2 2 6 2 9 
3 8 2 5 2 4 3692 2495 300 MP stroke
2 4 2 5 2 5 2 2 3 -3 2 -5 2 -5 2 -3 
2 -3 2 -4 2 -5 3 -4 2 -3 2 1 2 3 2 4 
2 4 2 3 3 3 2 4 2 4 2 3 2 -1 2 -2 
2 -3 3 -2 2 -1 2 -3 2 -4 2 -5 2 -4 2 -2 
3 -1 2 -1 2 -3 2 -1 2 2 2 6 2 7 3 7 
2 5 2 3 2 3 2 4 2 4 2 0 3 -5 2 -8 
2 -10 2 -7 2 -5 2 -5 2 -6 2 -8 3 -5 2 0 
2 6 2 9 2 8 2 6 2 5 3 6 2 8 2 9 
2 6 2 0 2 -5 2 -7 3 -6 2 -3 2 -2 2 -5 
2 -8 2 -9 2 -3 3 3 2 5 2 4 2 0 2 0 
2 4 2 7 3 6 2 0 2 -6 2 -7 2 -3 2 0 
2 2 3 -2 2 -6 2 -4 2 2 2 10 2 14 2 10 
3 2 2 -1 2 -1 2 4 2 5 2 -1 2 -8 3 -11 
2 -9 2 -5 2 -4 2 -2 2 -3 2 -1 3 2 2 4 
2 4 2 5 2 3 2 4 2 2 3 2 2 0 2 -3 
2 -4 2 -4 2 -2 2 -1 3 -1 2 -1 2 -1 2 2 
2 6 2 6 2 5 3 0 2 -1 2 -1 2 1 2 0 
2 -2 2 -6 3 -6 2 -2 2 2 2 4 2 3 2 0 
2 -1 3 -1 2 1 2 0 2 -3 2 -6 2 -8 2 -5 
3 -2 2 3 2 5 2 5 2 5 2 6 2 6 3 8 
2 7 2 4 2 -2 2 -5 2 -8 2 -6 3 -3 2 -3 
2 -4 2 -6 2 -6 2 -1 2 4 3 6 2 5 2 1 
2 -1 2 0 2 4 2 4 3 1 2 -4 2 -7 2 -6 
2 -2 2 1 2 0 3 -2 2 -5 2 -2 2 4 2 9 
2 9 2 4 3 0 2 -1 2 2 2 4 2 3 2 -2 
2 -7 3 -8 2 -6 2 -2 2 0 2 -3 2 -5 2 -4 
3 1 2 4 2 6 2 5 2 2 2 3 2 4 3 6 
2 5 2 2 2 -2 2 -5 2 -4 2 -2 3 -2 2 -2 
2 -4 2 -3 2 -1 2 2 2 3 3 3 2 3 2 1 
2 1 2 0 2 0 2 -1 3 -3 2 -3 2 -4 2 -4 
2 -3 2 -1 2 0 3 1 2 1 2 2 2 2 2 4 
2 5 2 4 3 4 2 2 2 1 2 2 2 2 2 0 
2 -2 3 -5 2 -6 2 -4 2 -3 2 -3 2 -5 2 -5 
3 -4 2 1 2 3 2 4 2 2 2 0 2 0 3 3 
2 6 2 4 2 1 2 -3 2 -4 2 -3 3 0 2 0 
2 -3 2 -5 2 -6 2 -2 2 4 3 8 2 11 2 9 
2 8 2 9 2 11 2 11 3 9 2 3 2 -5 2 -11 
2 -12 2 -11 2 -11 3052 2492 300 MP stroke
3 -12 2 -13 2 -13 2 -7 2 1 2 6 2 9 3 8 
2 7 2 7 2 8 2 7 2 2 2 -5 3 -10 2 -11 
2 -8 2 -5 2 -5 2 -6 2 -5 3 0 2 6 2 11 
2 13 2 12 2 8 2 7 3 7 2 9 2 5 2 -3 
2 -10 2 -14 2 -13 3 -9 2 -10 2 -12 2 -15 2 -12 
2 -5 2 5 3 12 2 12 2 11 2 10 2 14 2 20 
2 20 3 13 2 2 2 -6 2 -8 2 -5 2 -7 2 -11 
3 -18 2 -19 2 -13 2 -1 2 7 2 8 2 4 3 4 
2 8 2 16 2 17 2 11 2 -3 2 -12 2 -15 3 -10 
2 -7 2 -8 2 -14 2 -17 2 -13 2 -2 3 8 2 13 
2 12 2 9 2 8 2 11 2 15 3 14 2 7 2 -1 
2 -8 2 -8 2 -9 2 -10 3 -14 2 -17 2 -15 2 -9 
2 -1 2 5 2 8 3 11 2 14 2 19 2 20 2 17 
2 9 2 3 3 -3 2 -6 2 -10 2 -17 2 -22 2 -23 
2 -20 3 -12 2 -5 2 1 2 3 2 6 2 12 2 19 
3 23 2 21 2 14 2 6 2 1 2 0 2 -2 3 -4 
2 -9 2 -14 2 -15 2 -11 2 -5 2 0 3 1 2 -1 
2 -2 2 2 2 7 2 10 2 7 3 2 2 -3 2 -2 
2 2 2 4 2 2 2 -4 3 -7 2 -5 2 3 2 6 
2 6 2 0 2 -4 3 -3 2 1 2 3 2 0 2 -7 
2 -15 2 -14 3 -8 2 -1 2 1 2 0 2 -1 2 3 
2 14 3 25 2 26 2 20 2 11 2 5 2 6 2 5 
3 -1 2 -13 2 -25 2 -29 2 -24 2 -16 2 -12 3 -15 
2 -16 2 -10 2 2 2 16 2 23 2 20 3 16 2 16 
2 20 2 22 2 17 2 4 2 -10 3 -19 2 -19 2 -15 
2 -14 2 -19 2 -22 2 -19 3 -4 2 11 2 21 2 20 
2 14 2 12 2 15 3 18 2 16 2 5 2 -10 2 -19 
2 -21 2 -14 3 -11 2 -14 2 -17 2 -13 2 -1 2 14 
2 22 3 20 2 16 2 12 2 15 2 18 2 14 2 4 
3 -11 2 -21 2 -23 2 -18 2 -15 2 -16 2 -19 3 -19 
2 -11 2 1 2 11 2 14 2 13 2 11 3 14 2 17 
2 18 2 13 2 7 2 0 2 -2 3 -1 2 0 2 -2 
2 -7 2 -14 2 -16 2 -12 3 -8 2 -6 2 -8 2 -12 
2 -9 2 -1 2 8 3 14 2 13 2 10 2 8 2 11 
2 14 2 12 3 4 2 -8 2 -16 2 -16 2 -12 2 -11 
2 -13 3 -14 2 -13 2 -3 2 10 2 21 2 24 2 22 
3 18 2 17 2 17 2 13 2 5 2 -6 2 -19 3 -24 
2 -23 2 -21 2 -18 2411 2530 300 MP stroke
2 -17 2 -16 2 -8 3 1 2 9 2 10 2 10 2 9 
2 13 2 16 3 17 2 11 2 3 2 -3 2 0 2 6 
2 8 3 2 2 -8 2 -11 2 -5 2 5 2 10 2 6 
3 -3 2 -11 2 -11 2 -4 2 1 2 0 2 -8 3 -16 
2 -15 2 -6 2 5 2 10 2 6 2 0 3 1 2 7 
2 12 2 11 2 1 2 -8 2 -12 3 -9 2 -3 2 -2 
2 -8 2 -15 2 -17 2 -7 3 4 2 11 2 7 2 -1 
2 0 2 10 2 22 3 26 2 16 2 3 2 -4 2 -3 
2 0 2 -1 3 -10 2 -21 2 -27 2 -23 2 -10 2 5 
2 12 3 11 2 7 2 11 2 21 2 31 2 29 2 18 
2 2 3 -7 2 -7 2 -2 2 -6 2 -17 2 -30 2 -37 
3 -34 2 -26 2 -17 2 -13 2 -12 2 -10 2 3 3 23 
2 41 2 49 2 45 2 38 2 33 2 33 3 28 2 15 
2 -6 2 -27 2 -38 2 -39 2 -33 3 -30 2 -32 2 -33 
2 -25 2 -6 2 12 2 24 3 26 2 23 2 23 2 25 
2 27 2 21 2 7 3 -9 2 -21 2 -27 2 -27 2 -28 
2 -30 2 -31 3 -25 2 -11 2 5 2 17 2 22 2 25 
2 27 3 27 2 24 2 17 2 5 2 -4 2 -8 2 -7 
3 -7 2 -10 2 -15 2 -17 2 -13 2 -7 2 -6 3 -8 
2 -10 2 -9 2 -1 2 11 2 21 2 30 3 38 2 45 
2 43 2 36 2 19 2 0 2 -21 3 -36 2 -51 2 -62 
2 -71 2 -72 2 -61 2 -37 3 -5 2 26 2 48 2 64 
2 78 2 88 2 92 3 81 2 57 2 21 2 -15 2 -45 
2 -70 2 -92 3 -110 2 -114 2 -101 2 -72 2 -33 2 6 
2 41 3 71 2 99 2 120 2 125 2 109 2 78 2 36 
3 -4 2 -40 2 -72 2 -99 2 -119 2 -129 2 -124 3 -101 
2 -61 2 -17 2 21 2 53 2 77 2 101 3 124 2 137 
2 125 2 90 2 45 2 7 2 -22 3 -48 2 -76 2 -101 
2 -119 2 -119 2 -100 2 -71 3 -38 2 -7 2 25 2 54 
2 80 2 102 2 117 3 120 2 103 2 72 2 33 2 -2 
2 -30 2 -57 3 -92 2 -125 2 -145 2 -133 2 -97 2 -53 
2 -19 3 7 2 34 2 73 2 115 2 142 2 139 2 111 
3 68 2 33 2 9 2 -11 2 -40 2 -77 2 -111 3 -120 
2 -96 2 -53 2 -16 2 6 2 19 2 39 3 67 2 91 
2 94 2 70 2 30 2 -9 2 -33 3 -46 2 -58 2 -75 
2 -87 2 -79 2 -49 2 -9 3 27 2 51 2 68 2 74 
2 79 2 83 2 78 3 56 2 11 2 -41 2 -81 2 -99 
2 -106 2 -115 3 -124 1770 2750 300 MP stroke
2 -127 2 -110 2 -72 2 -16 2 37 2 71 3 89 2 103 
2 124 2 139 2 134 2 106 2 67 3 40 2 28 2 17 
2 -7 2 -46 2 -82 2 -101 3 -104 2 -104 2 -103 2 -103 
2 -100 2 -84 2 -47 3 6 2 60 2 101 2 128 2 145 
2 158 2 158 3 135 2 90 2 34 2 -12 2 -52 2 -90 
2 -129 3 -158 2 -165 2 -149 2 -108 2 -52 2 5 2 50 
3 85 2 122 2 157 2 183 2 184 2 156 2 106 3 45 
2 -13 2 -66 2 -116 2 -164 2 -206 2 -229 3 -221 2 -175 
2 -102 2 -24 2 38 2 86 2 131 3 173 2 206 2 212 
2 184 2 119 2 35 2 -42 3 -91 2 -115 2 -134 2 -160 
2 -181 2 -181 2 -145 3 -78 2 -5 2 52 2 85 2 109 
2 140 2 180 3 209 2 204 2 154 2 84 2 15 2 -40 
2 -87 2 -141 3 -200 2 -248 2 -264 2 -238 2 -177 2 -100 
2 -24 3 43 2 114 2 193 2 273 2 316 2 305 2 247 
3 172 2 99 2 28 2 -50 2 -146 2 -250 2 -330 3 -353 
2 -315 2 -245 2 -176 2 -107 2 -21 2 94 3 218 2 314 
2 351 2 338 2 302 2 255 2 186 3 92 2 -28 2 -158 
2 -274 2 -341 2 -348 2 -325 3 -300 2 -272 2 -205 2 -82 
2 78 2 227 2 318 3 351 2 356 2 358 2 348 2 289 
2 153 2 -33 3 -208 2 -325 2 -382 2 -407 2 -423 2 -422 
2 -367 3 -230 2 -26 2 187 2 346 2 428 2 465 2 498 
3 518 2 472 2 325 2 99 2 -126 2 -296 2 -406 3 -488 
2 -562 2 -599 2 -539 2 -370 2 -141 2 76 3 243 2 365 
2 466 2 550 2 595 2 573 2 468 3 286 2 63 2 -139 
2 -270 2 -341 2 -397 2 -452 3 -483 2 -454 2 -349 2 -172 
2 30 2 178 2 235 3 241 2 262 2 313 2 332 2 262 
2 135 2 32 3 -35 2 -93 2 -138 2 -154 2 -146 2 -131 
2 -122 3 -112 2 -93 2 -66 2 -39 2 -23 2 -17 2 -16 
3 -20 2 -28 2 -29 2 -17 2 7 2 25 2 29 3 25 
2 27 2 39 2 55 2 61 2 49 2 26 3 8 2 4 
2 10 2 16 2 11 2 -2 2 -11 3 -8 2 8 2 20 
2 23 2 15 2 4 2 -2 3 6 2 13 2 9 2 -2 
2 -12 2 -14 2 -9 3 1 2 3 2 -6 2 -18 2 -22 
2 -14 2 0 3 9 2 2 2 -14 2 -21 2 2 2 32 
2 40 3 22 2 -7 2 -20 2 -4 2 26 2 32 2 6 
3 -29 2 -42 2 -30 2 -6 2 13 2 11 2 -10 3 -24 
2 -8 2 19 2 32 2 27 2 20 2 18 3 11 2 -1 
2 -3 2 0 2 -4 1130 2437 300 MP stroke
2 -21 2 -34 3 -28 2 -17 2 -10 2 -11 2 -5 2 4 
2 8 3 6 2 8 2 18 2 25 2 23 2 13 2 1 
3 -7 2 -6 2 1 2 5 2 -5 2 -22 2 -25 3 -11 
2 5 2 7 2 4 2 0 2 1 2 4 3 7 2 10 
2 7 2 5 2 0 2 -3 2 -5 3 -2 2 1 2 1 
2 -2 2 -5 2 -10 2 -8 3 1 2 10 2 8 2 -3 
2 -12 2 -9 2 4 3 14 2 12 2 -3 2 -16 2 -15 
2 0 2 13 3 12 2 3 2 -5 2 -6 2 -1 2 7 
2 9 3 1 2 -4 2 -5 2 -5 2 -5 2 -3 2 1 
3 4 2 1 2 -3 2 -6 2 1 2 6 2 9 3 5 
2 -1 2 -7 2 -5 2 -1 2 3 2 2 3 -3 2 -6 
2 -4 2 1 2 4 2 5 2 3 3 0 2 -1 2 2 
2 4 2 2 2 0 2 -2 3 -3 2 -1 2 -1 2 0 
2 0 2 -1 2 -1 -105 -1 11 0 11 0 11 0 10 0 
11 0 11 0 10 0 11 0 11 0 909 2502 118 MP stroke
gr

DA
2873  156 mt 
(Total base shear response) s
3016  294 mt 
(force-based element) s
3356 4903 mt 
(Time \(s\)) s
 646 3930 mt  -90 rotate
(Total base shear \(normalized by total gravtity load 3P\)) s
90 rotate
 882 4658 mt 
( ) s
6239  431 mt 
( ) s
SO
1 sg
0 334 1172 0 0 -334 5023 4556 4 MP
PP
-1172 0 0 334 1172 0 0 -334 5023 4556 5 MP stroke
4 w
DO
SO
6 w
0 sg
5023 4556 mt 6195 4556 L
5023 4222 mt 6195 4222 L
5023 4556 mt 5023 4222 L
6195 4556 mt 6195 4222 L
5023 4556 mt 6195 4556 L
5023 4556 mt 5023 4222 L
5023 4556 mt 6195 4556 L
5023 4222 mt 6195 4222 L
5023 4556 mt 5023 4222 L
6195 4556 mt 6195 4222 L
5482 4357 mt 
(nonlinear) s
gs 5023 4222 1173 335 rc
c8
353 0 5093 4315 2 MP stroke
gr

c8
0 sg
5482 4506 mt 
(linear elastic) s
gs 5023 4222 1173 335 rc
DA
353 0 5093 4462 2 MP stroke
SO
gr


end %%Color Dict

eplot
%%EndObject

epage
end

showpage

%%Trailer
%%EOF
