0 1.35456 0.687621 -1.10382
0 1.35456 0.687621 -1.10382
0 1.35456 0.687621 -1.10382
0 1.35456 0.687621 -1.10382
0 1.35456 0.687621 -1.10382
0 1.35456 0.687621 -1.10382
0 1.35456 0.687621 -1.10382
0 1.35456 0.687621 -1.10382
0 1.35456 0.687621 -1.10382
0 1.35456 0.687621 -1.10382
