-0.0010878800000
-0.0010722500000
-0.0010684400000
-0.0010556400000
-0.0010516300000
-0.0010339300000
-0.0010211200000
-0.0009981380000
-0.0009953920000
-0.0009957550000
-0.0010149100000
-0.0010321800000
-0.0010677900000
-0.0010913800000
-0.0011166200000
-0.0011331900000
-0.0011643400000
-0.0011920800000
-0.0012296600000
-0.0012268300000
-0.0011746300000
-0.0010749700000
-0.0009748780000
-0.0009847930000
-0.0011624800000
-0.0014022300000
-0.0016621600000
-0.0019205200000
-0.0020490200000
-0.0019719100000
-0.0018243900000
-0.0016710400000
-0.0015257000000
-0.0013542500000
-0.0012086900000
-0.0010867800000
-0.0009710320000
-0.0008624760000
-0.0009728880000
-0.0013226700000
-0.0017492000000
-0.0021593500000
-0.0025202900000
-0.0026812700000
-0.0026393100000
-0.0025565600000
-0.0024922700000
-0.0024225000000
-0.0023017500000
-0.0021151000000
-0.0016381100000
-0.0015944800000
-0.0023778000000
-0.0029145700000
-0.0023851200000
-0.0017927600000
-0.0018900400000
-0.0022934700000
-0.0021833100000
-0.0014770800000
-0.0008283810000
-0.0015754500000
-0.0025031200000
-0.0006758300000
0.0034741400000
0.0046537300000
0.0007626240000
-0.0056128800000
-0.0094162800000
-0.0078646100000
-0.0035985400000
-0.0007503410000
-0.0018160400000
-0.0040138900000
-0.0043955100000
-0.0039580100000
-0.0041316800000
-0.0053799400000
-0.0049388800000
0.0007356140000
0.0096014100000
-0.0008043220000
-0.0157938000000
-0.0116858000000
0.0034047400000
0.0104031000000
-0.0011261000000
-0.0187444000000
-0.0169816000000
0.0051689100000
0.0146247000000
0.0028006000000
-0.0099579400000
-0.0044187500000
0.0131492000000
0.0128377000000
-0.0099637900000
-0.0202197000000
-0.0039966400000
0.0125617000000
0.0042518100000
-0.0202430000000
-0.0393915000000
-0.0249612000000
0.0164610000000
0.0311748000000
0.0047378800000
-0.0166725000000
-0.0084367100000
0.0120084000000
0.0169756000000
0.0047399400000
-0.0092358800000
-0.0114552000000
0.0013068900000
0.0094031700000
-0.0010183400000
-0.0093068900000
-0.0044882800000
-0.0007068490000
-0.0053265300000
-0.0100604000000
-0.0098394000000
-0.0025058000000
0.0121760000000
0.0158218000000
-0.0067945400000
-0.0231339000000
-0.0097747300000
0.0171909000000
0.0228094000000
0.0020095000000
-0.0228712000000
-0.0245134000000
-0.0044367100000
0.0113853000000
0.0080477600000
-0.0062753500000
-0.0103559000000
0.0008787700000
0.0072490100000
-0.0010157100000
-0.0056975100000
0.0027608000000
0.0127386000000
0.0154624000000
0.0079624300000
-0.0066212600000
-0.0206794000000
-0.0154151000000
0.0007484310000
-0.0035617700000
-0.0160706000000
-0.0151829000000
-0.0042916100000
0.0057638600000
0.0119935000000
0.0140873000000
0.0070560600000
0.0017960100000
0.0074728800000
0.0143234000000
0.0089117200000
-0.0051248900000
-0.0047149400000
0.0124512000000
0.0208059000000
0.0117602000000
-0.0017076700000
-0.0138374000000
-0.0066010200000
0.0132096000000
0.0093602300000
-0.0030254900000
0.0115873000000
0.0367463000000
0.0368854000000
0.0140696000000
-0.0089461100000
-0.0081764300000
0.0136680000000
0.0172704000000
-0.0043079300000
-0.0126723000000
-0.0028441500000
0.0045978700000
0.0044056700000
0.0022526600000
0.0026574600000
0.0033543100000
0.0027813800000
0.0049220700000
0.0094063000000
0.0079708300000
0.0065297700000
0.0124042000000
0.0157601000000
0.0052155600000
-0.0016951900000
0.0003090880000
-0.0029107100000
0.0001722540000
0.0068112200000
0.0115427000000
0.0177222000000
0.0181734000000
0.0106754000000
0.0005555390000
-0.0018738400000
0.0051769600000
0.0149648000000
0.0205070000000
0.0146073000000
0.0003749670000
-0.0028184000000
0.0062043500000
0.0072166200000
0.0002293700000
-0.0016637800000
-0.0019334900000
-0.0062968000000
-0.0031124200000
0.0074154800000
0.0109301000000
0.0046010900000
-0.0039961800000
-0.0061255200000
-0.0032366000000
-0.0001984950000
0.0009593720000
0.0017700800000
0.0028347000000
0.0032892200000
0.0010142200000
-0.0013428200000
0.0040821300000
0.0169022000000
0.0154300000000
0.0020167900000
-0.0074530000000
-0.0087458800000
-0.0056489700000
-0.0027814600000
-0.0002920320000
0.0039304800000
0.0075491800000
0.0086061100000
0.0085789800000
0.0089472400000
0.0096367700000
0.0069886600000
-0.0000567759000
-0.0070737700000
-0.0090132500000
-0.0060288700000
-0.0006682170000
0.0066573400000
0.0136133000000
0.0127271000000
0.0038604100000
0.0126775000000
0.0125566000000
0.0005718790000
-0.0008496540000
-0.0092149000000
-0.0210441000000
-0.0135217000000
0.0116938000000
0.0296018000000
0.0095017500000
-0.0133823000000
-0.0058367300000
0.0120017000000
0.0226453000000
0.0177471000000
-0.0014479100000
-0.0144132000000
-0.0023758200000
0.0069931300000
-0.0061846200000
-0.0192087000000
-0.0066389600000
0.0215706000000
0.0470979000000
0.0405660000000
0.0153111000000
0.0102118000000
0.0203139000000
0.0027406500000
-0.0193684000000
-0.0141296000000
-0.0000987710000
-0.0059425400000
-0.0308921000000
-0.0459896000000
-0.0305199000000
0.0028545300000
0.0072814400000
-0.0241246000000
-0.0614005000000
-0.0897565000000
-0.1000160000000
-0.0856098000000
-0.0665092000000
-0.0678987000000
-0.0654819000000
-0.0705467000000
-0.1027030000000
-0.1170480000000
-0.0752963000000
-0.0164847000000
0.0149916000000
0.0217041000000
0.0099706400000
-0.0102390000000
-0.0042479000000
0.0229476000000
0.0254686000000
0.0179845000000
0.0019482400000
-0.0175974000000
-0.0221772000000
-0.0339400000000
-0.0297408000000
0.0117532000000
0.0681925000000
0.0988843000000
0.0982508000000
0.0771292000000
0.0537730000000
0.0428352000000
0.0128811000000
-0.0386379000000
-0.0450096000000
0.0058200500000
0.0277435000000
0.0060699500000
-0.0179860000000
-0.0361742000000
-0.0126677000000
0.0574976000000
0.1256510000000
0.1710130000000
0.1775980000000
0.1159470000000
0.0101630000000
-0.0128132000000
0.0669758000000
0.1101380000000
0.0613160000000
-0.0173557000000
-0.0776147000000
-0.1204210000000
-0.1079960000000
-0.0240015000000
0.0378657000000
0.0290642000000
-0.0141789000000
-0.0513107000000
-0.0551126000000
-0.0198815000000
0.0185180000000
0.0345383000000
0.0233052000000
-0.0019736000000
-0.0118437000000
0.0165044000000
0.0702762000000
0.1236670000000
0.1598750000000
0.1495040000000
0.0997109000000
0.0478071000000
0.0445528000000
0.0983925000000
0.1520870000000
0.1765600000000
0.1489820000000
0.0881287000000
0.0388245000000
0.0174766000000
0.0122421000000
-0.0136528000000
-0.0661480000000
-0.1069200000000
-0.1149420000000
-0.0973480000000
-0.0933849000000
-0.1138330000000
-0.1089120000000
-0.0475052000000
-0.0093227700000
-0.0365294000000
-0.0767234000000
-0.0898620000000
-0.0918764000000
-0.1090820000000
-0.1248940000000
-0.1343990000000
-0.1518230000000
-0.1694200000000
-0.1463700000000
-0.0821846000000
-0.0115486000000
0.0484195000000
0.0767282000000
0.0527561000000
-0.0044307900000
-0.0601749000000
-0.0744743000000
-0.0218957000000
0.0265300000000
0.0381054000000
0.0629145000000
0.1186440000000
0.1750120000000
0.2077280000000
0.2272010000000
0.2438350000000
0.2306500000000
0.1806940000000
0.1113330000000
0.0389046000000
0.0127573000000
0.0387851000000
0.0507509000000
0.0234567000000
0.0035670100000
0.0206408000000
0.0539966000000
0.0506847000000
0.0025480600000
-0.0237537000000
-0.0044325000000
0.0247382000000
0.0132836000000
-0.0447613000000
-0.0949064000000
-0.0570694000000
0.0482017000000
0.0883719000000
0.0522346000000
0.0218174000000
0.0096302400000
-0.0147651000000
-0.0337626000000
-0.0136491000000
0.0052369500000
-0.0117044000000
-0.0422361000000
-0.0618015000000
-0.0401179000000
0.0138112000000
0.0624729000000
0.0675479000000
0.0388414000000
0.0206639000000
0.0320913000000
0.0463099000000
0.0299292000000
-0.0261372000000
-0.0880292000000
-0.1139490000000
-0.1029300000000
-0.0829630000000
-0.0771902000000
-0.0870917000000
-0.0945525000000
-0.0878369000000
-0.0749558000000
-0.0748420000000
-0.0872963000000
-0.1004970000000
-0.0975452000000
-0.0730563000000
-0.0486478000000
-0.0416563000000
-0.0270681000000
0.0148323000000
0.0711436000000
0.1063580000000
0.0949582000000
0.0301768000000
-0.0142922000000
-0.0019970700000
0.0273921000000
0.0463020000000
0.0561855000000
0.0551763000000
0.0331520000000
0.0000930903000
0.0032790800000
0.0585581000000
0.1090660000000
0.1152390000000
0.0766783000000
0.0162103000000
-0.0167149000000
0.0049803900000
0.0527693000000
0.0632331000000
0.0329535000000
0.0028130500000
-0.0005530450000
0.0222318000000
0.0406231000000
0.0240998000000
-0.0207850000000
-0.0645646000000
-0.0817806000000
-0.0796207000000
-0.1251450000000
-0.1913400000000
-0.2108230000000
-0.1938830000000
-0.1831330000000
-0.1894930000000
-0.1977080000000
-0.1984000000000
-0.1952740000000
-0.1931580000000
-0.1901330000000
-0.1804620000000
-0.1656000000000
-0.1560920000000
-0.1584000000000
-0.1601980000000
-0.1451010000000
-0.1217580000000
-0.0996233000000
-0.0783336000000
-0.0689741000000
-0.0485398000000
-0.0007413130000
0.0499944000000
0.0834011000000
0.0962700000000
0.0901061000000
0.0742600000000
0.0579693000000
0.0437864000000
0.0372094000000
0.0451898000000
0.0406089000000
0.0166618000000
0.0129229000000
0.0380233000000
0.0521561000000
0.0353690000000
0.0066912300000
-0.0089589500000
-0.0105363000000
-0.0118443000000
-0.0241394000000
-0.0484104000000
-0.0745223000000
-0.0764201000000
-0.0442240000000
-0.0221839000000
-0.0332206000000
-0.0578483000000
-0.0799949000000
-0.0995882000000
-0.1194870000000
-0.1079940000000
-0.0830816000000
-0.0865710000000
-0.0980592000000
-0.0993615000000
-0.1008140000000
-0.1040170000000
-0.0959612000000
-0.0772340000000
-0.0639201000000
-0.0662992000000
-0.0696252000000
-0.0544743000000
-0.0238360000000
0.0066929800000
0.0236865000000
0.0225788000000
0.0248988000000
0.0405865000000
0.0518612000000
0.0479635000000
0.0394764000000
0.0344981000000
0.0363244000000
0.0517842000000
0.0781119000000
0.0977179000000
0.1032410000000
0.1019300000000
0.1027720000000
0.1109160000000
0.1237210000000
0.1194970000000
0.0853315000000
0.0415658000000
0.0143946000000
0.0034709800000
0.0118635000000
0.0332924000000
0.0284523000000
-0.0039590100000
-0.0070941400000
0.0296553000000
0.0667269000000
0.0723564000000
0.0533566000000
0.0318562000000
0.0565626000000
0.1280770000000
0.1957400000000
0.2189860000000
0.2123850000000
0.2141580000000
0.2240080000000
0.2118040000000
0.1646210000000
0.0984877000000
0.0570000000000
0.0414597000000
0.0185910000000
-0.0093536100000
-0.0095835500000
0.0192436000000
0.0350533000000
0.0153449000000
-0.0006514480000
0.0134187000000
0.0383952000000
0.0567342000000
0.0481445000000
0.0230985000000
0.0133698000000
0.0151087000000
0.0067572200000
-0.0122675000000
-0.0316397000000
-0.0396183000000
-0.0387062000000
-0.0458449000000
-0.0667339000000
-0.0837523000000
-0.0922322000000
-0.1056580000000
-0.1084140000000
-0.0926215000000
-0.0929944000000
-0.0961805000000
-0.0673473000000
-0.0161340000000
0.0316816000000
0.0687202000000
0.0912377000000
0.1075030000000
0.1279960000000
0.1327280000000
0.1138880000000
0.0913636000000
0.0801610000000
0.0682029000000
0.0464629000000
0.0225676000000
0.0049655900000
-0.0008391420000
0.0001702280000
-0.0101308000000
-0.0335812000000
-0.0592118000000
-0.0814877000000
-0.1006700000000
-0.0925282000000
-0.0503600000000
0.0021598800000
0.0497923000000
0.0928508000000
0.1287670000000
0.1520020000000
0.1663380000000
0.1697680000000
0.1500420000000
0.1221860000000
0.1077940000000
0.1038580000000
0.1035440000000
0.1045600000000
0.1085290000000
0.1154730000000
0.1224760000000
0.1279180000000
0.1204460000000
0.0979914000000
0.0756093000000
0.0589792000000
0.0446967000000
0.0364097000000
0.0321695000000
0.0154178000000
-0.0105711000000
-0.0234354000000
-0.0208108000000
-0.0222939000000
-0.0460858000000
-0.0861145000000
-0.1207440000000
-0.1399720000000
-0.1470840000000
-0.1505860000000
-0.1482270000000
-0.1396100000000
-0.1286270000000
-0.1144800000000
-0.0925080000000
-0.0649840000000
-0.0381261000000
-0.0292734000000
-0.0432508000000
-0.0636528000000
-0.0544955000000
-0.0093432400000
0.0441853000000
0.0850753000000
0.1016900000000
0.1033080000000
0.1039920000000
0.1071810000000
0.1097640000000
0.1118790000000
0.1141540000000
0.1163620000000
0.1030520000000
0.0501944000000
-0.0321103000000
-0.1145290000000
-0.1746290000000
-0.1933300000000
-0.1952450000000
-0.2095740000000
-0.2343620000000
-0.2570360000000
-0.2712460000000
-0.2509990000000
-0.1969700000000
-0.1375860000000
-0.0955012000000
-0.0728721000000
-0.0560185000000
-0.0381248000000
-0.0367636000000
-0.0453479000000
-0.0216504000000
0.0353380000000
0.0710850000000
0.0619717000000
0.0369758000000
0.0417339000000
0.0658866000000
0.0823410000000
0.1025640000000
0.1331520000000
0.1563050000000
0.1620270000000
0.1486840000000
0.1178950000000
0.0822922000000
0.0482577000000
0.0205706000000
-0.0010491800000
-0.0105845000000
-0.0140973000000
-0.0219588000000
-0.0332534000000
-0.0287403000000
0.0017151800000
0.0438524000000
0.0804795000000
0.0882933000000
0.0701732000000
0.0497848000000
0.0450297000000
0.0531771000000
0.0445453000000
0.0063647900000
-0.0447343000000
-0.0845598000000
-0.0956399000000
-0.0868675000000
-0.0893905000000
-0.1089920000000
-0.1295030000000
-0.1267120000000
-0.1029740000000
-0.0786566000000
-0.0646003000000
-0.0569867000000
-0.0559517000000
-0.0619652000000
-0.0700339000000
-0.0771199000000
-0.0821108000000
-0.0852595000000
-0.0739082000000
-0.0460973000000
-0.0147743000000
0.0135145000000
0.0393261000000
0.0583340000000
0.0686917000000
0.0808301000000
0.0988117000000
0.1156050000000
0.1245640000000
0.1277480000000
0.1211630000000
0.1035260000000
0.0960335000000
0.1067880000000
0.1229700000000
0.1437750000000
0.1708090000000
0.1967150000000
0.2149400000000
0.2274930000000
0.2091170000000
0.1525250000000
0.0841010000000
0.0212426000000
-0.0368877000000
-0.0960665000000
-0.1563520000000
-0.2094240000000
-0.2351970000000
-0.2422070000000
-0.2495000000000
-0.2293700000000
-0.1719500000000
-0.1038360000000
-0.0449851000000
-0.0356549000000
-0.0665877000000
-0.0819147000000
-0.0839306000000
-0.0988990000000
-0.1241730000000
-0.1424970000000
-0.1495530000000
-0.1380650000000
-0.1112030000000
-0.0771963000000
-0.0393211000000
-0.0007255490000
0.0367250000000
0.0652694000000
0.0849458000000
0.1026910000000
0.1182110000000
0.1174670000000
0.1002510000000
0.0815220000000
0.0707957000000
0.0656378000000
0.0614052000000
0.0592793000000
0.0591583000000
0.0541147000000
0.0463958000000
0.0532782000000
0.0738698000000
0.0763727000000
0.0518184000000
0.0266764000000
0.0089896000000
-0.0128542000000
-0.0430019000000
-0.0747552000000
-0.1031210000000
-0.1126800000000
-0.1081900000000
-0.1057680000000
-0.1068600000000
-0.0977830000000
-0.0593795000000
0.0001261170000
0.0590879000000
0.0940186000000
0.1036760000000
0.1024920000000
0.0903786000000
0.0691020000000
0.0461654000000
0.0384150000000
0.0470699000000
0.0561268000000
0.0476729000000
0.0242161000000
0.0036323500000
-0.0067163400000
-0.0119421000000
-0.0155488000000
-0.0146471000000
-0.0100705000000
-0.0040915700000
0.0015005900000
0.0042869200000
-0.0030545300000
-0.0187429000000
-0.0350456000000
-0.0387211000000
-0.0260294000000
-0.0130296000000
-0.0440356000000
-0.1047640000000
-0.1415830000000
-0.1496630000000
-0.1517630000000
-0.1448070000000
-0.1190620000000
-0.0938770000000
-0.0712624000000
-0.0395549000000
-0.0137574000000
-0.0035336600000
0.0110731000000
0.0385217000000
0.0669277000000
0.0810144000000
0.0595466000000
0.0204214000000
0.0160938000000
0.0474301000000
0.0787860000000
0.0914881000000
0.0957071000000
0.0978403000000
0.1023520000000
0.1218420000000
0.1518080000000
0.1435180000000
0.0901651000000
0.0280658000000
-0.0232010000000
-0.0522542000000
-0.0524066000000
-0.0483671000000
-0.0611031000000
-0.0742011000000
-0.0665723000000
-0.0448288000000
-0.0318601000000
-0.0418796000000
-0.0648323000000
-0.0853988000000
-0.0841968000000
-0.0679914000000
-0.0580588000000
-0.0562759000000
-0.0499575000000
-0.0329083000000
-0.0121652000000
0.0045117400000
0.0083472300000
-0.0022444000000
-0.0183770000000
-0.0229333000000
-0.0029994600000
0.0298234000000
0.0387318000000
0.0234457000000
0.0172873000000
0.0280320000000
0.0406608000000
0.0419995000000
0.0335401000000
0.0224715000000
0.0126275000000
0.0028832600000
-0.0100840000000
-0.0250209000000
-0.0287377000000
-0.0204344000000
-0.0135902000000
-0.0144555000000
-0.0179568000000
-0.0194056000000
-0.0091602300000
0.0139793000000
0.0394415000000
0.0403810000000
0.0095294700000
-0.0040044800000
0.0196639000000
0.0527559000000
0.0704380000000
0.0652439000000
0.0321831000000
-0.0180411000000
-0.0509680000000
-0.0792512000000
-0.1050490000000
-0.1142600000000
-0.1153730000000
-0.1208690000000
-0.1020700000000
-0.0498241000000
0.0108248000000
0.0643690000000
0.1032730000000
0.1056250000000
0.0754492000000
0.0291692000000
-0.0024590300000
-0.0018061000000
0.0010063200000
-0.0242966000000
-0.0519387000000
-0.0457478000000
-0.0255578000000
-0.0189131000000
-0.0183181000000
-0.0183515000000
-0.0307722000000
-0.0510429000000
-0.0690996000000
-0.0660197000000
-0.0428323000000
-0.0214268000000
-0.0120295000000
-0.0245352000000
-0.0568771000000
-0.0707533000000
-0.0684718000000
-0.0535794000000
-0.0126348000000
0.0429329000000
0.0662887000000
0.0486079000000
0.0362542000000
0.0557120000000
0.0924831000000
0.1238400000000
0.1351770000000
0.1064910000000
0.0662441000000
0.0578925000000
0.0697490000000
0.0747169000000
0.0698283000000
0.0571861000000
0.0492583000000
0.0579034000000
0.0765100000000
0.0936366000000
0.1060020000000
0.0918823000000
0.0534713000000
0.0188338000000
-0.0245066000000
-0.0799969000000
-0.1076590000000
-0.1131510000000
-0.1079300000000
-0.0810498000000
-0.0578188000000
-0.0620404000000
-0.0874264000000
-0.1158930000000
-0.1115270000000
-0.0717539000000
-0.0286395000000
-0.0131582000000
-0.0128971000000
0.0018523000000
0.0306313000000
0.0605089000000
0.0852603000000
0.1055900000000
0.1177240000000
0.1234070000000
0.1251600000000
0.1237780000000
0.1208750000000
0.1186160000000
0.1190610000000
0.1225760000000
0.1048140000000
0.0537634000000
-0.0093495600000
-0.0376981000000
-0.0257940000000
-0.0215507000000
-0.0318750000000
-0.0295861000000
-0.0107371000000
0.0063840700000
0.0013155600000
-0.0212980000000
-0.0433882000000
-0.0450934000000
-0.0267293000000
-0.0069905800000
0.0023947900000
-0.0018441800000
-0.0129784000000
-0.0104150000000
0.0162128000000
0.0247340000000
0.0126208000000
0.0070378000000
0.0005712080000
-0.0209128000000
-0.0524879000000
-0.0717627000000
-0.0679576000000
-0.0533075000000
-0.0422787000000
-0.0367628000000
-0.0235385000000
0.0029597500000
0.0339614000000
0.0605648000000
0.0512087000000
-0.0061409300000
-0.0558970000000
-0.0543593000000
-0.0274424000000
-0.0159233000000
-0.0311414000000
-0.0534099000000
-0.0403347000000
0.0054649400000
0.0284332000000
-0.0002960250000
-0.0280493000000
-0.0343736000000
-0.0489583000000
-0.0831697000000
-0.1244330000000
-0.1541930000000
-0.1393060000000
-0.0883733000000
-0.0461076000000
-0.0235109000000
-0.0161516000000
-0.0276370000000
-0.0351834000000
-0.0195859000000
-0.0090129800000
-0.0279224000000
-0.0578703000000
-0.0619046000000
-0.0340296000000
0.0061438300000
0.0432945000000
0.0772197000000
0.1040740000000
0.0836662000000
0.0160202000000
-0.0278819000000
-0.0153860000000
0.0196309000000
0.0286944000000
0.0110271000000
-0.0141379000000
-0.0362169000000
-0.0242764000000
0.0070264700000
0.0159418000000
0.0189193000000
0.0132352000000
-0.0155615000000
-0.0577216000000
-0.0816126000000
-0.0716807000000
-0.0463804000000
-0.0460195000000
-0.0764317000000
-0.1056900000000
-0.0807406000000
-0.0213023000000
-0.0071784700000
-0.0316258000000
-0.0355344000000
-0.0115633000000
0.0114468000000
0.0227124000000
0.0311215000000
0.0440516000000
0.0594027000000
0.0735101000000
0.0861649000000
0.0986806000000
0.1064820000000
0.1075150000000
0.1059760000000
0.1021330000000
0.0854252000000
0.0532178000000
0.0161902000000
-0.0182941000000
-0.0355375000000
-0.0271117000000
-0.0158244000000
-0.0170222000000
-0.0157888000000
-0.0093890800000
-0.0092768700000
-0.0121032000000
-0.0142978000000
-0.0281689000000
-0.0539454000000
-0.0785596000000
-0.0912583000000
-0.1010370000000
-0.0957847000000
-0.0693438000000
-0.0335873000000
0.0027203500000
0.0374845000000
0.0699850000000
0.0658040000000
-0.0090648500000
-0.0763923000000
-0.0765972000000
-0.0404796000000
-0.0080466700000
-0.0184313000000
-0.0543207000000
-0.0522790000000
-0.0067192900000
0.0186505000000
0.0017715800000
-0.0147967000000
-0.0074127300000
0.0088071300000
0.0180768000000
0.0136546000000
0.0029685600000
0.0065463400000
0.0308909000000
0.0401688000000
0.0155194000000
-0.0142407000000
-0.0203441000000
-0.0043521500000
0.0160083000000
0.0273091000000
0.0296429000000
0.0375544000000
0.0555195000000
0.0727376000000
0.0791185000000
0.0742307000000
0.0569878000000
0.0312394000000
0.0189805000000
0.0161727000000
0.0134539000000
0.0150751000000
0.0149060000000
0.0206212000000
0.0395097000000
0.0636923000000
0.0850170000000
0.1000680000000
0.1078550000000
0.1068300000000
0.1055730000000
0.0963952000000
0.0646749000000
0.0180242000000
-0.0272388000000
-0.0464055000000
-0.0313456000000
-0.0025851000000
0.0227032000000
0.0352096000000
0.0495916000000
0.0865927000000
0.1396000000000
0.1793350000000
0.1811690000000
0.1615090000000
0.1570640000000
0.1535410000000
0.1284190000000
0.0905942000000
0.0547670000000
0.0245280000000
0.0044412700000
-0.0038176800000
-0.0072437300000
-0.0102224000000
-0.0131808000000
-0.0154873000000
-0.0182965000000
-0.0350965000000
-0.0678484000000
-0.1025790000000
-0.1203370000000
-0.1146660000000
-0.0946306000000
-0.0759287000000
-0.0739261000000
-0.0765425000000
-0.0688224000000
-0.0541303000000
-0.0588948000000
-0.0890088000000
-0.1252200000000
-0.1449070000000
-0.1415870000000
-0.1393100000000
-0.1542580000000
-0.1478600000000
-0.1045690000000
-0.0526326000000
-0.0278581000000
-0.0355832000000
-0.0515040000000
-0.0614905000000
-0.0513930000000
-0.0224183000000
0.0106231000000
0.0320498000000
0.0304182000000
0.0142434000000
0.0042697000000
0.0047321500000
0.0070634500000
0.0066703900000
0.0054564600000
0.0087302500000
0.0192195000000
0.0240772000000
0.0171810000000
0.0213730000000
0.0469489000000
0.0799770000000
0.1084760000000
0.1149890000000
0.0767710000000
0.0208488000000
0.0008896800000
0.0210863000000
0.0539565000000
0.0814150000000
0.0858459000000
0.0700760000000
0.0736676000000
0.1052040000000
0.1278830000000
0.1244630000000
0.1201590000000
0.1150230000000
0.0861305000000
0.0371207000000
-0.0101491000000
-0.0352274000000
-0.0436934000000
-0.0549365000000
-0.0613649000000
-0.0428254000000
-0.0046652000000
0.0341893000000
0.0618433000000
0.0597204000000
0.0329085000000
0.0032622500000
-0.0194792000000
-0.0374897000000
-0.0447223000000
-0.0391054000000
-0.0286699000000
-0.0074662700000
0.0249565000000
0.0594251000000
0.0816427000000
0.0903207000000
0.0954255000000
0.1016790000000
0.1003250000000
0.0861037000000
0.0734440000000
0.0804241000000
0.1027780000000
0.1210860000000
0.1272420000000
0.1275240000000
0.1285060000000
0.1219310000000
0.0929546000000
0.0465610000000
-0.0000472647000
-0.0287031000000
-0.0321015000000
-0.0313170000000
-0.0409270000000
-0.0554500000000
-0.0673650000000
-0.0717011000000
-0.0668666000000
-0.0577105000000
-0.0491968000000
-0.0487328000000
-0.0607540000000
-0.0795566000000
-0.0979039000000
-0.1138580000000
-0.1186360000000
-0.1090630000000
-0.0991649000000
-0.0993412000000
-0.1053340000000
-0.1087310000000
-0.1023870000000
-0.0891095000000
-0.0805971000000
-0.0799186000000
-0.0790105000000
-0.0731295000000
-0.0682679000000
-0.0698190000000
-0.0614991000000
-0.0268349000000
0.0235465000000
0.0676148000000
0.0891468000000
0.0948579000000
0.0991462000000
0.0880077000000
0.0555730000000
0.0168251000000
-0.0184629000000
-0.0501437000000
-0.0733453000000
-0.0819401000000
-0.0965244000000
-0.1143340000000
-0.1039270000000
-0.0665568000000
-0.0254357000000
0.0080097600000
0.0215352000000
0.0063205000000
-0.0195659000000
-0.0394173000000
-0.0541001000000
-0.0651469000000
-0.0693708000000
-0.0632867000000
-0.0470928000000
-0.0334285000000
-0.0284115000000
-0.0264216000000
-0.0232712000000
-0.0249370000000
-0.0366225000000
-0.0530850000000
-0.0620820000000
-0.0599715000000
-0.0537797000000
-0.0433226000000
-0.0145272000000
0.0315553000000
0.0799709000000
0.1244810000000
0.1668300000000
0.2087250000000
0.2304480000000
0.2144970000000
0.1746480000000
0.1215100000000
0.0595577000000
-0.0035475800000
-0.0634510000000
-0.0880104000000
-0.0648509000000
-0.0224119000000
0.0152719000000
0.0473629000000
0.0804659000000
0.1146590000000
0.1305070000000
0.1193950000000
0.0874121000000
0.0465372000000
0.0067933800000
-0.0301543000000
-0.0495232000000
-0.0413898000000
-0.0193407000000
-0.0004506210000
-0.0161129000000
-0.0670284000000
-0.1169020000000
-0.1338360000000
-0.1272220000000
-0.1443630000000
-0.1922220000000
-0.2445830000000
-0.2688470000000
-0.1884080000000
-0.0248509000000
0.0881539000000
0.1220580000000
0.1389360000000
0.1731640000000
0.1890330000000
0.1613210000000
0.1131580000000
0.0704161000000
0.0362311000000
0.0307313000000
0.0556165000000
0.0745920000000
0.0589008000000
0.0220433000000
0.0158664000000
0.0503709000000
0.0922661000000
0.1113770000000
0.0876611000000
0.0385944000000
-0.0004319490000
-0.0212245000000
-0.0448357000000
-0.0787010000000
-0.1084580000000
-0.0973949000000
-0.0489253000000
0.0044209500000
0.0488304000000
0.0821410000000
0.0763997000000
0.0322768000000
-0.0189402000000
-0.0629405000000
-0.1027970000000
-0.1366250000000
-0.1579310000000
-0.1527510000000
-0.1116490000000
-0.0512432000000
0.0098107700000
0.0693726000000
0.1299430000000
0.1875700000000
0.1861010000000
0.1097920000000
0.0101431000000
-0.0726924000000
-0.1236460000000
-0.1570970000000
-0.1889460000000
-0.1922850000000
-0.1541100000000
-0.1007970000000
-0.0531892000000
-0.0236693000000
-0.0240808000000
-0.0453453000000
-0.0642588000000
-0.0658657000000
-0.0648770000000
-0.0794014000000
-0.1030850000000
-0.1256180000000
-0.1370150000000
-0.1100030000000
-0.0468436000000
0.0210027000000
0.0789312000000
0.0888575000000
0.0375462000000
-0.0383631000000
-0.0965926000000
-0.1146860000000
-0.1145600000000
-0.1228700000000
-0.1374120000000
-0.1372760000000
-0.1040620000000
-0.0514368000000
0.0006743570000
0.0473562000000
0.0907446000000
0.0877734000000
0.0191511000000
-0.0408908000000
-0.0504916000000
-0.0402857000000
-0.0319095000000
-0.0210629000000
-0.0021310900000
0.0196960000000
0.0392776000000
0.0413464000000
0.0185697000000
-0.0163115000000
-0.0453754000000
-0.0624330000000
-0.0729445000000
-0.0818274000000
-0.0618447000000
-0.0093176000000
0.0497780000000
0.1022430000000
0.1505000000000
0.2005000000000
0.2513630000000
0.2909300000000
0.3002920000000
0.2859640000000
0.2704900000000
0.2648480000000
0.2668220000000
0.2678680000000
0.2494510000000
0.1794610000000
0.0711354000000
-0.0264562000000
-0.0837203000000
-0.1169130000000
-0.1499890000000
-0.1721290000000
-0.1745400000000
-0.1690450000000
-0.1410250000000
-0.0804421000000
-0.0074037000000
0.0284219000000
0.0150247000000
-0.0131149000000
-0.0333057000000
-0.0384809000000
-0.0383347000000
-0.0526920000000
-0.0816522000000
-0.1121240000000
-0.1386310000000
-0.1608900000000
-0.1555260000000
-0.1193280000000
-0.0768888000000
-0.0407269000000
-0.0092200900000
0.0235675000000
0.0571870000000
0.0903763000000
0.1217520000000
0.1532990000000
0.1844840000000
0.2132570000000
0.2162970000000
0.1866610000000
0.1460450000000
0.1197730000000
0.1165110000000
0.1132700000000
0.0870229000000
0.0450542000000
0.0042036400000
-0.0313994000000
-0.0615128000000
-0.0822901000000
-0.0957358000000
-0.1079410000000
-0.1205970000000
-0.1242320000000
-0.1119030000000
-0.0914237000000
-0.0718679000000
-0.0548445000000
-0.0402361000000
-0.0318446000000
-0.0289860000000
-0.0271619000000
-0.0243935000000
-0.0212846000000
-0.0184756000000
-0.0141527000000
-0.0074439500000
0.0001227330000
0.0073769700000
0.0142320000000
0.0209194000000
0.0260601000000
0.0275278000000
0.0262992000000
0.0250204000000
0.0263066000000
0.0355288000000
0.0506665000000
0.0536326000000
0.0389586000000
0.0294698000000
0.0392735000000
0.0567526000000
0.0670461000000
0.0702520000000
0.0731546000000
0.0707434000000
0.0577293000000
0.0393348000000
0.0216150000000
0.0058541300000
-0.0053679100000
-0.0066322700000
-0.0006256760000
0.0060557300000
0.0111900000000
0.0159103000000
0.0198313000000
0.0159456000000
0.0039013000000
-0.0094594300000
-0.0208835000000
-0.0271698000000
-0.0277239000000
-0.0258750000000
-0.0258951000000
-0.0320341000000
-0.0407614000000
-0.0401682000000
-0.0299271000000
-0.0182530000000
-0.0088913400000
-0.0011851500000
0.0023008200000
0.0013030700000
-0.0007930060000
-0.0022303200000
-0.0032855700000
-0.0046625700000
-0.0075870000000
-0.0138490000000
-0.0219503000000
-0.0238383000000
-0.0158457000000
-0.0037747500000
0.0073616900000
0.0171027000000
0.0261546000000
0.0223399000000
0.0038500000000
-0.0175369000000
-0.0360914000000
-0.0515449000000
-0.0623800000000
-0.0687387000000
-0.0736525000000
-0.0713897000000
-0.0582695000000
-0.0402117000000
-0.0273247000000
-0.0211829000000
-0.0173725000000
-0.0146184000000
-0.0083539000000
0.0040169700000
0.0187366000000
0.0326796000000
0.0420693000000
0.0431323000000
0.0383760000000
0.0326637000000
0.0187595000000
-0.0051226800000
-0.0313221000000
-0.0548463000000
-0.0665048000000
-0.0624041000000
-0.0449760000000
-0.0171451000000
0.0148215000000
0.0460852000000
0.0704216000000
0.0847806000000
0.0923237000000
0.0761426000000
0.0285274000000
-0.0305303000000
-0.0847034000000
-0.1103570000000
-0.1045270000000
-0.0882543000000
-0.0756684000000
-0.0665764000000
-0.0654163000000
-0.0641814000000
-0.0584453000000
-0.0585790000000
-0.0661099000000
-0.0700222000000
-0.0636503000000
-0.0531564000000
-0.0494956000000
-0.0565381000000
-0.0584941000000
-0.0474542000000
-0.0318769000000
-0.0209581000000
-0.0168531000000
-0.0152704000000
-0.0128723000000
-0.0098515600000
-0.0071223600000
-0.0028378000000
0.0095956500000
0.0296061000000
0.0505110000000
0.0693696000000
0.0829973000000
0.0882721000000
0.0854164000000
0.0707369000000
0.0465247000000
0.0212050000000
-0.0023178500000
-0.0244890000000
-0.0424223000000
-0.0537983000000
-0.0626055000000
-0.0715641000000
-0.0806412000000
-0.0787589000000
-0.0640270000000
-0.0462029000000
-0.0399597000000
-0.0454583000000
-0.0519052000000
-0.0469093000000
-0.0291265000000
-0.0084020200000
0.0049059200000
0.0102308000000
0.0118397000000
0.0087262700000
0.0016362000000
-0.0063834500000
-0.0135447000000
-0.0175679000000
-0.0163243000000
-0.0118129000000
-0.0072225200000
-0.0033658100000
0.0005083060000
0.0069836700000
0.0163024000000
0.0260739000000
0.0320682000000
0.0322159000000
0.0291787000000
0.0218046000000
0.0088961300000
-0.0041192800000
-0.0116077000000
-0.0176251000000
-0.0292646000000
-0.0449319000000
-0.0596306000000
-0.0569034000000
-0.0362875000000
-0.0126392000000
0.0073894700000
0.0257527000000
0.0451841000000
0.0641870000000
0.0659685000000
0.0417216000000
0.0059831700000
-0.0268171000000
-0.0435614000000
-0.0352655000000
-0.0121742000000
0.0109358000000
0.0306715000000
0.0470278000000
0.0516374000000
0.0445017000000
0.0352069000000
0.0279157000000
0.0217988000000
0.0152685000000
0.0146385000000
0.0227941000000
0.0345385000000
0.0450800000000
0.0523626000000
0.0547372000000
0.0537831000000
0.0524819000000
0.0517888000000
0.0510707000000
0.0474136000000
0.0371880000000
0.0223563000000
0.0073493000000
-0.0059441900000
-0.0097619600000
-0.0035827100000
0.0045558800000
0.0109885000000
0.0164750000000
0.0219526000000
0.0170376000000
-0.0013326500000
-0.0236318000000
-0.0418452000000
-0.0519736000000
-0.0573494000000
-0.0625682000000
-0.0660076000000
-0.0625933000000
-0.0538213000000
-0.0434783000000
-0.0329100000000
-0.0220430000000
-0.0110031000000
-0.0004866100000
0.0033295900000
-0.0002563280000
-0.0053677800000
-0.0091867400000
-0.0122887000000
-0.0155785000000
-0.0157638000000
-0.0118980000000
-0.0070295300000
-0.0028782100000
0.0012612100000
0.0145757000000
0.0414228000000
0.0685024000000
0.0751846000000
0.0639886000000
0.0512550000000
0.0426597000000
0.0352006000000
0.0261857000000
0.0165502000000
0.0075162600000
0.0006133160000
0.0006679830000
0.0071178600000
0.0145573000000
0.0223975000000
0.0325318000000
0.0447135000000
0.0568158000000
0.0656850000000
0.0689036000000
0.0699945000000
0.0763824000000
0.0834255000000
0.0776825000000
0.0605476000000
0.0422094000000
0.0267044000000
0.0121812000000
-0.0031153700000
-0.0187408000000
-0.0329740000000
-0.0322081000000
-0.0131117000000
0.0112684000000
0.0323020000000
0.0406480000000
0.0377071000000
0.0307974000000
0.0213617000000
0.0097051300000
-0.0022883100000
-0.0072364600000
-0.0025492800000
0.0056549600000
0.0125982000000
0.0175954000000
0.0221433000000
0.0270362000000
0.0321034000000
0.0366937000000
0.0393661000000
0.0374413000000
0.0320522000000
0.0263517000000
0.0215959000000
0.0184894000000
0.0181068000000
0.0195607000000
0.0211604000000
0.0207378000000
0.0175576000000
0.0132964000000
0.0093303000000
0.0056460100000
0.0018956300000
-0.0018703800000
-0.0053366300000
-0.0041922300000
0.0060576800000
0.0158966000000
0.0087738600000
-0.0124780000000
-0.0332291000000
-0.0386131000000
-0.0453380000000
-0.0526578000000
-0.0609220000000
-0.0656896000000
-0.0662190000000
-0.0660163000000
-0.0666042000000
-0.0675160000000
-0.0680601000000
-0.0678842000000
-0.0601703000000
-0.0416102000000
-0.0243503000000
-0.0149884000000
-0.0070273000000
0.0039947000000
0.0164793000000
0.0278948000000
0.0368011000000
0.0431457000000
0.0483972000000
0.0519929000000
0.0500631000000
0.0432881000000
0.0361907000000
0.0339827000000
0.0369854000000
0.0410099000000
0.0449053000000
0.0497151000000
0.0555224000000
0.0591295000000
0.0577941000000
0.0532889000000
0.0492208000000
0.0469626000000
0.0457569000000
0.0443791000000
0.0427018000000
0.0410227000000
0.0395174000000
0.0376745000000
0.0306731000000
0.0177398000000
0.0038742100000
-0.0086896200000
-0.0202599000000
-0.0314933000000
-0.0366740000000
-0.0348947000000
-0.0313160000000
-0.0289338000000
-0.0272406000000
-0.0254344000000
-0.0242078000000
-0.0239166000000
-0.0238763000000
-0.0236984000000
-0.0233296000000
-0.0230489000000
-0.0227926000000
-0.0225239000000
-0.0215769000000
-0.0198392000000
-0.0178550000000
-0.0160627000000
-0.0143996000000
-0.0127802000000
-0.0111606000000
-0.0096153600000
-0.0080013500000
-0.0062952600000
-0.0045713600000
-0.0029593900000
-0.0014153800000
0.0000278955000
0.0013772500000
0.0017639900000
-0.0009165500000
-0.0060855000000
-0.0107259000000
-0.0135668000000
-0.0154214000000
-0.0174287000000
-0.0194732000000
-0.0203630000000
-0.0197816000000
-0.0187195000000
-0.0158001000000
-0.0103106000000
-0.0038241500000
0.0021192200000
0.0073807100000
0.0115136000000
0.0145466000000
0.0171315000000
0.0196609000000
0.0220428000000
0.0240654000000
0.0245876000000
0.0237685000000
0.0227343000000
0.0219201000000
0.0211288000000
0.0201939000000
0.0183733000000
0.0151139000000
0.0111245000000
0.0073050800000
0.0038579900000
0.0006345620000
-0.0027836600000
-0.0068468500000
-0.0112718000000
-0.0154016000000
-0.0191271000000
-0.0222563000000
-0.0210309000000
-0.0142342000000
-0.0093889500000
-0.0113913000000
-0.0168657000000
-0.0213903000000
-0.0245316000000
-0.0273439000000
-0.0303070000000
-0.0329429000000
-0.0346475000000
-0.0316916000000
-0.0244926000000
-0.0170760000000
-0.0111079000000
-0.0060267000000
-0.0012023800000
0.0030923800000
0.0052245600000
0.0051952300000
0.0034273200000
0.0005638170000
-0.0022533500000
-0.0046934300000
-0.0068109700000
-0.0084323500000
-0.0092913900000
-0.0097027400000
-0.0100252000000
-0.0103634000000
-0.0106441000000
-0.0108433000000
-0.0108895000000
-0.0107102000000
-0.0103721000000
-0.0100381000000
-0.0097477900000
-0.0094754600000
-0.0091442200000
-0.0086810600000
-0.0081480800000
-0.0076662700000
-0.0072560300000
-0.0068988900000
-0.0065795100000
-0.0063137000000
-0.0062854500000
-0.0065356800000
-0.0068387300000
-0.0070373300000
-0.0071165800000
-0.0070164200000
-0.0067705600000
-0.0065065500000
-0.0062592300000
-0.0060182100000
-0.0057799600000
-0.0055899700000
-0.0054306900000
-0.0052514700000
-0.0050358300000
-0.0048173900000
-0.0046171400000
-0.0044075500000
-0.0041490500000
-0.0038154300000
-0.0034382000000
-0.0030652400000
-0.0027155900000
-0.0023823600000
-0.0020492000000
-0.0017128300000
-0.0013752900000
-0.0010398200000
-0.0007074880000
-0.0003756430000
-0.0000420648000
0.0002873830000
0.0006059500000
0.0009133780000
0.0012183600000
0.0015291200000
0.0018314700000
0.0021092100000
0.0023568000000
0.0025854000000
0.0028091200000
0.0030309400000
0.0032473100000
0.0034592800000
0.0036720700000
0.0038861800000
0.0040987600000
0.0043078700000
0.0045134300000
0.0047160900000
0.0049160800000
0.0051129600000
0.0053061000000
0.0054951200000
0.0056801200000
0.0058611600000
0.0060382200000
0.0062112400000
0.0063801200000
