-0.0000055618700
-0.0000055214600
-0.0000054461500
-0.0000053686900
-0.0000053011100
-0.0000053188300
-0.0000052789800
-0.0000051230500
-0.0000051398100
-0.0000054785900
-0.0000058422000
-0.0000059031100
-0.0000054198400
-0.0000043165000
-0.0000034034700
-0.0000036932300
-0.0000043394600
-0.0000049707500
-0.0000065911600
-0.0000072459600
-0.0000058427800
-0.0000042957600
-0.0000055712000
-0.0000075344100
-0.0000080616600
-0.0000082219100
-0.0000070381300
-0.0000054030800
-0.0000041569600
-0.0000033527200
-0.0000063503900
-0.0000073140900
-0.0000038072300
-0.0000052326100
-0.0000066595900
-0.0000056414600
-0.0000067295500
-0.0000084345200
-0.0000072836000
-0.0000044778400
-0.0000039633100
-0.0000058935900
-0.0000052773500
-0.0000142513000
-0.0000209489000
-0.0000132116000
0.0000020613000
0.0000080329400
0.0000000481478
-0.0000032499600
-0.0000073385500
-0.0000125097000
-0.0000006902610
0.0000130889000
0.0000143188000
0.0000077247200
0.0000003040630
-0.0000158187000
-0.0000374345000
-0.0000438927000
-0.0000137317000
0.0000233670000
0.0000123655000
-0.0000176974000
-0.0000163010000
0.0000144617000
0.0000256901000
0.0000217454000
0.0000237046000
0.0000263292000
0.0000213263000
-0.0000089256600
-0.0000306070000
-0.0000202232000
-0.0000071330700
-0.0000292878000
-0.0000677559000
-0.0000635181000
-0.0000328387000
-0.0000156395000
-0.0000230503000
-0.0000171155000
0.0000246854000
0.0000645302000
0.0000511618000
-0.0000135455000
-0.0000393935000
-0.0000283085000
-0.0000175222000
0.0000099075200
0.0000569738000
0.0000847744000
0.0000366989000
-0.0000198802000
-0.0000336741000
0.0000060781500
0.0000365837000
-0.0000118268000
-0.0000734322000
-0.0000614884000
0.0000022131000
0.0000105209000
-0.0000499873000
-0.0000546741000
-0.0000209778000
-0.0000265458000
-0.0000140582000
0.0000023083500
0.0000097805000
0.0000128828000
0.0000028801900
0.0000251578000
0.0000707720000
0.0000487195000
-0.0000816297000
-0.0001251920000
-0.0000115451000
0.0000598636000
0.0000195636000
-0.0000008707190
0.0000241619000
0.0000383103000
0.0000145989000
-0.0000421630000
-0.0000682970000
-0.0000514605000
-0.0000055216200
0.0000120068000
-0.0000479484000
-0.0000799966000
-0.0000333675000
-0.0000430582000
-0.0000453828000
0.0000198242000
0.0000191298000
-0.0000712853000
-0.0001210270000
-0.0000675652000
-0.0000108264000
-0.0000026465100
0.0000160341000
0.0000354088000
0.0000429294000
0.0000144583000
-0.0000660981000
-0.0001314680000
-0.0000563486000
0.0001412080000
0.0002602770000
0.0002519160000
0.0001730200000
0.0000518953000
-0.0000158592000
0.0000302485000
0.0000788986000
0.0000484238000
0.0000210329000
0.0000376904000
0.0000643787000
0.0001001000000
0.0000880416000
-0.0000181195000
-0.0000738637000
-0.0000096708600
0.0000127952000
-0.0000433689000
-0.0001306850000
-0.0002158860000
-0.0001890880000
-0.0000311148000
0.0000795339000
0.0000703026000
0.0000329170000
0.0000320489000
0.0000361767000
-0.0000037889600
-0.0000419749000
-0.0000519435000
-0.0000489379000
-0.0000730431000
-0.0000935227000
-0.0000529277000
0.0000140575000
-0.0000130428000
-0.0000740180000
0.0000029753700
0.0000453723000
0.0000087044100
0.0000027879100
-0.0000448432000
-0.0000998695000
-0.0000816488000
-0.0001998290000
-0.0002931770000
-0.0001724470000
0.0000462542000
0.0001025530000
0.0000329888000
-0.0000174094000
-0.0000213324000
-0.0000232870000
-0.0000800885000
-0.0001416740000
-0.0000674613000
0.0000452262000
-0.0000867333000
-0.0002344070000
-0.0001532330000
-0.0000444309000
-0.0000490187000
-0.0000264381000
0.0000265445000
0.0000169006000
-0.0000082064800
-0.0000471422000
-0.0001464070000
-0.0001658300000
0.0000295678000
0.0001706500000
0.0001522090000
0.0001269820000
0.0000737059000
0.0000187077000
0.0000648570000
0.0001810000000
0.0002053010000
0.0001362990000
0.0000678583000
0.0000051285000
-0.0000028020500
0.0000905631000
0.0001311680000
0.0000246927000
0.0000090988900
0.0000965111000
0.0001343700000
0.0000315581000
-0.0000911820000
-0.0000892111000
0.0000190863000
0.0000961494000
0.0000663922000
0.0000243847000
0.0000022843100
0.0000092755000
-0.0000174239000
-0.0000224976000
-0.0000024958500
-0.0000272030000
-0.0000678155000
-0.0000137731000
0.0001176980000
0.0000952733000
-0.0000751313000
-0.0002287520000
-0.0001879810000
0.0000812176000
0.0002166050000
0.0000941003000
-0.0000090277700
0.0001173570000
0.0002308000000
0.0001788310000
0.0000077760600
-0.0001060750000
-0.0000096202800
0.0001387670000
0.0001110590000
0.0000090349000
0.0000510734000
0.0001113020000
0.0001196920000
0.0001195810000
0.0001633270000
0.0002262500000
0.0001290930000
-0.0001229300000
-0.0002100020000
-0.0000587181000
0.0000907590000
0.0000755406000
0.0000030285200
0.0000826996000
0.0002097200000
0.0001552930000
0.0000225012000
-0.0000545645000
-0.0000087165000
0.0000986062000
0.0001205830000
0.0000084258700
-0.0001137660000
-0.0000727816000
0.0000852140000
0.0001082000000
0.0000315745000
-0.0000093034000
-0.0000197373000
-0.0000335579000
-0.0000118013000
0.0000142391000
0.0000061711600
0.0000012930500
-0.0000334043000
-0.0000685009000
-0.0000268493000
0.0000182616000
-0.0000098185000
-0.0000448320000
-0.0000299786000
-0.0000024091100
-0.0000196261000
-0.0000001984130
0.0001012350000
-0.0000137219000
-0.0003986560000
-0.0004275660000
-0.0000708828000
0.0001173450000
0.0000290758000
-0.0000649268000
-0.0000406792000
0.0000842259000
0.0001716090000
0.0000858212000
-0.0000282805000
0.0000273062000
0.0000719131000
0.0000529298000
0.0000073461100
-0.0000708058000
-0.0000719497000
0.0000107729000
0.0000884914000
0.0001130620000
-0.0000269095000
-0.0001344530000
-0.0001030560000
-0.0001000530000
-0.0001425220000
-0.0000853084000
0.0000471721000
0.0001168720000
0.0001526750000
0.0001370080000
0.0000692727000
-0.0000172068000
0.0000303842000
0.0001117860000
0.0001409810000
0.0000863587000
-0.0000793988000
-0.0001041540000
-0.0000844940000
-0.0001973240000
-0.0002596970000
-0.0001145680000
0.0000790030000
0.0001299310000
0.0000393128000
-0.0000489007000
-0.0000242609000
0.0000323884000
0.0000373274000
-0.0000118265000
-0.0000854253000
-0.0001456370000
-0.0000863674000
0.0000416852000
0.0001824040000
0.0002038050000
0.0000516544000
-0.0000591799000
-0.0000517621000
-0.0000308581000
-0.0000154845000
-0.0000152949000
0.0000282262000
0.0000810444000
0.0000925139000
0.0000707661000
0.0000781696000
0.0000660637000
-0.0000166482000
-0.0000902665000
-0.0001027390000
-0.0000316229000
0.0000630711000
0.0000138984000
-0.0001204070000
-0.0001648880000
-0.0000043378200
0.0002507430000
0.0003020930000
0.0001352090000
-0.0000159924000
0.0000148073000
0.0000937983000
0.0000249635000
-0.0001075720000
-0.0001138980000
-0.0000532986000
-0.0000362210000
-0.0000827515000
-0.0000872938000
-0.0000496780000
-0.0000227003000
0.0000485590000
0.0000774069000
0.0000637831000
0.0000748859000
0.0000842004000
-0.0000246696000
-0.0001671070000
-0.0001011700000
0.0001188260000
0.0001996530000
0.0000325586000
-0.0001262090000
-0.0000757938000
0.0000780533000
0.0000569316000
-0.0000230984000
-0.0000034076000
-0.0000030587800
0.0000193012000
0.0000465896000
0.0000682656000
0.0000519828000
0.0000159962000
0.0000453755000
-0.0000770859000
-0.0004296910000
-0.0004767670000
-0.0001556630000
0.0001139330000
0.0000835218000
-0.0000931952000
-0.0001896700000
-0.0001478350000
-0.0000750131000
-0.0000391435000
-0.0000196739000
-0.0000356264000
0.0000053137100
0.0000765503000
0.0001207030000
0.0001300820000
0.0000557359000
-0.0000595338000
-0.0001405030000
-0.0001453740000
-0.0000372660000
0.0001035310000
0.0001512130000
0.0001149060000
0.0000906098000
0.0000500258000
-0.0000961668000
-0.0002192700000
-0.0001474610000
0.0000426916000
0.0000818546000
-0.0000727026000
-0.0001536460000
-0.0000941932000
-0.0001033010000
-0.0001730380000
-0.0000833148000
0.0001460900000
0.0002060940000
0.0000580830000
-0.0000264877000
0.0000211277000
0.0000411988000
-0.0001338480000
-0.0002267250000
-0.0000858873000
0.0001396880000
0.0001755350000
0.0000365444000
0.0000579305000
0.0001166250000
-0.0000286548000
-0.0002940420000
-0.0002493970000
-0.0000658155000
-0.0000548914000
-0.0001520190000
-0.0002445560000
-0.0001772440000
-0.0000259078000
0.0000489110000
0.0000090396200
0.0000491930000
0.0001111350000
0.0001202030000
0.0000787981000
0.0000104046000
-0.0000222591000
-0.0000273800000
-0.0000571763000
-0.0001233700000
-0.0001186740000
-0.0000280604000
0.0000539173000
0.0000766356000
-0.0000039007600
-0.0000839480000
-0.0000232046000
0.0000440463000
0.0000086478600
-0.0000566260000
-0.0001002320000
-0.0001461990000
-0.0001918820000
-0.0001846240000
-0.0001651450000
-0.0001380030000
-0.0001296850000
-0.0001880530000
-0.0002949350000
-0.0003991460000
-0.0004028100000
-0.0002569940000
-0.0000804348000
0.0000008653030
-0.0000229941000
-0.0000945033000
-0.0002174610000
-0.0002344920000
-0.0000960502000
-0.0000097703100
-0.0000236088000
-0.0000109241000
0.0000923848000
0.0001471650000
0.0000859296000
0.0000735063000
0.0001741940000
0.0002498500000
0.0001633840000
0.0000877354000
0.0000342098000
-0.0001359720000
-0.0002724170000
-0.0002492230000
-0.0002091110000
-0.0002886680000
-0.0005792930000
-0.0006362820000
-0.0002730060000
0.0000864024000
0.0001557330000
-0.0000509214000
-0.0003420150000
-0.0005628210000
-0.0005435490000
-0.0002125020000
0.0003187220000
0.0008332230000
0.0008901880000
0.0003906400000
-0.0002677580000
-0.0007128180000
-0.0008460360000
-0.0007701590000
-0.0007092650000
-0.0008035810000
-0.0009829940000
-0.0011266700000
-0.0011939900000
-0.0011522700000
-0.0009267510000
-0.0005229340000
-0.0002753220000
-0.0004892930000
-0.0011710900000
-0.0017996000000
-0.0018206000000
-0.0013559300000
-0.0009397540000
-0.0007876690000
-0.0007126080000
-0.0005931430000
-0.0004224470000
-0.0000962809000
0.0003406480000
0.0005968100000
0.0005629550000
0.0003855510000
0.0003355600000
0.0006863890000
0.0016220300000
0.0027549800000
0.0033374600000
0.0031194800000
0.0022805500000
0.0009933360000
-0.0003192670000
-0.0011782200000
-0.0015391900000
-0.0017082100000
-0.0019110100000
-0.0019811400000
-0.0017540600000
-0.0014087300000
-0.0010042700000
-0.0005561780000
-0.0005369390000
-0.0013919900000
-0.0027802000000
-0.0038111600000
-0.0037939500000
-0.0027185100000
-0.0011239700000
0.0004917200000
0.0015454900000
0.0016813600000
0.0010793200000
0.0002466010000
-0.0001396370000
0.0001785600000
0.0009230480000
0.0017752700000
0.0027345600000
0.0037532000000
0.0042572500000
0.0040125600000
0.0032968200000
0.0024634600000
0.0015907400000
0.0007201120000
0.0002894230000
0.0008451180000
0.0024666000000
0.0043610200000
0.0056474900000
0.0060578800000
0.0054780800000
0.0039741400000
0.0019781800000
0.0001101620000
-0.0013711800000
-0.0025593100000
-0.0034611600000
-0.0039343300000
-0.0038321400000
-0.0032082700000
-0.0022873900000
-0.0013212500000
-0.0004330960000
0.0004243210000
0.0011724400000
0.0017774200000
0.0023680500000
0.0029712100000
0.0033369600000
0.0033865800000
0.0030197800000
0.0023616400000
0.0019497800000
0.0019325800000
0.0020095600000
0.0020312800000
0.0021235300000
0.0021285100000
0.0018293500000
0.0010497100000
-0.0003047600000
-0.0019971000000
-0.0035451600000
-0.0045510400000
-0.0046057800000
-0.0034919300000
-0.0018627500000
-0.0007518950000
-0.0006333430000
-0.0013284600000
-0.0024136100000
-0.0032638500000
-0.0036221200000
-0.0036348800000
-0.0034944200000
-0.0033624400000
-0.0033092800000
-0.0035743000000
-0.0042780500000
-0.0053249000000
-0.0064571400000
-0.0069820000000
-0.0061114700000
-0.0035332800000
0.0003940720000
0.0047409600000
0.0082766800000
0.0097349100000
0.0085224800000
0.0050674100000
0.0007198680000
-0.0029501700000
-0.0049942700000
-0.0051153000000
-0.0035551300000
-0.0010468600000
0.0015516700000
0.0037070400000
0.0053076100000
0.0064635000000
0.0071469000000
0.0072070500000
0.0065475300000
0.0051830700000
0.0033769000000
0.0012078700000
-0.0010208300000
-0.0025101900000
-0.0028810800000
-0.0026463600000
-0.0023754600000
-0.0025304800000
-0.0034709200000
-0.0050911000000
-0.0069573300000
-0.0086286600000
-0.0095270800000
-0.0090989600000
-0.0073863800000
-0.0052351400000
-0.0035725300000
-0.0028003300000
-0.0029862400000
-0.0036901000000
-0.0037299200000
-0.0019587100000
0.0019482000000
0.0072893100000
0.0127810000000
0.0171030000000
0.0194028000000
0.0194707000000
0.0176392000000
0.0149126000000
0.0122299000000
0.0098858300000
0.0079337200000
0.0065533200000
0.0057554000000
0.0056655200000
0.0066538500000
0.0088921800000
0.0114551000000
0.0126099000000
0.0111590000000
0.0071895900000
0.0017612900000
-0.0036692700000
-0.0076956400000
-0.0092624800000
-0.0082805300000
-0.0055703800000
-0.0028037000000
-0.0014503400000
-0.0019678300000
-0.0040745700000
-0.0068355300000
-0.0091509600000
-0.0101476000000
-0.0093132700000
-0.0066128200000
-0.0027800200000
0.0009301260000
0.0037861100000
0.0052960900000
0.0051559100000
0.0038350900000
0.0022636800000
0.0009663890000
0.0000755844000
-0.0001178870000
0.0008030000000
0.0027087700000
0.0049311200000
0.0064776800000
0.0066301900000
0.0055093400000
0.0034115800000
0.0002387620000
-0.0040378500000
-0.0085453100000
-0.0116190000000
-0.0120308000000
-0.0097066200000
-0.0052163000000
0.0004328390000
0.0056231800000
0.0085133500000
0.0079230800000
0.0042058200000
-0.0011739300000
-0.0068178800000
-0.0116129000000
-0.0143524000000
-0.0136912000000
-0.0093676900000
-0.0026574100000
0.0043464200000
0.0092882400000
0.0102393000000
0.0065463900000
-0.0008136230000
-0.0094906700000
-0.0164221000000
-0.0192375000000
-0.0174469000000
-0.0123194000000
-0.0059045000000
-0.0002812920000
0.0027281900000
0.0021065600000
-0.0015811700000
-0.0064712100000
-0.0104222000000
-0.0115664000000
-0.0095045200000
-0.0054786300000
-0.0013929800000
0.0014205800000
0.0029941200000
0.0038743800000
0.0043213300000
0.0042356900000
0.0033388000000
0.0017723100000
-0.0000927925000
-0.0017591400000
-0.0025291500000
-0.0017119200000
0.0007601460000
0.0041371000000
0.0070931500000
0.0082341600000
0.0069479300000
0.0033701000000
-0.0014711800000
-0.0062931700000
-0.0100388000000
-0.0123451000000
-0.0130829000000
-0.0117973000000
-0.0083056400000
-0.0033706900000
0.0014478900000
0.0041356200000
0.0031679500000
-0.0013636400000
-0.0076898800000
-0.0133166000000
-0.0159673000000
-0.0144110000000
-0.0090467200000
-0.0017173100000
0.0053345300000
0.0107161000000
0.0136827000000
0.0142533000000
0.0130988000000
0.0110440000000
0.0087175900000
0.0062965200000
0.0036361400000
0.0005857270000
-0.0024496000000
-0.0046504400000
-0.0053254300000
-0.0038994200000
-0.0003373870000
0.0044619200000
0.0093696500000
0.0135712000000
0.0164385000000
0.0173096000000
0.0155645000000
0.0113347000000
0.0057558700000
0.0004651860000
-0.0032346600000
-0.0051179300000
-0.0055230500000
-0.0051147300000
-0.0047767300000
-0.0050270900000
-0.0057351500000
-0.0061265500000
-0.0053254200000
-0.0033176000000
-0.0008870730000
0.0009670740000
0.0014546300000
0.0003048270000
-0.0021439800000
-0.0052342700000
-0.0083739400000
-0.0113678000000
-0.0140847000000
-0.0156194000000
-0.0143322000000
-0.0093268500000
-0.0013528400000
0.0073610400000
0.0137503000000
0.0155901000000
0.0126147000000
0.0064200400000
-0.0004403930000
-0.0052164400000
-0.0066871900000
-0.0054916300000
-0.0027582600000
0.0010815600000
0.0057831300000
0.0105412000000
0.0140986000000
0.0153556000000
0.0136722000000
0.0093180300000
0.0036120500000
-0.0014767100000
-0.0039563000000
-0.0027887500000
0.0014356600000
0.0063801800000
0.0091800500000
0.0079675800000
0.0026625400000
-0.0050457700000
-0.0125527000000
-0.0174697000000
-0.0182209000000
-0.0143545000000
-0.0068995300000
0.0018830800000
0.0092886300000
0.0131079000000
0.0121084000000
0.0063212600000
-0.0026446700000
-0.0124196000000
-0.0199344000000
-0.0224989000000
-0.0192216000000
-0.0110349000000
0.0000112605000
0.0116801000000
0.0216752000000
0.0282317000000
0.0305309000000
0.0286076000000
0.0236053000000
0.0172914000000
0.0111574000000
0.0065933900000
0.0050224300000
0.0066121400000
0.0097107500000
0.0119100000000
0.0112245000000
0.0071659100000
0.0009290920000
-0.0054715000000
-0.0103856000000
-0.0132608000000
-0.0145856000000
-0.0151801000000
-0.0151944000000
-0.0140849000000
-0.0116293000000
-0.0081210700000
-0.0040799800000
-0.0002229580000
0.0027160600000
0.0041271500000
0.0034647900000
0.0008984540000
-0.0020210000000
-0.0033046100000
-0.0022862800000
0.0002640830000
0.0031620500000
0.0055643500000
0.0072527200000
0.0082426800000
0.0085989100000
0.0085771300000
0.0079713100000
0.0059299400000
0.0019032300000
-0.0034907100000
-0.0091760900000
-0.0144028000000
-0.0188019000000
-0.0220589000000
-0.0236236000000
-0.0227270000000
-0.0184151000000
-0.0104767000000
-0.0005093290000
0.0085331600000
0.0136961000000
0.0138667000000
0.0103292000000
0.0059871400000
0.0039098700000
0.0054160600000
0.0094691100000
0.0135207000000
0.0149800000000
0.0128861000000
0.0086011400000
0.0041309000000
0.0006219090000
-0.0018282900000
-0.0035440900000
-0.0044760300000
-0.0045070100000
-0.0039910600000
-0.0031280800000
-0.0015535500000
0.0006451420000
0.0023933700000
0.0026045900000
0.0009828040000
-0.0017923500000
-0.0044887500000
-0.0059034200000
-0.0053406900000
-0.0030747600000
-0.0002538500000
0.0021735100000
0.0039049800000
0.0054703900000
0.0075072800000
0.0098926100000
0.0117274000000
0.0118977000000
0.0096917600000
0.0053751900000
0.0003650470000
-0.0033565300000
-0.0039832400000
-0.0009543140000
0.0045121700000
0.0100211000000
0.0130713000000
0.0120673000000
0.0067154900000
-0.0025325800000
-0.0145561000000
-0.0270667000000
-0.0373132000000
-0.0431364000000
-0.0435137000000
-0.0385567000000
-0.0294358000000
-0.0179603000000
-0.0061545900000
0.0035484600000
0.0085056200000
0.0072673000000
0.0006023600000
-0.0086300200000
-0.0164424000000
-0.0192282000000
-0.0152583000000
-0.0054292300000
0.0069135300000
0.0173653000000
0.0229198000000
0.0233978000000
0.0208437000000
0.0178223000000
0.0160368000000
0.0160121000000
0.0176067000000
0.0203008000000
0.0235209000000
0.0268719000000
0.0300853000000
0.0328771000000
0.0344336000000
0.0337322000000
0.0298494000000
0.0221700000000
0.0111660000000
-0.0014884600000
-0.0126534000000
-0.0183841000000
-0.0166196000000
-0.0083754000000
0.0031191900000
0.0139249000000
0.0208664000000
0.0225419000000
0.0198520000000
0.0152320000000
0.0109512000000
0.0081863500000
0.0067970100000
0.0060127200000
0.0053745400000
0.0050153100000
0.0054663500000
0.0074685800000
0.0113839000000
0.0168635000000
0.0229378000000
0.0283732000000
0.0319130000000
0.0324521000000
0.0300611000000
0.0262444000000
0.0229875000000
0.0221125000000
0.0239827000000
0.0276887000000
0.0318277000000
0.0347807000000
0.0355458000000
0.0337995000000
0.0296064000000
0.0228257000000
0.0130540000000
-0.0000593542000
-0.0160228000000
-0.0333509000000
-0.0503116000000
-0.0650300000000
-0.0759223000000
-0.0824166000000
-0.0850554000000
-0.0849877000000
-0.0836604000000
-0.0823148000000
-0.0816506000000
-0.0819358000000
-0.0827137000000
-0.0827668000000
-0.0804856000000
-0.0744886000000
-0.0642835000000
-0.0507565000000
-0.0359135000000
-0.0219369000000
-0.0104657000000
-0.0021241300000
0.0036291900000
0.0082322900000
0.0131518000000
0.0193251000000
0.0271032000000
0.0364705000000
0.0471377000000
0.0585603000000
0.0698484000000
0.0793880000000
0.0854053000000
0.0867012000000
0.0829399000000
0.0749885000000
0.0647799000000
0.0546770000000
0.0466794000000
0.0420648000000
0.0408275000000
0.0420402000000
0.0443585000000
0.0458434000000
0.0450708000000
0.0415968000000
0.0360183000000
0.0297265000000
0.0240216000000
0.0198391000000
0.0177966000000
0.0177750000000
0.0188716000000
0.0198787000000
0.0198276000000
0.0177676000000
0.0127311000000
0.0042724100000
-0.0072270800000
-0.0202370000000
-0.0327101000000
-0.0426455000000
-0.0486263000000
-0.0506598000000
-0.0501059000000
-0.0490490000000
-0.0496627000000
-0.0535104000000
-0.0610512000000
-0.0717592000000
-0.0843504000000
-0.0972703000000
-0.1090250000000
-0.1182060000000
-0.1232910000000
-0.1234760000000
-0.1193170000000
-0.1127930000000
-0.1069700000000
-0.1048420000000
-0.1078360000000
-0.1153620000000
-0.1250570000000
-0.1331800000000
-0.1353730000000
-0.1285990000000
-0.1126270000000
-0.0901019000000
-0.0662107000000
-0.0472605000000
-0.0383156000000
-0.0417729000000
-0.0564817000000
-0.0779947000000
-0.0997579000000
-0.1155160000000
-0.1218660000000
-0.1190130000000
-0.1095290000000
-0.0965069000000
-0.0827230000000
-0.0695801000000
-0.0564347000000
-0.0419218000000
-0.0255957000000
-0.0082054200000
0.0085004300000
0.0224360000000
0.0322326000000
0.0382142000000
0.0424159000000
0.0476739000000
0.0567597000000
0.0712976000000
0.0907349000000
0.1128890000000
0.1345290000000
0.1520440000000
0.1626420000000
0.1656640000000
0.1626880000000
0.1566230000000
0.1507150000000
0.1477040000000
0.1488720000000
0.1543170000000
0.1629830000000
0.1721400000000
0.1779330000000
0.1770120000000
0.1682110000000
0.1523270000000
0.1308870000000
0.1050450000000
0.0758053000000
0.0448690000000
0.0149539000000
-0.0104918000000
-0.0278148000000
-0.0338639000000
-0.0278206000000
-0.0124571000000
0.0062260100000
0.0207009000000
0.0239687000000
0.0120239000000
-0.0147980000000
-0.0522477000000
-0.0936912000000
-0.1321730000000
-0.1619800000000
-0.1795450000000
-0.1839410000000
-0.1767800000000
-0.1610580000000
-0.1397320000000
-0.1158450000000
-0.0924615000000
-0.0715708000000
-0.0538725000000
-0.0393552000000
-0.0281552000000
-0.0203343000000
-0.0156201000000
-0.0130005000000
-0.0105568000000
-0.0054921900000
0.0049940200000
0.0227002000000
0.0475775000000
0.0771642000000
0.1070170000000
0.1321890000000
0.1488730000000
0.1556780000000
0.1537990000000
0.1460000000000
0.1357950000000
0.1264070000000
0.1193790000000
0.1146060000000
0.1110430000000
0.1070770000000
0.1011710000000
0.0930471000000
0.0839276000000
0.0756210000000
0.0705403000000
0.0705365000000
0.0757587000000
0.0847771000000
0.0951659000000
0.1043390000000
0.1104200000000
0.1120090000000
0.1074080000000
0.0941393000000
0.0700626000000
0.0352317000000
-0.0073762200000
-0.0532126000000
-0.0975981000000
-0.1362880000000
-0.1657730000000
-0.1837440000000
-0.1894650000000
-0.1835000000000
-0.1670840000000
-0.1422280000000
-0.1119250000000
-0.0794418000000
-0.0481226000000
-0.0220209000000
-0.0050096500000
0.0010935300000
-0.0025711100000
-0.0116829000000
-0.0202620000000
-0.0229711000000
-0.0170365000000
-0.0028467200000
0.0163620000000
0.0356518000000
0.0500004000000
0.0562096000000
0.0538089000000
0.0447320000000
0.0321005000000
0.0189313000000
0.0077558400000
-0.0001269410000
-0.0049970100000
-0.0080201600000
-0.0100267000000
-0.0109604000000
-0.0102387000000
-0.0073926000000
-0.0021022000000
0.0059883400000
0.0168943000000
0.0298676000000
0.0432455000000
0.0542767000000
0.0597910000000
0.0577331000000
0.0485916000000
0.0353527000000
0.0218653000000
0.0112690000000
0.0058614900000
0.0070187600000
0.0146104000000
0.0277016000000
0.0446867000000
0.0632236000000
0.0810341000000
0.0964366000000
0.1080890000000
0.1149710000000
0.1159280000000
0.1091570000000
0.0930469000000
0.0677707000000
0.0361373000000
0.0032709900000
-0.0244587000000
-0.0412033000000
-0.0434402000000
-0.0312632000000
-0.0087410400000
0.0170788000000
0.0382264000000
0.0482740000000
0.0439658000000
0.0253506000000
-0.0042726800000
-0.0391624000000
-0.0733852000000
-0.1022380000000
-0.1222890000000
-0.1306580000000
-0.1248270000000
-0.1036220000000
-0.0687928000000
-0.0253479000000
0.0198331000000
0.0591979000000
0.0858914000000
0.0952699000000
0.0863793000000
0.0627726000000
0.0315942000000
0.0019865500000
-0.0179722000000
-0.0237088000000
-0.0147638000000
0.0054274800000
0.0305240000000
0.0533105000000
0.0680195000000
0.0715965000000
0.0638236000000
0.0468020000000
0.0240697000000
-0.0006409350000
-0.0243859000000
-0.0451458000000
-0.0614643000000
-0.0723334000000
-0.0770812000000
-0.0753478000000
-0.0672406000000
-0.0536127000000
-0.0361760000000
-0.0176892000000
-0.0012740100000
0.0106200000000
0.0164076000000
0.0154571000000
0.0084936700000
-0.0024867400000
-0.0147642000000
-0.0257029000000
-0.0331915000000
-0.0359690000000
-0.0339412000000
-0.0282698000000
-0.0213327000000
-0.0157647000000
-0.0141590000000
-0.0188242000000
-0.0306371000000
-0.0485122000000
-0.0703960000000
-0.0939878000000
-0.1166200000000
-0.1360710000000
-0.1512080000000
-0.1618920000000
-0.1689900000000
-0.1741540000000
-0.1790690000000
-0.1847110000000
-0.1911580000000
-0.1979380000000
-0.2043290000000
-0.2091560000000
-0.2109810000000
-0.2083950000000
-0.2002290000000
-0.1861520000000
-0.1670350000000
-0.1452470000000
-0.1242070000000
-0.1072250000000
-0.0968624000000
-0.0944874000000
-0.0996172000000
-0.1097450000000
-0.1212730000000
-0.1305850000000
-0.1341730000000
-0.1290800000000
-0.1139630000000
-0.0892590000000
-0.0569746000000
-0.0205186000000
0.0162396000000
0.0501569000000
0.0793334000000
0.1029350000000
0.1211490000000
0.1351300000000
0.1463870000000
0.1563620000000
0.1664600000000
0.1775040000000
0.1894670000000
0.2019360000000
0.2142390000000
0.2254880000000
0.2347830000000
0.2410420000000
0.2432330000000
0.2412170000000
0.2356040000000
0.2275310000000
0.2187280000000
0.2110300000000
0.2047190000000
0.1976600000000
0.1865480000000
0.1686030000000
0.1430330000000
0.1120970000000
0.0803354000000
0.0525262000000
0.0317272000000
0.0184499000000
0.0109585000000
0.0060470700000
0.0003051280000
-0.0086596000000
-0.0216585000000
-0.0378655000000
-0.0552881000000
-0.0714752000000
-0.0840869000000
-0.0915886000000
-0.0935626000000
-0.0907806000000
-0.0849090000000
-0.0781377000000
-0.0721912000000
-0.0676513000000
-0.0644651000000
-0.0623981000000
-0.0609397000000
-0.0596968000000
-0.0588703000000
-0.0585007000000
-0.0586050000000
-0.0592810000000
-0.0604649000000
-0.0617029000000
-0.0624811000000
-0.0620651000000
-0.0592158000000
-0.0529854000000
-0.0437184000000
-0.0329693000000
-0.0227352000000
-0.0148586000000
-0.0108983000000
-0.0114107000000
-0.0155285000000
-0.0215627000000
-0.0275618000000
-0.0316614000000
-0.0321474000000
-0.0278052000000
-0.0185648000000
-0.0056888300000
0.0090018000000
0.0238578000000
0.0375935000000
0.0498002000000
0.0606679000000
0.0707203000000
0.0807865000000
0.0911788000000
0.1012480000000
0.1094520000000
0.1138640000000
0.1127370000000
0.1049920000000
0.0909544000000
0.0726545000000
0.0530031000000
0.0344777000000
0.0188767000000
0.0072474900000
-0.0004679430000
-0.0056010300000
-0.0099772100000
-0.0153000000000
-0.0224107000000
-0.0309093000000
-0.0393378000000
-0.0457696000000
-0.0485853000000
-0.0470033000000
-0.0417035000000
-0.0347171000000
-0.0286320000000
-0.0255336000000
-0.0265625000000
-0.0315708000000
-0.0391443000000
-0.0465621000000
-0.0508471000000
-0.0501533000000
-0.0440464000000
-0.0329231000000
-0.0179608000000
-0.0006763410000
0.0170121000000
0.0332175000000
0.0463029000000
0.0545102000000
0.0568808000000
0.0536930000000
0.0464298000000
0.0376991000000
0.0301081000000
0.0248774000000
0.0213818000000
0.0180332000000
0.0133031000000
0.0061145300000
-0.0034303200000
-0.0138914000000
-0.0233707000000
-0.0302643000000
-0.0335891000000
-0.0335601000000
-0.0314340000000
-0.0283312000000
-0.0242615000000
-0.0186597000000
-0.0108956000000
-0.0007242300000
0.0113480000000
0.0244572000000
0.0373260000000
0.0483109000000
0.0560615000000
0.0601439000000
0.0610259000000
0.0597157000000
0.0579436000000
0.0577532000000
0.0604872000000
0.0665653000000
0.0754462000000
0.0858779000000
0.0963812000000
0.1053560000000
0.1117020000000
0.1148040000000
0.1144450000000
0.1106900000000
0.1035390000000
0.0927657000000
0.0782903000000
0.0604129000000
0.0403827000000
0.0207007000000
0.0045212000000
-0.0052724100000
-0.0074900100000
-0.0038198500000
0.0017695700000
0.0047022200000
0.0009817820000
-0.0115292000000
-0.0322669000000
-0.0583120000000
-0.0852239000000
-0.1082360000000
-0.1235040000000
-0.1292160000000
-0.1262500000000
-0.1176910000000
-0.1074430000000
-0.0990467000000
-0.0945977000000
-0.0943453000000
-0.0970681000000
-0.1004390000000
-0.1017550000000
-0.0991364000000
-0.0919447000000
-0.0810320000000
-0.0685085000000
-0.0567815000000
-0.0482555000000
-0.0447050000000
-0.0461239000000
-0.0511568000000
-0.0577533000000
-0.0635693000000
-0.0662525000000
-0.0642506000000
-0.0572355000000
-0.0460928000000
-0.0322739000000
-0.0176625000000
-0.0044321100000
0.0058066800000
0.0123491000000
0.0151490000000
0.0145725000000
0.0111788000000
0.0057733300000
-0.0008202740000
-0.0079629400000
-0.0149411000000
-0.0209416000000
-0.0252212000000
-0.0272080000000
-0.0265747000000
-0.0237841000000
-0.0198625000000
-0.0159637000000
-0.0130652000000
-0.0117891000000
-0.0121859000000
-0.0132249000000
-0.0138321000000
-0.0135986000000
-0.0121337000000
-0.0091673100000
-0.0051869600000
-0.0015818300000
0.0000565135000
-0.0009479030000
-0.0041320100000
-0.0079992000000
-0.0102789000000
-0.0087752900000
-0.0023209400000
0.0089302700000
0.0235700000000
0.0393123000000
0.0532608000000
0.0629028000000
0.0667659000000
0.0644969000000
0.0570948000000
0.0467540000000
0.0361455000000
0.0278926000000
0.0242381000000
0.0264239000000
0.0341997000000
0.0457695000000
0.0583678000000
0.0691396000000
0.0762424000000
0.0790316000000
0.0778936000000
0.0743100000000
0.0702951000000
0.0672640000000
0.0657178000000
0.0657144000000
0.0669412000000
0.0690931000000
0.0719597000000
0.0753353000000
0.0789710000000
0.0824733000000
0.0848697000000
0.0846547000000
0.0799932000000
0.0695011000000
0.0529841000000
0.0314498000000
0.0073547500000
-0.0161459000000
-0.0363369000000
-0.0514925000000
-0.0608785000000
-0.0645194000000
-0.0632583000000
-0.0586960000000
-0.0530034000000
-0.0481064000000
-0.0446613000000
-0.0420843000000
-0.0394189000000
-0.0358788000000
-0.0308780000000
-0.0243706000000
-0.0170096000000
-0.0099738900000
-0.0042548600000
-0.0003648160000
0.0015617100000
0.0014993400000
-0.0004879600000
-0.0038538700000
-0.0075429800000
-0.0104163000000
-0.0113029000000
-0.0092421700000
-0.0039027700000
0.0039503400000
0.0122281000000
0.0179634000000
0.0180092000000
0.0102585000000
-0.0052112000000
-0.0256845000000
-0.0466581000000
-0.0633708000000
-0.0721939000000
-0.0715675000000
-0.0624699000000
-0.0481911000000
-0.0330922000000
-0.0215930000000
-0.0167860000000
-0.0191307000000
-0.0268873000000
-0.0368508000000
-0.0450493000000
-0.0481164000000
-0.0448290000000
-0.0362114000000
-0.0248387000000
-0.0140822000000
-0.0069939200000
-0.0052117900000
-0.0085391300000
-0.0149964000000
-0.0215507000000
-0.0254064000000
-0.0249854000000
-0.0202655000000
-0.0126845000000
-0.0046622700000
0.0014578800000
0.0042665300000
0.0038987900000
0.0017201100000
-0.0002650080000
-0.0005273720000
0.0015502300000
0.0052894500000
0.0088225100000
0.0101161000000
0.0079146300000
0.0025806900000
-0.0042498400000
-0.0105380000000
-0.0143193000000
-0.0141739000000
-0.0094923700000
-0.0006562380000
0.0114115000000
0.0255835000000
0.0404677000000
0.0542033000000
0.0645523000000
0.0695473000000
0.0681185000000
0.0606601000000
0.0495781000000
0.0388496000000
0.0322196000000
0.0316852000000
0.0373514000000
0.0475718000000
0.0593873000000
0.0689780000000
0.0729955000000
0.0699999000000
0.0603402000000
0.0457777000000
0.0294625000000
0.0149569000000
0.0047242300000
-0.0000701592000
0.0006444280000
0.0055240900000
0.0121469000000
0.0181467000000
0.0221088000000
0.0233155000000
0.0218995000000
0.0187339000000
0.0145079000000
0.0095262300000
0.0039516200000
-0.0020082200000
-0.0080386500000
-0.0137687000000
-0.0188982000000
-0.0231126000000
-0.0262644000000
-0.0285842000000
-0.0300587000000
-0.0301427000000
-0.0285858000000
-0.0256650000000
-0.0218935000000
-0.0179607000000
-0.0143291000000
-0.0112196000000
-0.0089071000000
-0.0073455500000
-0.0060836600000
-0.0050113900000
-0.0046956600000
-0.0058255100000
-0.0084446000000
-0.0118049000000
-0.0148292000000
-0.0163030000000
-0.0154864000000
-0.0127061000000
-0.0087699300000
-0.0046656300000
-0.0016348300000
-0.0006007350000
-0.0019547700000
-0.0057587900000
-0.0111990000000
-0.0167627000000
-0.0213758000000
-0.0245259000000
-0.0257931000000
-0.0248958000000
-0.0221785000000
-0.0184030000000
-0.0143020000000
-0.0106180000000
-0.0082031400000
-0.0077502400000
-0.0094555400000
-0.0127136000000
-0.0166446000000
-0.0206665000000
-0.0242737000000
-0.0265843000000
-0.0266726000000
-0.0240414000000
-0.0189733000000
-0.0127041000000
-0.0065220300000
-0.0010932600000
0.0031437500000
0.0061311200000
0.0081321500000
0.0094748300000
0.0104509000000
0.0113150000000
0.0121800000000
0.0130526000000
0.0141701000000
0.0159535000000
0.0187057000000
0.0225188000000
0.0269396000000
0.0306894000000
0.0318973000000
0.0290937000000
0.0216143000000
0.0097546400000
-0.0048288000000
-0.0195632000000
-0.0319998000000
-0.0405600000000
-0.0450223000000
-0.0461238000000
-0.0451115000000
-0.0432386000000
-0.0415273000000
-0.0404799000000
-0.0396751000000
-0.0383456000000
-0.0364096000000
-0.0342520000000
-0.0321120000000
-0.0305536000000
-0.0298219000000
-0.0295441000000
-0.0287760000000
-0.0265389000000
-0.0222712000000
-0.0159517000000
-0.0078301700000
0.0018055400000
0.0126396000000
0.0239872000000
0.0346325000000
0.0432743000000
0.0491762000000
0.0521702000000
0.0523898000000
0.0504640000000
0.0472572000000
0.0435517000000
0.0398532000000
0.0363830000000
0.0333911000000
0.0309551000000
0.0285472000000
0.0255236000000
0.0219666000000
0.0179786000000
0.0133771000000
0.0081925200000
0.0031616200000
-0.0005434740000
-0.0023647900000
-0.0025574900000
-0.0014713100000
0.0003983050000
0.0024512300000
0.0038103200000
0.0034528800000
0.0009275580000
-0.0036028200000
-0.0094674100000
-0.0152953000000
-0.0192848000000
-0.0199814000000
-0.0171702000000
-0.0122295000000
-0.0075670700000
-0.0056409800000
-0.0077473000000
-0.0136513000000
-0.0218413000000
-0.0299621000000
-0.0358373000000
-0.0382258000000
-0.0370631000000
-0.0334043000000
-0.0291492000000
-0.0264027000000
-0.0266612000000
-0.0301676000000
-0.0360262000000
-0.0424985000000
-0.0474964000000
-0.0491330000000
-0.0462025000000
-0.0388368000000
-0.0289452000000
-0.0195924000000
-0.0133818000000
-0.0120106000000
-0.0163214000000
-0.0252504000000
-0.0362247000000
-0.0463288000000
-0.0529830000000
-0.0542539000000
-0.0495036000000
-0.0397464000000
-0.0273782000000
-0.0153463000000
-0.0060598100000
-0.0009462130000
-0.0005353480000
-0.0043196300000
-0.0104810000000
-0.0166210000000
-0.0210945000000
-0.0235402000000
-0.0241281000000
-0.0233466000000
-0.0219970000000
-0.0204508000000
-0.0182973000000
-0.0144742000000
-0.0079597800000
0.0011065700000
0.0110815000000
0.0193975000000
0.0237901000000
0.0230544000000
0.0170372000000
0.0072368700000
-0.0035013800000
-0.0121234000000
-0.0160098000000
-0.0137545000000
-0.0057031000000
0.0066497700000
0.0212594000000
0.0355317000000
0.0470271000000
0.0541655000000
0.0560261000000
0.0523138000000
0.0439613000000
0.0336065000000
0.0236785000000
0.0154982000000
0.0097541200000
0.0066727400000
0.0057463400000
0.0059271700000
0.0063789400000
0.0068830300000
0.0075066500000
0.0082771200000
0.0089333600000
0.0085996800000
0.0061376300000
0.0009383220000
-0.0064233600000
-0.0143970000000
-0.0208569000000
-0.0236938000000
-0.0216715000000
-0.0146708000000
-0.0039939000000
0.0081227000000
0.0193934000000
0.0280040000000
0.0329178000000
0.0341800000000
0.0325202000000
0.0289943000000
0.0248503000000
0.0213420000000
0.0196501000000
0.0204935000000
0.0240992000000
0.0301029000000
0.0375357000000
0.0451598000000
0.0517192000000
0.0560723000000
0.0577250000000
0.0569453000000
0.0543089000000
0.0505085000000
0.0463057000000
0.0424628000000
0.0394007000000
0.0372343000000
0.0361990000000
0.0363448000000
0.0375099000000
0.0395532000000
0.0422913000000
0.0455632000000
0.0488941000000
0.0519060000000
0.0544467000000
0.0563122000000
0.0572479000000
0.0570633000000
0.0555624000000
0.0526090000000
0.0483825000000
0.0433478000000
0.0379427000000
0.0328795000000
0.0292069000000
0.0276280000000
0.0283459000000
0.0311687000000
0.0351567000000
0.0385179000000
0.0391456000000
0.0354230000000
0.0270526000000
0.0152755000000
0.0021111100000
-0.0101114000000
-0.0189615000000
-0.0233474000000
-0.0237964000000
-0.0218245000000
-0.0192034000000
-0.0172692000000
-0.0166554000000
-0.0175735000000
-0.0198529000000
-0.0226740000000
-0.0251480000000
-0.0268235000000
-0.0273326000000
-0.0262069000000
-0.0233059000000
-0.0189415000000
-0.0141686000000
-0.0104263000000
-0.0087937200000
-0.0097888600000
-0.0131599000000
-0.0178089000000
-0.0219977000000
-0.0238763000000
-0.0222662000000
-0.0173174000000
-0.0098947800000
-0.0013383600000
0.0066290400000
0.0125171000000
0.0156127000000
0.0157610000000
0.0132560000000
0.0088923200000
0.0038371200000
-0.0009027100000
-0.0045453100000
-0.0066702600000
-0.0072584100000
-0.0067453200000
-0.0058431400000
-0.0053066300000
-0.0058426000000
-0.0077133300000
-0.0109871000000
-0.0154192000000
-0.0202837000000
-0.0247178000000
-0.0280267000000
-0.0299232000000
-0.0306396000000
-0.0307582000000
-0.0311104000000
-0.0326166000000
-0.0357149000000
-0.0402391000000
-0.0453324000000
-0.0497814000000
-0.0522249000000
-0.0517657000000
-0.0482544000000
-0.0423323000000
-0.0355232000000
-0.0299482000000
-0.0272842000000
-0.0279556000000
-0.0315237000000
-0.0365167000000
-0.0402127000000
-0.0397624000000
-0.0337357000000
-0.0225558000000
-0.0083456200000
0.0059275100000
0.0173823000000
0.0241744000000
0.0255903000000
0.0227923000000
0.0182961000000
0.0143776000000
0.0123119000000
0.0120560000000
0.0125786000000
0.0126632000000
0.0114995000000
0.0090989700000
0.0063958900000
0.0048394900000
0.0055106100000
0.0083792900000
0.0125205000000
0.0165163000000
0.0186765000000
0.0179416000000
0.0141797000000
0.0082269300000
0.0018464000000
-0.0026632600000
-0.0035192900000
-0.0002016180000
0.0063072500000
0.0139093000000
0.0199089000000
0.0218773000000
0.0186353000000
0.0109359000000
0.0008531470000
-0.0091217300000
-0.0167322000000
-0.0209050000000
-0.0221283000000
-0.0217762000000
-0.0209406000000
-0.0203887000000
-0.0205206000000
-0.0211340000000
-0.0217219000000
-0.0217192000000
-0.0208285000000
-0.0191535000000
-0.0168111000000
-0.0138405000000
-0.0104215000000
-0.0068628800000
-0.0036416500000
-0.0011576900000
0.0007610700000
0.0024907500000
0.0040315700000
0.0051523800000
0.0058639300000
0.0062579100000
0.0064830600000
0.0067276100000
0.0069963600000
0.0071890200000
0.0069511200000
0.0057285100000
0.0031412000000
-0.0004452410000
-0.0039874000000
-0.0063625300000
-0.0065793500000
-0.0042602300000
-0.0001569780000
0.0041996800000
0.0074223600000
0.0083587300000
0.0066070400000
0.0030070500000
-0.0008361360000
-0.0033498800000
-0.0031956200000
0.0002731230000
0.0063150700000
0.0129592000000
0.0178836000000
0.0191453000000
0.0158369000000
0.0085237700000
-0.0009694510000
-0.0102948000000
-0.0175146000000
-0.0214603000000
-0.0216146000000
-0.0186090000000
-0.0140288000000
-0.0094905900000
-0.0059627200000
-0.0039837300000
-0.0036120400000
-0.0046711500000
-0.0069690500000
-0.0100629000000
-0.0132643000000
-0.0158045000000
-0.0169160000000
-0.0158293000000
-0.0120423000000
-0.0060720400000
0.0007279190000
0.0067245100000
0.0104307000000
0.0110242000000
0.0084124400000
0.0034269700000
-0.0022463400000
-0.0068937500000
-0.0094240000000
-0.0097427400000
-0.0081048900000
-0.0050791700000
-0.0016241200000
0.0015563800000
0.0043037200000
0.0068849700000
0.0096854300000
0.0131983000000
0.0176905000000
0.0230068000000
0.0285751000000
0.0335810000000
0.0372732000000
0.0394595000000
0.0400228000000
0.0390266000000
0.0370695000000
0.0348330000000
0.0329196000000
0.0314767000000
0.0305300000000
0.0301651000000
0.0303675000000
0.0308443000000
0.0309285000000
0.0301923000000
0.0286973000000
0.0267231000000
0.0246160000000
0.0225406000000
0.0204570000000
0.0182216000000
0.0156874000000
0.0127335000000
0.0093313600000
0.0057368600000
0.0022963500000
-0.0005036800000
-0.0024882300000
-0.0037936000000
-0.0043453500000
-0.0040264200000
-0.0029296400000
-0.0007790680000
0.0022179000000
0.0051502800000
0.0072092800000
0.0078840600000
0.0069552300000
0.0045568500000
0.0010942500000
-0.0028815700000
-0.0066089300000
-0.0094018800000
-0.0110091000000
-0.0116983000000
-0.0118643000000
-0.0117642000000
-0.0115133000000
-0.0112847000000
-0.0113828000000
-0.0120099000000
-0.0134083000000
-0.0158360000000
-0.0190037000000
-0.0222642000000
-0.0248973000000
-0.0261715000000
-0.0257598000000
-0.0237671000000
-0.0207514000000
-0.0176503000000
-0.0153484000000
-0.0145160000000
-0.0154949000000
-0.0180736000000
-0.0215536000000
-0.0248019000000
-0.0263759000000
-0.0251966000000
-0.0209549000000
-0.0139184000000
-0.0052110800000
0.0034326000000
0.0100111000000
0.0130905000000
0.0120858000000
0.0072230800000
-0.0004657420000
-0.0092982500000
-0.0174534000000
-0.0235245000000
-0.0269632000000
-0.0276857000000
-0.0261355000000
-0.0236475000000
-0.0216215000000
-0.0211401000000
-0.0226796000000
-0.0261375000000
-0.0309275000000
-0.0362041000000
-0.0411844000000
-0.0453719000000
-0.0486775000000
-0.0511104000000
-0.0527729000000
-0.0536443000000
-0.0538124000000
-0.0532163000000
-0.0516190000000
-0.0489202000000
-0.0449079000000
-0.0396123000000
-0.0334096000000
-0.0267482000000
-0.0201923000000
-0.0145636000000
-0.0108447000000
-0.0094772600000
-0.0102291000000
-0.0124663000000
-0.0150830000000
-0.0166632000000
-0.0159058000000
-0.0120103000000
-0.0050388900000
0.0040703900000
0.0137923000000
0.0222681000000
0.0278117000000
0.0297605000000
0.0291248000000
0.0274280000000
0.0261457000000
0.0263706000000
0.0285882000000
0.0325955000000
0.0371964000000
0.0408721000000
0.0426114000000
0.0420020000000
0.0392997000000
0.0353738000000
0.0311903000000
0.0274077000000
0.0242307000000
0.0214440000000
0.0185211000000
0.0149462000000
0.0105404000000
0.0054659500000
0.0000966193000
-0.0049446500000
-0.0086723600000
-0.0099962400000
-0.0083295400000
-0.0038369200000
0.0028943300000
0.0108551000000
0.0186106000000
0.0247967000000
0.0284092000000
0.0289989000000
0.0265159000000
0.0217477000000
0.0162648000000
0.0118547000000
0.0100411000000
0.0114431000000
0.0162824000000
0.0238536000000
0.0321302000000
0.0390329000000
0.0428837000000
0.0425400000000
0.0375735000000
0.0284575000000
0.0170518000000
0.0060356900000
-0.0022127400000
-0.0063797500000
-0.0062009000000
-0.0023292600000
0.0038012300000
0.0102299000000
0.0150787000000
0.0171210000000
0.0158998000000
0.0120218000000
0.0068995100000
0.0018899800000
-0.0019039600000
-0.0036588200000
-0.0033594500000
-0.0017210400000
0.0001635500000
0.0009169760000
-0.0001923300000
-0.0025604600000
-0.0050710800000
-0.0068488400000
-0.0071602600000
-0.0056040100000
-0.0023912800000
0.0017064400000
0.0057591500000
0.0087848200000
0.0102915000000
0.0105402000000
0.0098190900000
0.0082272200000
0.0059916900000
0.0037967800000
0.0023878300000
0.0020192100000
0.0027886900000
0.0047460700000
0.0075629500000
0.0104579000000
0.0121961000000
0.0115310000000
0.0079144300000
0.0018038800000
-0.0057602700000
-0.0133577000000
-0.0191384000000
-0.0219927000000
-0.0220194000000
-0.0198839000000
-0.0164924000000
-0.0130369000000
-0.0105193000000
-0.0094521700000
-0.0097833500000
-0.0112292000000
-0.0136650000000
-0.0165229000000
-0.0186290000000
-0.0189392000000
-0.0168576000000
-0.0122485000000
-0.0057013600000
0.0015456800000
0.0076559700000
0.0107923000000
0.0101170000000
0.0060529200000
-0.0001277970000
-0.0065725200000
-0.0112849000000
-0.0128691000000
-0.0109324000000
-0.0061876600000
-0.0001584070000
0.0056600000000
0.0101394000000
0.0124704000000
0.0121062000000
0.0093876300000
0.0056952600000
0.0024131100000
0.0006277640000
0.0011334200000
0.0040955600000
0.0089127700000
0.0141344000000
0.0177869000000
0.0187324000000
0.0170023000000
0.0131643000000
0.0082112400000
0.0034660100000
-0.0000778622000
-0.0020920300000
-0.0030486500000
-0.0039468700000
-0.0057783200000
-0.0090891600000
-0.0141214000000
-0.0207696000000
-0.0281375000000
-0.0349010000000
-0.0398849000000
-0.0423813000000
-0.0420639000000
-0.0390554000000
-0.0339530000000
-0.0280721000000
-0.0229958000000
-0.0197984000000
-0.0188670000000
-0.0199139000000
-0.0221613000000
-0.0243945000000
-0.0253019000000
-0.0240647000000
-0.0207304000000
-0.0159191000000
-0.0102288000000
-0.0044154600000
0.0006495350000
0.0043153200000
0.0065822700000
0.0073527600000
0.0065509100000
0.0045820900000
0.0023776600000
0.0006663320000
-0.0003209370000
-0.0002344420000
0.0011263400000
0.0032728000000
0.0052442800000
0.0063327000000
0.0062713500000
0.0052725300000
0.0038021300000
0.0022978700000
0.0014041000000
0.0011638400000
0.0010446900000
0.0005083540000
-0.0005792110000
-0.0020460500000
-0.0035778000000
-0.0046597500000
-0.0046322200000
-0.0030267300000
0.0001174290000
0.0044552500000
0.0092838400000
0.0136660000000
0.0169050000000
0.0186879000000
0.0190934000000
0.0187428000000
0.0180418000000
0.0172823000000
0.0169977000000
0.0175450000000
0.0188511000000
0.0206461000000
0.0224696000000
0.0238308000000
0.0245556000000
0.0245597000000
0.0237930000000
0.0224046000000
0.0205585000000
0.0183452000000
0.0158750000000
0.0131890000000
0.0102877000000
0.0074321000000
0.0049925200000
0.0032117400000
0.0021924400000
0.0019953200000
0.0024264400000
0.0027846600000
0.0024802200000
0.0014012500000
-0.0005944340000
-0.0037366300000
-0.0076992000000
-0.0115816000000
-0.0144363000000
-0.0160472000000
-0.0164931000000
-0.0157485000000
-0.0139264000000
-0.0114708000000
-0.0092050200000
-0.0078219600000
-0.0075100900000
-0.0081368700000
-0.0092666800000
-0.0104000000000
-0.0110001000000
-0.0104955000000
-0.0085610700000
-0.0053147600000
-0.0010764400000
0.0036211500000
0.0080549500000
0.0114457000000
0.0131061000000
0.0126834000000
0.0104879000000
0.0070644300000
0.0029319500000
-0.0011376600000
-0.0044074500000
-0.0064191900000
-0.0070704900000
-0.0063864600000
-0.0046339400000
-0.0025548500000
-0.0007011590000
0.0007173660000
0.0014899100000
0.0012780000000
0.0000112147000
-0.0017398700000
-0.0030915900000
-0.0031239200000
-0.0016459600000
0.0009348910000
0.0042071100000
0.0075089800000
0.0097738600000
0.0102005000000
0.0088221600000
0.0057925700000
0.0016087500000
-0.0027144100000
-0.0061050700000
-0.0079339400000
-0.0081709300000
-0.0072098500000
-0.0056388700000
-0.0039662000000
-0.0026759700000
-0.0020342600000
-0.0015164000000
-0.0007308180000
0.0003364640000
0.0017704000000
0.0035619900000
0.0056501900000
0.0076756200000
0.0090646000000
0.0094072800000
0.0085931700000
0.0067972200000
0.0044978600000
0.0023222100000
0.0007972240000
0.0002996930000
0.0007209510000
0.0016221900000
0.0024470300000
0.0026862900000
0.0020828400000
0.0006337040000
-0.0011338500000
-0.0023350900000
-0.0022201900000
-0.0004268750000
0.0029804800000
0.0075501100000
0.0126625000000
0.0173719000000
0.0205711000000
0.0215325000000
0.0203881000000
0.0177352000000
0.0140516000000
0.0098600400000
0.0058533800000
0.0027250000000
0.0006343500000
-0.0005451400000
-0.0008021680000
-0.0002341980000
0.0007994030000
0.0016091600000
0.0016079400000
0.0005425280000
-0.0015446600000
-0.0044494100000
-0.0077590500000
-0.0107424000000
-0.0126215000000
-0.0131273000000
-0.0123336000000
-0.0104271000000
-0.0078587000000
-0.0051884500000
-0.0027957400000
-0.0007412440000
0.0009663190000
0.0023477100000
0.0038350000000
0.0056814400000
0.0076938600000
0.0098743200000
0.0123277000000
0.0146113000000
0.0159503000000
0.0158026000000
0.0139481000000
0.0103672000000
0.0054899700000
0.0003003140000
-0.0046721000000
-0.0092302400000
-0.0130335000000
-0.0159374000000
-0.0181802000000
-0.0200785000000
-0.0217322000000
-0.0229374000000
-0.0236431000000
-0.0239615000000
-0.0238560000000
-0.0233074000000
-0.0227290000000
-0.0226143000000
-0.0226639000000
-0.0224699000000
-0.0219044000000
-0.0208521000000
-0.0191486000000
-0.0166890000000
-0.0139968000000
-0.0120041000000
-0.0110763000000
-0.0108732000000
-0.0108354000000
-0.0103536000000
-0.0090046700000
-0.0065389600000
-0.0029330400000
0.0011405200000
0.0046745800000
0.0069471300000
0.0078110100000
0.0073221700000
0.0056723000000
0.0036706500000
0.0027183600000
0.0035417100000
0.0058203500000
0.0090973800000
0.0126438000000
0.0154004000000
0.0164492000000
0.0153692000000
0.0122177000000
0.0077491600000
0.0029136200000
-0.0016876800000
-0.0055251100000
-0.0082912700000
-0.0098735000000
-0.0103850000000
-0.0099288400000
-0.0085109600000
-0.0064131500000
-0.0042812300000
-0.0026145100000
-0.0015811000000
-0.0011670100000
-0.0012074200000
-0.0014445800000
-0.0015154700000
-0.0008931050000
0.0009373550000
0.0038643700000
0.0073333300000
0.0109573000000
0.0143224000000
0.0169628000000
0.0185951000000
0.0192158000000
0.0190046000000
0.0181366000000
0.0168841000000
0.0156907000000
0.0147586000000
0.0140690000000
0.0134529000000
0.0127034000000
0.0118617000000
0.0110950000000
0.0104833000000
0.0098219500000
0.0088882600000
0.0073504000000
0.0049823800000
0.0020020900000
-0.0013704400000
-0.0048938300000
-0.0079416600000
-0.0096656000000
-0.0094644900000
-0.0075515000000
-0.0044238000000
-0.0005188080000
0.0033153800000
0.0063489100000
0.0083201000000
0.0091069000000
0.0085943100000
0.0075955600000
0.0070632100000
0.0071638500000
0.0078443300000
0.0093107700000
0.0113633000000
0.0134213000000
0.0149244000000
0.0154618000000
0.0149599000000
0.0135572000000
0.0115219000000
0.0092288300000
0.0070233800000
0.0049531800000
0.0027798200000
0.0003341900000
-0.0022106200000
-0.0046262400000
-0.0069627200000
-0.0090929200000
-0.0107421000000
-0.0117951000000
-0.0121870000000
-0.0120435000000
-0.0113005000000
-0.0097551400000
-0.0074366900000
-0.0045909700000
-0.0014608900000
0.0017872100000
0.0047253200000
0.0069723900000
0.0085577100000
0.0096171300000
0.0100490000000
0.0098681600000
0.0092652300000
0.0083678300000
0.0072186900000
0.0055886000000
0.0031225900000
-0.0001417320000
-0.0039271000000
-0.0078140200000
-0.0115892000000
-0.0152374000000
-0.0183385000000
-0.0203517000000
-0.0210220000000
-0.0207294000000
-0.0197363000000
-0.0180506000000
-0.0157341000000
-0.0130022000000
-0.0097025900000
-0.0055849200000
-0.0007322350000
0.0045395200000
0.0096323500000
0.0141050000000
0.0174163000000
0.0190925000000
0.0192018000000
0.0181307000000
0.0163560000000
0.0143373000000
0.0124256000000
0.0110810000000
0.0104127000000
0.0101201000000
0.0098751000000
0.0095172100000
0.0089848400000
0.0082558600000
0.0072693800000
0.0059475300000
0.0044754600000
0.0031880400000
0.0021792000000
0.0012741700000
0.0004784610000
-0.0000498211000
-0.0003389530000
-0.0004167130000
-0.0004000450000
-0.0004913420000
-0.0006478670000
-0.0008815540000
-0.0013209400000
-0.0016719100000
-0.0014484800000
-0.0005497380000
0.0007405100000
0.0024814300000
0.0044192800000
0.0058778900000
0.0063670500000
0.0057148700000
0.0041161800000
0.0021013100000
0.0003444750000
-0.0005408200000
-0.0000237885000
0.0019884700000
0.0049566500000
0.0082395500000
0.0113496000000
0.0137509000000
0.0148184000000
0.0144280000000
0.0131383000000
0.0115719000000
0.0100468000000
0.0084841600000
0.0069658000000
0.0058385500000
0.0050923800000
0.0043003800000
0.0032181300000
0.0018038000000
-0.0000519451000
-0.0027377200000
-0.0062185200000
-0.0100163000000
-0.0137841000000
-0.0171498000000
-0.0198055000000
-0.0217035000000
-0.0226242000000
-0.0223829000000
-0.0210631000000
-0.0190022000000
-0.0164841000000
-0.0137390000000
-0.0111226000000
-0.0090073700000
-0.0074352200000
-0.0062606700000
-0.0054157200000
-0.0046936800000
-0.0038123500000
-0.0025515700000
-0.0008119800000
0.0011890700000
0.0029983400000
0.0042736700000
0.0048172200000
0.0045286300000
0.0032359100000
0.0010705200000
-0.0015479800000
-0.0040194300000
-0.0061351100000
-0.0077136200000
-0.0083977000000
-0.0083976500000
-0.0083107200000
-0.0084230800000
-0.0088698000000
-0.0098564600000
-0.0113675000000
-0.0129664000000
-0.0141815000000
-0.0146190000000
-0.0140924000000
-0.0126469000000
-0.0105533000000
-0.0082441100000
-0.0059712700000
-0.0040428300000
-0.0026889900000
-0.0019223000000
-0.0015112200000
-0.0011277200000
-0.0005482620000
0.0004484290000
0.0020991300000
0.0043685200000
0.0068752200000
0.0093454400000
0.0118320000000
0.0141633000000
0.0157414000000
0.0159739000000
0.0147581000000
0.0123529000000
0.0088836100000
0.0048238800000
0.0007420000000
-0.0029898500000
-0.0060331700000
-0.0081065900000
-0.0091741900000
-0.0096957600000
-0.0102287000000
-0.0113252000000
-0.0129743000000
-0.0149951000000
-0.0172862000000
-0.0196446000000
-0.0216114000000
-0.0227985000000
-0.0232483000000
-0.0231515000000
-0.0223693000000
-0.0205439000000
-0.0175095000000
-0.0133508000000
-0.0082520000000
-0.0026876700000
0.0025976800000
0.0067728700000
0.0093281800000
0.0102453000000
0.0099696000000
0.0092902300000
0.0090350400000
0.0098754500000
0.0121992000000
0.0156473000000
0.0192510000000
0.0218261000000
0.0227693000000
0.0219529000000
0.0193692000000
0.0153498000000
0.0106176000000
0.0059837300000
0.0023237500000
0.0003466150000
0.0001554930000
0.0015434100000
0.0039650100000
0.0062960800000
0.0076149200000
0.0077750700000
0.0068126900000
0.0047663000000
0.0020864100000
-0.0004203210000
-0.0018601900000
-0.0016901100000
-0.0000916524000
0.0024600900000
0.0052686400000
0.0074587300000
0.0080509100000
0.0066212100000
0.0036432900000
-0.0000451753000
-0.0036655200000
-0.0063473600000
-0.0069906900000
-0.0054180800000
-0.0023735400000
0.0012402800000
0.0045849000000
0.0067276300000
0.0069731100000
0.0052203600000
0.0018555900000
-0.0023626300000
-0.0064301900000
-0.0093914500000
-0.0106324000000
-0.0100979000000
-0.0082476600000
-0.0059874400000
-0.0042162700000
-0.0035734800000
-0.0042783900000
-0.0064062200000
-0.0098911200000
-0.0138503000000
-0.0169446000000
-0.0182195000000
-0.0174676000000
-0.0149564000000
-0.0108910000000
-0.0058901200000
-0.0009973180000
0.0027488000000
0.0047911200000
0.0050148900000
0.0035494900000
0.0010978900000
-0.0014507100000
-0.0033453700000
-0.0041231600000
-0.0036031800000
-0.0019178700000
0.0005150210000
0.0029796200000
0.0046151200000
0.0047431600000
0.0032611200000
0.0002706650000
-0.0040067800000
-0.0088560400000
-0.0132963000000
-0.0166245000000
-0.0183605000000
-0.0182653000000
-0.0164630000000
-0.0134830000000
-0.0100027000000
-0.0067382600000
-0.0042610700000
-0.0028442400000
-0.0024189000000
-0.0027226500000
-0.0033910000000
-0.0036094600000
-0.0027729900000
-0.0010302900000
0.0014755700000
0.0047751300000
0.0080068200000
0.0100165000000
0.0101958000000
0.0085988700000
0.0057608800000
0.0023480300000
-0.0009970920000
-0.0033572600000
-0.0039877100000
-0.0029436800000
-0.0010012300000
0.0011292000000
0.0029217200000
0.0038317800000
0.0035568200000
0.0020016800000
-0.0004509660000
-0.0031831400000
-0.0058062000000
-0.0078483100000
-0.0088172200000
-0.0085450000000
-0.0071243300000
-0.0047137100000
-0.0017350100000
0.0011901400000
0.0035421200000
0.0049890600000
0.0054702600000
0.0052086700000
0.0047777400000
0.0047438800000
0.0055386900000
0.0071910500000
0.0095640900000
0.0123169000000
0.0146386000000
0.0159979000000
0.0165810000000
0.0162836000000
0.0150628000000
0.0134250000000
0.0119473000000
0.0108034000000
0.0099370200000
0.0093160600000
0.0087085000000
0.0077917800000
0.0063368600000
0.0044231100000
0.0023658400000
0.0006751060000
-0.0002385630000
-0.0002096710000
0.0005557960000
0.0017251900000
0.0030494700000
0.0040823300000
0.0043741300000
0.0036578600000
0.0018853800000
-0.0004686820000
-0.0027358000000
-0.0044938100000
-0.0055816400000
-0.0059166700000
-0.0055034400000
-0.0047903900000
-0.0040395900000
-0.0032855500000
-0.0028585400000
-0.0030275200000
-0.0036495400000
-0.0045726800000
-0.0057271700000
-0.0067071900000
-0.0070979200000
-0.0068893700000
-0.0062590100000
-0.0053079100000
-0.0041377200000
-0.0030976500000
-0.0025748900000
-0.0027419200000
-0.0034854900000
-0.0044960200000
-0.0054541200000
-0.0062772500000
-0.0068456400000
-0.0070012200000
-0.0068856600000
-0.0067385800000
-0.0067921700000
-0.0070754500000
-0.0074394700000
-0.0076446800000
-0.0075140000000
-0.0071336400000
-0.0066943600000
-0.0063946000000
-0.0065773500000
-0.0073946000000
-0.0082892000000
-0.0089942100000
-0.0095738000000
-0.0098512600000
-0.0095724800000
-0.0088493600000
-0.0079728800000
-0.0070171000000
-0.0059343000000
-0.0046400800000
-0.0030944700000
-0.0015885300000
-0.0003575110000
0.0005456950000
0.0011596000000
0.0015138700000
0.0016610700000
0.0017886300000
0.0022362600000
0.0030729300000
0.0040671700000
0.0050624000000
0.0060046800000
0.0069753400000
0.0076983100000
0.0078629400000
0.0075287400000
0.0069622100000
0.0064313100000
0.0060290700000
0.0056489600000
0.0052791700000
0.0050614300000
0.0048288500000
0.0043191100000
0.0035661500000
0.0027899900000
0.0021637900000
0.0017492700000
0.0018597300000
0.0025827200000
0.0036477300000
0.0047942800000
0.0059801400000
0.0069994700000
0.0077122700000
0.0080920600000
0.0079966500000
0.0074613100000
0.0067429100000
0.0059800300000
0.0052463200000
0.0047333500000
0.0046032800000
0.0049682800000
0.0057789200000
0.0066527000000
0.0071518500000
0.0068419800000
0.0057293500000
0.0044224200000
0.0034565800000
0.0031752300000
0.0039329300000
0.0057142900000
0.0080700100000
0.0102089000000
0.0111854000000
0.0105328000000
0.0083680300000
0.0051707200000
0.0015204700000
-0.0017254000000
-0.0037816300000
-0.0043771500000
-0.0041405200000
-0.0039295000000
-0.0041307600000
-0.0048157500000
-0.0058364200000
-0.0068521700000
-0.0077062200000
-0.0080140600000
-0.0073527900000
-0.0061113600000
-0.0049738100000
-0.0040367400000
-0.0034112800000
-0.0034077800000
-0.0038850500000
-0.0045385900000
-0.0053134600000
-0.0060064300000
-0.0063163000000
-0.0060847700000
-0.0052196700000
-0.0038121600000
-0.0021900000000
-0.0009330990000
-0.0003382680000
-0.0002589980000
-0.0006072240000
-0.0013856000000
-0.0023012200000
-0.0029984900000
-0.0031914000000
-0.0029158900000
-0.0025482200000
-0.0020535500000
-0.0014607700000
-0.0009409350000
-0.0003218830000
0.0005008760000
0.0014454800000
0.0022528200000
0.0026219200000
0.0025195400000
0.0018698500000
0.0005595350000
-0.0011957200000
-0.0029622500000
-0.0043027600000
-0.0047762300000
-0.0041645100000
-0.0027262200000
-0.0007273810000
0.0013396000000
0.0028094700000
0.0035132100000
0.0035853600000
0.0033312700000
0.0032530800000
0.0036672000000
0.0045826700000
0.0057620600000
0.0069472000000
0.0078283100000
0.0083712800000
0.0088786000000
0.0096316500000
0.0107666000000
0.0123551000000
0.0141671000000
0.0156286000000
0.0163645000000
0.0163429000000
0.0157647000000
0.0148885000000
0.0139400000000
0.0132073000000
0.0128987000000
0.0127379000000
0.0123271000000
0.0114708000000
0.0101769000000
0.0084899100000
0.0064492200000
0.0044609900000
0.0030712000000
0.0024631800000
0.0025185800000
0.0028661400000
0.0032039700000
0.0034452300000
0.0035427200000
0.0033370900000
0.0026827900000
0.0021365000000
0.0019513100000
0.0015433300000
0.0008892550000
0.0005873920000
0.0007591840000
0.0011210900000
0.0013598300000
0.0013584300000
0.0011881100000
0.0007339830000
-0.0002829460000
-0.0019207300000
-0.0039057200000
-0.0059290900000
-0.0078753800000
-0.0097304700000
-0.0113702000000
-0.0122500000000
-0.0122290000000
-0.0117338000000
-0.0112429000000
-0.0109014000000
-0.0106802000000
-0.0106778000000
-0.0108703000000
-0.0110901000000
-0.0109897000000
-0.0103454000000
-0.0092321100000
-0.0078213800000
-0.0062776900000
-0.0048193000000
-0.0036790800000
-0.0031509000000
-0.0032265800000
-0.0035303300000
-0.0037486100000
-0.0039318400000
-0.0041697500000
-0.0044785200000
-0.0050074700000
-0.0057617700000
-0.0065722600000
-0.0072099800000
-0.0073644600000
-0.0069287300000
-0.0061246600000
-0.0050079700000
-0.0037521400000
-0.0029739200000
-0.0029074600000
-0.0034739500000
-0.0045529900000
-0.0059489500000
-0.0073598300000
-0.0084689000000
-0.0090724500000
-0.0090551800000
-0.0085562200000
-0.0076075300000
-0.0063253500000
-0.0049603100000
-0.0036734000000
-0.0025430700000
-0.0013764600000
-0.0000378669000
0.0012097500000
0.0021148100000
0.0028197200000
0.0035290800000
0.0042366000000
0.0047977200000
0.0051911000000
0.0054019400000
0.0053342900000
0.0050633400000
0.0047127300000
0.0041890100000
0.0035942000000
0.0030149800000
0.0024071500000
0.0018107800000
0.0012087100000
0.0003217880000
-0.0008646860000
-0.0020554100000
-0.0031241000000
-0.0040374300000
-0.0045778300000
-0.0047201900000
-0.0046032400000
-0.0042627600000
-0.0038639500000
-0.0035232700000
-0.0032506400000
-0.0029677500000
-0.0025705800000
-0.0019818900000
-0.0011654200000
0.0000147193000
0.0014158700000
0.0028737100000
0.0042315600000
0.0053210100000
0.0059444200000
0.0060698600000
0.0057353500000
0.0052767300000
0.0050187300000
0.0049335300000
0.0054739100000
0.0068324000000
0.0087291600000
0.0107591000000
0.0125832000000
0.0139219000000
0.0143221000000
0.0136393000000
0.0119797000000
0.0095087400000
0.0067248100000
0.0042445600000
0.0024544100000
0.0014278200000
0.0010477400000
0.0012339800000
0.0015767200000
0.0014548100000
0.0009171670000
-0.0001627060000
-0.0019882200000
-0.0042689000000
-0.0062521100000
-0.0077647000000
-0.0083256100000
-0.0080200300000
-0.0067533300000
-0.0048657500000
-0.0031526800000
-0.0022002600000
-0.0020903100000
-0.0024272400000
-0.0028633000000
-0.0032052800000
-0.0033331100000
-0.0031663600000
-0.0026066800000
-0.0015592300000
-0.0001241490000
0.0013753200000
0.0026650900000
0.0037909600000
0.0048116900000
0.0056768700000
0.0064618400000
0.0071377500000
0.0076754400000
0.0080374200000
0.0081267200000
0.0080328900000
0.0078751800000
0.0075127700000
0.0069479200000
0.0065353200000
0.0064897300000
0.0068077100000
0.0075346400000
0.0086535300000
0.0100012000000
0.0110897000000
0.0112835000000
0.0105195000000
0.0090110200000
0.0069621700000
0.0046812500000
0.0026302700000
0.0011973600000
0.0005015110000
0.0004940780000
0.0009137660000
0.0012873200000
0.0012760700000
0.0008315930000
0.0000782369000
-0.0008782020000
-0.0017959700000
-0.0026365600000
-0.0036418200000
-0.0044721500000
-0.0047717300000
-0.0047240200000
-0.0043486600000
-0.0035421100000
-0.0025930900000
-0.0016876800000
-0.0008879720000
-0.0004420030000
-0.0005060980000
-0.0010027300000
-0.0019132300000
-0.0030861700000
-0.0041521500000
-0.0048016700000
-0.0047401200000
-0.0038341200000
-0.0022914600000
-0.0005575900000
0.0009106240000
0.0016393600000
0.0013429100000
0.0001555200000
-0.0014947800000
-0.0031983700000
-0.0045515700000
-0.0051666500000
-0.0048119200000
-0.0036233400000
-0.0021476600000
-0.0008869140000
-0.0002539030000
-0.0005356520000
-0.0017779400000
-0.0037440400000
-0.0059132900000
-0.0076553900000
-0.0087281500000
-0.0090254700000
-0.0084632800000
-0.0072734400000
-0.0058062400000
-0.0042908900000
-0.0029126000000
-0.0019449900000
-0.0016540300000
-0.0018049700000
-0.0022441900000
-0.0030176300000
-0.0039680300000
-0.0047501600000
-0.0051230100000
-0.0049671500000
-0.0041203000000
-0.0025416900000
-0.0005397010000
0.0013510300000
0.0026088300000
0.0027995500000
0.0018673500000
0.0002037850000
-0.0015293100000
-0.0027523700000
-0.0030219800000
-0.0020725900000
-0.0001771810000
0.0020347700000
0.0039329100000
0.0049517800000
0.0047957300000
0.0035988200000
0.0017902700000
-0.0000893486000
-0.0014072800000
-0.0017859400000
-0.0012349200000
0.0000138063000
0.0014846600000
0.0027498800000
0.0034215800000
0.0034986700000
0.0031160300000
0.0022862500000
0.0011381400000
-0.0000747909000
-0.0010180000000
-0.0013714700000
-0.0011327100000
-0.0004747240000
0.0003963020000
0.0011839600000
0.0015097400000
0.0012140700000
0.0003435660000
-0.0009432920000
-0.0024721400000
-0.0039575100000
-0.0051249400000
-0.0058641900000
-0.0061790600000
-0.0061403300000
-0.0059470800000
-0.0058123000000
-0.0059071100000
-0.0063118000000
-0.0069095500000
-0.0074402400000
-0.0077443600000
-0.0078072800000
-0.0075421100000
-0.0067941100000
-0.0055782600000
-0.0042412900000
-0.0030861000000
-0.0020814700000
-0.0012330700000
-0.0007013630000
-0.0004547150000
-0.0002639900000
-0.0000366909000
0.0002039810000
0.0004629350000
0.0006504150000
0.0006638180000
0.0006062530000
0.0005846610000
0.0004242420000
0.0001032800000
-0.0001186450000
-0.0000998003000
0.0000984780000
0.0003494170000
0.0007522950000
0.0014917900000
0.0024724800000
0.0034764800000
0.0043453600000
0.0050768100000
0.0057683800000
0.0062882000000
0.0064379500000
0.0063240700000
0.0061462100000
0.0057846000000
0.0051985000000
0.0047074700000
0.0043210200000
0.0038616800000
0.0033397300000
0.0028594400000
0.0025279600000
0.0022384400000
0.0017948500000
0.0012328500000
0.0007196330000
0.0003478230000
0.0001650840000
0.0001967540000
0.0004214500000
0.0007117010000
0.0009453500000
0.0010541900000
0.0010308300000
0.0009103660000
0.0006747520000
0.0003287030000
-0.0000084198200
-0.0001845990000
-0.0001554200000
-0.0000274501000
0.0001247450000
0.0002598830000
0.0002453440000
-0.0000110442000
-0.0004801920000
-0.0009679700000
-0.0012759700000
-0.0014613100000
-0.0015995200000
-0.0016520100000
-0.0015988900000
-0.0014167300000
-0.0011239900000
-0.0008044130000
-0.0004494060000
-0.0000832571000
0.0002455890000
0.0005305220000
0.0007887590000
0.0010505700000
0.0013427800000
0.0016043900000
0.0018066100000
0.0020493800000
0.0023535300000
0.0026307100000
0.0028042500000
0.0028433500000
0.0027223400000
0.0024499500000
0.0020791700000
0.0016684700000
0.0012570700000
0.0009092850000
0.0006697070000
0.0005510030000
0.0005307690000
0.0005515460000
0.0005566430000
0.0005373400000
0.0004863320000
0.0003858410000
0.0002053530000
-0.0000428510000
-0.0002799270000
-0.0004392110000
-0.0005019400000
-0.0004821260000
-0.0003618460000
-0.0001596290000
0.0000449495000
0.0001793080000
0.0001953520000
0.0001065930000
-0.0000608248000
-0.0002849790000
-0.0005260080000
-0.0007313640000
-0.0008471250000
-0.0008768800000
-0.0008660470000
-0.0008481720000
-0.0008280060000
-0.0008033720000
-0.0007772990000
-0.0007606450000
-0.0007591000000
-0.0007623440000
-0.0007701000000
-0.0007700200000
-0.0007436680000
-0.0006886610000
-0.0006187570000
-0.0005449730000
-0.0004644290000
-0.0003633230000
-0.0002529210000
-0.0001475280000
-0.0000606107000
-0.0000047517900
0.0000183541000
0.0000323134000
0.0000648570000
0.0001268300000
0.0002136280000
0.0003051390000
0.0003854950000
0.0004388510000
0.0004516850000
0.0004253080000
0.0003737990000
0.0003161010000
0.0002664850000
0.0002307220000
0.0002098760000
0.0001947510000
0.0001749970000
0.0001330140000
0.0000598810000
-0.0000336102000
-0.0001313920000
-0.0002222430000
-0.0002967740000
-0.0003430710000
-0.0003607380000
-0.0003589750000
-0.0003504480000
-0.0003458970000
-0.0003473280000
-0.0003484940000
-0.0003464200000
-0.0003432810000
-0.0003372640000
-0.0003213040000
-0.0002985280000
-0.0002775670000
-0.0002614940000
-0.0002504670000
-0.0002426880000
-0.0002356990000
-0.0002257140000
-0.0002117690000
-0.0001970850000
-0.0001860340000
-0.0001803450000
-0.0001807490000
-0.0001861360000
-0.0001947510000
-0.0002045500000
-0.0002135180000
-0.0002208580000
-0.0002253920000
-0.0002265420000
-0.0002247260000
-0.0002195020000
-0.0002107060000
-0.0002009360000
-0.0001916630000
-0.0001827790000
-0.0001742520000
-0.0001656830000
-0.0001569220000
-0.0001481080000
-0.0001388360000
-0.0001288580000
-0.0001185170000
-0.0001085460000
-0.0000990103000
-0.0000899613000
-0.0000818169000
-0.0000747228000
-0.0000684467000
-0.0000628032000
-0.0000576140000
-0.0000525875000
-0.0000476320000
-0.0000428869000
-0.0000383607000
-0.0000339286000
-0.0000294975000
-0.0000249733000
-0.0000203124000
-0.0000155142000
-0.0000106215000
-0.0000057124000
-0.0000008632680
0.0000038854100
0.0000085396400
0.0000131493000
0.0000177233000
0.0000222640000
0.0000268028000
0.0000313651000
0.0000359429000
0.0000405088000
0.0000450385000
0.0000495168000
0.0000539348000
0.0000582867000
0.0000625696000
0.0000667816000
0.0000709217000
0.0000749889000
0.0000000000000
0.0000000000000
0.0000000000000
0.0000000000000
