-0.0000649123000
0.0000581290000
-0.0000843682000
0.0000428051000
-0.0000990438000
0.0000431511000
-0.0000722158000
0.0000604539000
-0.0000861636000
0.0000051423100
-0.0002787520000
-0.0001769040000
-0.0000453204000
0.0002988250000
0.0002578510000
0.0004102940000
0.0001456540000
-0.0000624215000
-0.0000551166000
0.0007840540000
0.0008332830000
0.0003681390000
-0.0009168170000
-0.0022773500000
-0.0013801700000
0.0011668700000
0.0015452300000
0.0018997000000
0.0022333600000
0.0022823400000
0.0023893600000
-0.0024517100000
-0.0069274300000
-0.0042722200000
0.0029202900000
0.0100092000000
0.0066713400000
-0.0016930000000
-0.0094024200000
-0.0097911000000
-0.0063338800000
-0.0015020900000
-0.0028731200000
-0.0043420600000
-0.0061717100000
-0.0050910200000
-0.0015964900000
0.0018248500000
0.0025315400000
0.0195685000000
0.0316219000000
0.0197570000000
0.0034832700000
-0.0043331600000
-0.0053945700000
-0.0063605700000
-0.0089354300000
-0.0134422000000
-0.0084250400000
0.0174766000000
0.0352662000000
0.0155041000000
-0.0213827000000
-0.0250294000000
-0.0199953000000
-0.0193310000000
-0.0180497000000
-0.0083646700000
0.0189575000000
0.0545453000000
0.0634122000000
0.0418697000000
-0.0126669000000
-0.0354135000000
-0.0137313000000
0.0364058000000
0.0527619000000
0.0253608000000
-0.0297573000000
-0.0502890000000
-0.0384564000000
-0.0300094000000
-0.0123780000000
-0.0049075300000
-0.0257449000000
-0.0368579000000
-0.0316470000000
-0.0294566000000
-0.0146171000000
0.0231728000000
0.0641711000000
0.0653798000000
0.0262954000000
-0.0110999000000
-0.0274803000000
-0.0133100000000
-0.0045713100000
-0.0025926300000
0.0028817100000
0.0149817000000
0.0210921000000
-0.0040497800000
-0.0318612000000
-0.0363678000000
-0.0278163000000
-0.0229210000000
-0.0063226800000
0.0459897000000
0.0594911000000
0.0125595000000
-0.0288334000000
-0.0381874000000
0.0066266700000
0.0567113000000
0.0423185000000
-0.0372754000000
-0.0417536000000
-0.0179854000000
-0.0106956000000
-0.0004712640000
0.0031452800000
-0.0017516600000
0.0047041600000
0.0104258000000
0.0094607200000
0.0037642900000
-0.0052498600000
-0.0175458000000
0.0049987900000
0.0317986000000
0.0217119000000
-0.0223442000000
-0.0594854000000
-0.0554503000000
-0.0265466000000
-0.0230155000000
-0.0516080000000
-0.0444902000000
-0.0050367200000
0.0397600000000
0.0784157000000
0.1027730000000
0.0892356000000
0.0329311000000
-0.0190207000000
-0.0004602250000
0.0152971000000
-0.0066159300000
0.0066551200000
0.0046042800000
-0.0266264000000
-0.0515801000000
-0.0620757000000
-0.0571073000000
-0.0499965000000
-0.0408853000000
-0.0013769600000
0.0373923000000
0.0311840000000
0.0226416000000
0.0252657000000
0.0498881000000
0.0666096000000
0.0321714000000
-0.0069647600000
-0.0333349000000
-0.0069251300000
0.0425428000000
0.0172674000000
-0.0279497000000
-0.0568879000000
-0.0634147000000
-0.0555283000000
-0.0545541000000
-0.0304582000000
0.0192045000000
0.0696824000000
0.0637994000000
0.0256471000000
-0.0002397810000
0.0339149000000
0.0628141000000
0.0153732000000
-0.0290708000000
-0.0527801000000
-0.0457130000000
-0.0401824000000
-0.0471440000000
-0.0424319000000
-0.0342542000000
-0.0288158000000
-0.0315437000000
-0.0098282300000
0.0363450000000
0.0762584000000
0.1050920000000
0.0894164000000
0.0521677000000
0.0628199000000
0.0887753000000
0.0739684000000
0.0199881000000
-0.0415332000000
-0.0691383000000
-0.0605752000000
-0.0530202000000
-0.0482858000000
-0.0271259000000
0.0084882000000
-0.0083402700000
-0.0342126000000
-0.0246277000000
0.0055743800000
0.0284733000000
0.0297428000000
0.0156019000000
0.0365186000000
0.0908725000000
0.1352800000000
0.1234740000000
0.0357312000000
-0.0590126000000
-0.0879299000000
-0.0752595000000
-0.0661162000000
-0.0388987000000
-0.0018905000000
0.0025406700000
-0.0062971400000
0.0144291000000
0.0271248000000
0.0076409100000
-0.0174177000000
-0.0160943000000
0.0007573050000
-0.0160017000000
-0.0520277000000
-0.0680447000000
-0.0237730000000
0.0640208000000
0.0938340000000
0.0417462000000
-0.0285355000000
-0.0445663000000
0.0060938200000
0.0547392000000
0.0632008000000
0.0269119000000
-0.0182465000000
-0.0556394000000
-0.0757742000000
-0.0622737000000
-0.0488944000000
-0.0372620000000
-0.0295177000000
-0.0289604000000
-0.0411342000000
-0.0508074000000
-0.0476189000000
-0.0207825000000
-0.0028369600000
-0.0104682000000
-0.0164909000000
0.0013998700000
0.0280510000000
0.0378469000000
0.0475360000000
0.0762310000000
0.0710058000000
0.0565008000000
0.0445359000000
0.0147553000000
-0.0050648500000
-0.0029505200000
-0.0320286000000
-0.0295724000000
0.0200081000000
0.0128206000000
-0.0630947000000
-0.0656499000000
-0.0500154000000
-0.0478483000000
-0.0359954000000
-0.0050497000000
-0.0138148000000
-0.0419165000000
-0.0295306000000
0.0278471000000
0.1036050000000
0.1000810000000
0.0209790000000
0.0225184000000
0.0629771000000
0.0646435000000
0.0296034000000
-0.0098173400000
-0.0446908000000
-0.0624722000000
-0.0574185000000
-0.0510091000000
-0.0454085000000
-0.0374458000000
-0.0288719000000
-0.0045609800000
0.0403749000000
0.0312658000000
-0.0111649000000
-0.0282759000000
-0.0248626000000
0.0062604200000
0.0582312000000
0.0638873000000
0.0177687000000
-0.0144227000000
0.0092005800000
0.0492802000000
0.0777596000000
0.0745762000000
0.0531632000000
0.0583008000000
0.0586383000000
0.0173223000000
-0.0223149000000
-0.0506904000000
-0.0714472000000
-0.0656402000000
-0.0606004000000
-0.0546762000000
-0.0517571000000
-0.0445804000000
-0.0423701000000
0.0212202000000
0.1336440000000
0.1885710000000
0.1787970000000
0.1440970000000
0.0450101000000
-0.0100735000000
-0.0061688100000
-0.0155010000000
-0.0466061000000
-0.0634691000000
-0.0511002000000
-0.0502098000000
-0.0583847000000
-0.0573567000000
-0.0712240000000
-0.0894067000000
-0.0941724000000
-0.0860466000000
-0.0810615000000
-0.0707021000000
-0.0645276000000
-0.0098194200000
0.0461546000000
0.0089693700000
-0.0322904000000
0.0233557000000
0.0921322000000
0.1413380000000
0.1919490000000
0.2109810000000
0.1301560000000
0.0011576200000
-0.0999274000000
-0.1764420000000
-0.2260610000000
-0.2289070000000
-0.1746550000000
-0.0490044000000
0.0794568000000
0.1296220000000
0.0863760000000
0.0487214000000
0.0958803000000
0.1442900000000
0.1466790000000
0.1418430000000
0.1516110000000
0.1136170000000
0.0376210000000
-0.0245722000000
-0.0820009000000
-0.1000230000000
-0.0725190000000
-0.0616308000000
-0.1021700000000
-0.1472970000000
-0.1799170000000
-0.1854040000000
-0.1751330000000
-0.1688410000000
-0.1587400000000
-0.1443100000000
-0.1213130000000
-0.0418283000000
0.0639803000000
0.1462050000000
0.2001590000000
0.1473830000000
0.0819138000000
0.0698853000000
0.1160210000000
0.1212040000000
0.1023690000000
0.0958855000000
0.0607780000000
-0.0061580400000
-0.0626502000000
-0.1157970000000
-0.1349300000000
-0.1223190000000
-0.1122430000000
-0.1118190000000
-0.1093770000000
-0.1076380000000
-0.0316470000000
0.1031020000000
0.2213900000000
0.3265200000000
0.3246470000000
0.2593810000000
0.2155940000000
0.1470960000000
0.0467812000000
-0.0342488000000
-0.0234576000000
0.0415972000000
0.0987697000000
0.1184010000000
0.0742812000000
0.0109225000000
-0.0433062000000
-0.0959999000000
-0.1467420000000
-0.1915860000000
-0.2338310000000
-0.2481770000000
-0.2260940000000
-0.1950570000000
-0.1617710000000
-0.1419120000000
-0.1256450000000
-0.1113280000000
-0.1001240000000
-0.0941970000000
-0.0814211000000
-0.0511746000000
-0.0156066000000
0.0126326000000
0.0550932000000
0.1049870000000
0.1451880000000
0.1476620000000
0.1304640000000
0.0951080000000
0.0575894000000
0.0371549000000
0.0696317000000
0.1015860000000
0.0636219000000
-0.0171453000000
-0.0820567000000
-0.1489570000000
-0.1586250000000
-0.0996878000000
-0.0501608000000
-0.0107758000000
-0.0066020400000
0.0163338000000
0.0969321000000
0.1684170000000
0.2242140000000
0.2618800000000
0.3077850000000
0.3022440000000
0.2713140000000
0.2316250000000
0.1731260000000
0.0925781000000
0.0018359400000
-0.0830712000000
-0.1563980000000
-0.2139870000000
-0.1974410000000
-0.1409650000000
-0.0915120000000
-0.0705956000000
-0.0694789000000
-0.0905260000000
-0.1187740000000
-0.1170620000000
-0.1370160000000
-0.1752050000000
-0.1728600000000
-0.1333000000000
-0.0315486000000
0.0317824000000
0.0191543000000
0.0459727000000
0.0895377000000
0.1185800000000
0.0871860000000
0.0011483000000
-0.0799088000000
-0.0772709000000
0.0116993000000
0.0746674000000
0.0545186000000
0.0301936000000
0.0281092000000
0.0449917000000
0.0625163000000
0.0707616000000
0.0559851000000
0.0281580000000
0.0123192000000
0.0120535000000
-0.0180885000000
-0.1103430000000
-0.1947120000000
-0.1904260000000
-0.1348980000000
-0.0845864000000
-0.0390000000000
-0.0152941000000
-0.0240190000000
-0.0082757500000
0.0105499000000
0.0286273000000
0.0351424000000
0.0993674000000
0.1501630000000
0.1777650000000
0.2257920000000
0.2570610000000
0.2285090000000
0.1568680000000
0.0940761000000
0.0337089000000
-0.0222470000000
-0.0765066000000
-0.0623180000000
0.0011369700000
0.0081218600000
-0.0300244000000
-0.0667411000000
-0.0727983000000
-0.0556364000000
-0.0531369000000
-0.0557879000000
-0.0455557000000
-0.0351929000000
-0.0262171000000
-0.0176643000000
-0.0083127700000
-0.0007423920000
0.0107921000000
0.0398728000000
0.1035950000000
0.1015030000000
0.0362556000000
-0.0198248000000
-0.0469495000000
-0.0480631000000
0.0048838800000
0.0422688000000
-0.0059910400000
-0.0570710000000
-0.0951883000000
-0.1361180000000
-0.1436240000000
-0.0837916000000
-0.0584355000000
-0.0865479000000
-0.1118900000000
-0.0972317000000
-0.0829164000000
-0.0472126000000
0.0000447601000
0.0427159000000
0.0678597000000
0.0646286000000
0.0700583000000
0.1546180000000
0.2707860000000
0.2747930000000
0.2352840000000
0.1711670000000
0.0528971000000
-0.0430334000000
-0.0400092000000
-0.0001215920000
0.0267743000000
0.0363527000000
-0.0304336000000
-0.1278190000000
-0.2136020000000
-0.2407880000000
-0.1444700000000
-0.0291374000000
-0.0135639000000
-0.0812548000000
-0.0916394000000
-0.0385082000000
-0.0200874000000
-0.0214179000000
-0.0105379000000
0.0080034000000
0.0598264000000
0.0691437000000
0.0226022000000
-0.0105233000000
0.0040022200000
0.0108744000000
-0.0105070000000
-0.0232759000000
-0.0007130070000
0.0330660000000
0.0385064000000
0.0384065000000
0.0440975000000
0.0428766000000
0.0390259000000
0.0321551000000
0.0124397000000
-0.0514099000000
-0.1164220000000
-0.1648100000000
-0.1457860000000
-0.0853670000000
-0.0409561000000
-0.0213289000000
-0.0077489900000
-0.0066178000000
-0.0151892000000
-0.0362948000000
-0.0329493000000
0.0066024300000
0.0412387000000
0.0714180000000
0.0960823000000
0.0781764000000
0.0532047000000
0.0360732000000
0.0334694000000
0.0461652000000
0.0491326000000
0.0457092000000
0.0245198000000
0.0020973700000
-0.0227912000000
-0.0388234000000
-0.0679837000000
-0.0545455000000
0.0207782000000
0.0918222000000
0.0921989000000
0.0447252000000
0.0105627000000
-0.0058198600000
0.0035529200000
-0.0180711000000
-0.0623785000000
-0.0986666000000
-0.1279510000000
-0.1568120000000
-0.1562650000000
-0.1380950000000
-0.1190630000000
-0.1013320000000
-0.0627797000000
0.0084451600000
0.0723193000000
0.1282230000000
0.1477140000000
0.0955190000000
0.0292315000000
-0.0255307000000
-0.0808238000000
-0.1244140000000
-0.1239250000000
-0.0950534000000
-0.0448149000000
0.0228705000000
0.0122637000000
-0.0415651000000
-0.0540923000000
-0.0135417000000
-0.0133234000000
-0.0512675000000
-0.0753287000000
-0.0994725000000
-0.0739436000000
0.0088004700000
0.0844155000000
0.1486880000000
0.1733350000000
0.1808560000000
0.1900400000000
0.1548770000000
0.0782180000000
0.0168434000000
0.0236779000000
0.0698886000000
0.1157810000000
0.1308130000000
0.1183340000000
0.0871639000000
0.0413793000000
0.0011447200000
-0.0350515000000
-0.0441571000000
-0.0374856000000
-0.0335860000000
-0.0132744000000
0.0411394000000
0.0911289000000
0.1314670000000
0.1380560000000
0.1235590000000
0.1340000000000
0.1439510000000
0.1423120000000
0.1321930000000
0.1254860000000
0.0768529000000
0.0081763900000
-0.0268331000000
-0.0372577000000
-0.0511460000000
-0.0192538000000
0.0273399000000
0.0547076000000
0.0230959000000
-0.0434617000000
-0.1055060000000
-0.1643540000000
-0.2174520000000
-0.2639720000000
-0.2589690000000
-0.2010650000000
-0.1458490000000
-0.0961986000000
-0.0632648000000
-0.0525348000000
-0.0394850000000
-0.0263117000000
-0.0066019800000
0.0418719000000
0.0888442000000
0.1299780000000
0.1380080000000
0.1164690000000
0.0933901000000
0.0726145000000
0.0562329000000
0.0264694000000
-0.0089813500000
-0.0396289000000
-0.0578618000000
-0.0586654000000
-0.0574582000000
-0.0586677000000
-0.0759458000000
-0.0986421000000
-0.1170060000000
-0.1327930000000
-0.1240610000000
-0.0752464000000
-0.0626305000000
-0.0686493000000
-0.0704662000000
-0.0866705000000
-0.0937818000000
-0.0902991000000
-0.0609562000000
-0.0077904900000
0.0466979000000
0.0869340000000
0.0871581000000
0.0516202000000
0.0349580000000
0.0315245000000
0.0254670000000
0.0246527000000
0.0625354000000
0.0996701000000
0.1321400000000
0.1406860000000
0.1287370000000
0.0874297000000
0.0336023000000
-0.0133893000000
-0.0547688000000
-0.0593594000000
-0.0227888000000
0.0104440000000
0.0423418000000
0.0524848000000
0.0371564000000
0.0281738000000
0.0482783000000
0.0717282000000
0.0916069000000
0.0982657000000
0.0940334000000
0.0903128000000
0.0893583000000
0.0856102000000
0.0869796000000
0.0655169000000
0.0382248000000
0.0197759000000
-0.0204851000000
-0.0681509000000
-0.0848555000000
-0.0877318000000
-0.1146700000000
-0.1486650000000
-0.1409110000000
-0.0972251000000
-0.0651033000000
-0.0682675000000
-0.0824951000000
-0.0867460000000
-0.0894477000000
-0.0867941000000
-0.0824053000000
-0.0629188000000
-0.0233569000000
0.0200191000000
0.0352840000000
0.0303897000000
-0.0031973100000
-0.0460183000000
-0.0806154000000
-0.1152460000000
-0.1101330000000
-0.0516666000000
0.0090311000000
0.0602466000000
0.1118550000000
0.1592280000000
0.2024890000000
0.2396200000000
0.2539650000000
0.2055640000000
0.1300480000000
0.0629744000000
0.0004409370000
-0.0620076000000
-0.0996906000000
-0.0999840000000
-0.1008400000000
-0.1177480000000
-0.1397260000000
-0.1549490000000
-0.1696020000000
-0.1676150000000
-0.1501300000000
-0.1157250000000
-0.0715497000000
-0.0429607000000
-0.0266387000000
-0.0140497000000
-0.0039846500000
0.0097795400000
0.0598940000000
0.0734527000000
0.0719089000000
0.0537546000000
0.0085586900000
-0.0324810000000
-0.0556163000000
-0.0538817000000
-0.0544135000000
-0.0531290000000
-0.0496352000000
-0.0434459000000
-0.0405170000000
-0.0167702000000
0.0253364000000
0.0653761000000
0.1001130000000
0.1261940000000
0.1316090000000
0.1333530000000
0.1501500000000
0.1799900000000
0.2074670000000
0.2254510000000
0.2133280000000
0.1943590000000
0.1773890000000
0.1583830000000
0.1373920000000
0.1132420000000
0.0806671000000
0.0568077000000
0.0399483000000
0.0236896000000
-0.0153446000000
-0.0479377000000
-0.0438740000000
-0.0421424000000
-0.0452437000000
-0.0470641000000
-0.0545451000000
-0.0584931000000
-0.0606848000000
-0.0375541000000
0.0060921700000
0.0372995000000
0.0406362000000
0.0312472000000
0.0466773000000
0.0404851000000
-0.0302454000000
-0.0942414000000
-0.1487070000000
-0.1800150000000
-0.1745440000000
-0.1711480000000
-0.1807920000000
-0.1800260000000
-0.1953100000000
-0.2473770000000
-0.2441680000000
-0.1645820000000
-0.1000080000000
-0.1123380000000
-0.1307180000000
-0.1268920000000
-0.1181100000000
-0.1555770000000
-0.1655860000000
-0.1026310000000
-0.0426415000000
-0.0018604100000
0.0329844000000
0.0335769000000
0.0500906000000
0.0685387000000
0.0644938000000
0.0696662000000
0.1063300000000
0.1618740000000
0.1560620000000
0.1282300000000
0.1071320000000
0.0958997000000
0.0809154000000
0.0693292000000
0.0666967000000
0.0921283000000
0.1163140000000
0.1397870000000
0.1425330000000
0.1340300000000
0.0812200000000
0.0107598000000
-0.0507521000000
-0.0701505000000
-0.0582747000000
-0.0334713000000
-0.0002134590000
0.0184143000000
0.0098228400000
0.0123480000000
0.0303947000000
0.0232018000000
0.0043765800000
-0.0095966400000
-0.0230793000000
-0.0210933000000
-0.0098542200000
-0.0048062200000
-0.0041182900000
-0.0123589000000
-0.0203017000000
-0.0249855000000
-0.0272042000000
-0.0270035000000
-0.0240112000000
-0.0203858000000
-0.0123970000000
0.0017935400000
0.0185951000000
0.0304493000000
0.0377103000000
0.0380686000000
0.0376939000000
0.0379811000000
0.0338164000000
0.0168718000000
-0.0046079800000
-0.0140847000000
-0.0092555800000
-0.0112780000000
-0.0179553000000
-0.0259651000000
-0.0358353000000
-0.0502816000000
-0.0545345000000
-0.0507141000000
-0.0652672000000
-0.0831718000000
-0.0781452000000
-0.1210510000000
-0.1493250000000
-0.0655899000000
-0.0355411000000
-0.0480599000000
-0.0434481000000
-0.0383647000000
-0.0360844000000
-0.0120920000000
0.0244682000000
0.0554943000000
0.0738282000000
0.0707099000000
0.0687206000000
0.0635337000000
0.0534946000000
0.0212811000000
-0.0126074000000
-0.0276147000000
-0.0258946000000
-0.0230342000000
-0.0154832000000
-0.0047918000000
0.0197850000000
0.0403966000000
0.0413288000000
0.0409588000000
0.0395023000000
0.0380715000000
0.0398140000000
0.0494536000000
0.0637562000000
0.0681202000000
0.0681183000000
0.0640404000000
0.0571179000000
0.0528728000000
0.0488431000000
0.0468156000000
0.0497903000000
0.0487872000000
0.0450473000000
0.0394422000000
0.0334162000000
0.0302281000000
0.0300560000000
0.0341631000000
0.0379559000000
0.0403986000000
0.0423021000000
0.0441220000000
0.0405586000000
0.0566986000000
0.0743535000000
0.0675378000000
0.0610356000000
0.0463331000000
0.0141291000000
-0.0171911000000
-0.0210428000000
-0.0165116000000
-0.0135867000000
-0.0098855700000
-0.0070774900000
-0.0022796900000
0.0015892000000
0.0033866500000
0.0130577000000
0.0368346000000
0.0479228000000
0.0441032000000
0.0390309000000
0.0304991000000
0.0194511000000
0.0098322000000
0.0017219200000
-0.0062369900000
-0.0130994000000
-0.0230763000000
-0.0330635000000
-0.0557762000000
-0.0876613000000
-0.1095100000000
-0.1027170000000
-0.0913824000000
-0.0797102000000
-0.0688552000000
-0.0644461000000
-0.0627571000000
-0.0586457000000
-0.0534977000000
-0.0512083000000
-0.0499214000000
-0.0503329000000
-0.0503463000000
-0.0479021000000
-0.0419638000000
-0.0319634000000
-0.0194571000000
-0.0149724000000
-0.0123007000000
-0.0358631000000
-0.0594160000000
-0.0573031000000
-0.0551793000000
-0.0552413000000
-0.0515244000000
-0.0449966000000
-0.0372096000000
-0.0292136000000
-0.0258697000000
-0.0270492000000
-0.0365671000000
-0.0432437000000
-0.0407496000000
-0.0346712000000
-0.0282964000000
-0.0237940000000
-0.0217993000000
-0.0171208000000
-0.0075611700000
0.0039216300000
0.0074432600000
0.0036417600000
-0.0209761000000
-0.0382486000000
-0.0386073000000
-0.0409180000000
-0.0428208000000
-0.0418588000000
-0.0382284000000
-0.0286627000000
-0.0127530000000
-0.0040135500000
-0.0006032720000
0.0025308700000
0.0064732800000
0.0127902000000
0.0173104000000
0.0197258000000
0.0194014000000
0.0229798000000
0.0262774000000
0.0295271000000
0.0334154000000
0.0372296000000
0.0405277000000
0.0446698000000
0.0461105000000
0.0445542000000
0.0449472000000
0.0443732000000
0.0425854000000
0.0433655000000
0.0474513000000
0.0591643000000
0.0703657000000
0.0708948000000
0.0665321000000
0.0580936000000
0.0464108000000
0.0332819000000
0.0258927000000
0.0193910000000
0.0175111000000
0.0034323400000
-0.0248801000000
-0.0490915000000
-0.0543282000000
-0.0566079000000
-0.0576514000000
-0.0558083000000
-0.0505262000000
-0.0402620000000
-0.0077262300000
0.0066768600000
0.0072186200000
0.0114093000000
0.0138702000000
0.0192052000000
0.0328341000000
0.0747622000000
0.0837084000000
0.0792719000000
0.0818744000000
0.0807645000000
0.0757840000000
0.0668982000000
0.0581668000000
0.0530577000000
0.0523933000000
0.0527544000000
0.0542976000000
0.0487860000000
0.0408265000000
0.0210546000000
-0.0073929800000
-0.0317008000000
-0.0362922000000
-0.0317755000000
-0.0213392000000
-0.0015516000000
0.0064693800000
0.0059063000000
0.0055698100000
0.0073031200000
0.0084940200000
0.0080666800000
0.0037474900000
-0.0040661900000
-0.0100103000000
-0.0114584000000
-0.0093194800000
-0.0083049900000
-0.0083936900000
-0.0089918400000
-0.0132638000000
-0.0171483000000
-0.0201798000000
-0.0247694000000
-0.0314167000000
-0.0372007000000
-0.0379481000000
-0.0313628000000
-0.0216144000000
-0.0044917300000
0.0152011000000
0.0255134000000
0.0349880000000
0.0466450000000
0.0552653000000
0.0585619000000
0.0596820000000
0.0562479000000
0.0494897000000
0.0441516000000
0.0382241000000
0.0330781000000
0.0243420000000
0.0142909000000
-0.0095192300000
-0.0482983000000
-0.0847677000000
-0.0968943000000
-0.0936743000000
-0.0933249000000
-0.0884872000000
-0.0790885000000
-0.0700600000000
-0.0564789000000
-0.0342456000000
-0.0112500000000
0.0120332000000
0.0223844000000
0.0174499000000
0.0092821700000
0.0034964600000
0.0013244900000
-0.0009490740000
-0.0153914000000
-0.0380724000000
-0.0584751000000
-0.0701581000000
-0.0701947000000
-0.0676392000000
-0.0638103000000
-0.0607915000000
-0.0578081000000
-0.0504886000000
-0.0426206000000
-0.0305840000000
-0.0144504000000
0.0243844000000
0.0608474000000
0.0666087000000
0.0713623000000
0.0769958000000
0.0746988000000
0.0654192000000
0.0405887000000
0.0144635000000
-0.0093293700000
-0.0209144000000
-0.0247114000000
-0.0322826000000
-0.0405932000000
-0.0466878000000
-0.0519442000000
-0.0565677000000
-0.0544166000000
-0.0494272000000
-0.0405579000000
-0.0308782000000
-0.0244386000000
-0.0199063000000
-0.0166348000000
-0.0144803000000
-0.0119684000000
-0.0085190800000
-0.0039420800000
-0.0032187700000
-0.0050697300000
-0.0082023800000
-0.0118230000000
-0.0146322000000
-0.0141983000000
-0.0106796000000
-0.0030396800000
0.0038016700000
0.0134497000000
0.0230902000000
0.0322011000000
0.0392867000000
0.0426521000000
0.0424023000000
0.0419144000000
0.0385338000000
0.0367445000000
0.0328123000000
0.0265353000000
0.0217976000000
0.0182537000000
0.0157747000000
0.0152851000000
0.0152564000000
0.0152163000000
0.0153984000000
0.0182745000000
0.0201576000000
0.0222269000000
0.0208957000000
0.0173279000000
0.0160780000000
0.0141087000000
0.0148267000000
0.0184430000000
0.0189916000000
0.0164618000000
0.0142814000000
0.0105013000000
0.0072132300000
0.0085471200000
0.0152649000000
0.0235208000000
0.0299002000000
0.0348633000000
0.0357694000000
0.0358412000000
0.0380557000000
0.0386926000000
0.0384630000000
0.0357541000000
0.0299624000000
0.0220000000000
0.0141453000000
0.0081781800000
0.0019221800000
-0.0055201300000
-0.0130335000000
-0.0269860000000
-0.0409732000000
-0.0471584000000
-0.0487778000000
-0.0496527000000
-0.0478921000000
-0.0408908000000
-0.0309172000000
-0.0189682000000
-0.0065185700000
-0.0007208870000
-0.0027610100000
-0.0076503500000
-0.0131173000000
-0.0158009000000
-0.0169063000000
-0.0178993000000
-0.0188427000000
-0.0185633000000
-0.0167962000000
-0.0131398000000
-0.0054868300000
0.0028424100000
0.0090849600000
0.0134299000000
0.0129973000000
0.0142428000000
0.0159134000000
0.0175197000000
0.0223501000000
0.0287214000000
0.0349227000000
0.0374271000000
0.0323089000000
0.0218845000000
0.0106217000000
0.0037964700000
0.0005321030000
0.0014950600000
0.0043256100000
0.0091648800000
0.0157683000000
0.0219151000000
0.0304338000000
0.0389825000000
0.0447140000000
0.0446375000000
0.0395552000000
0.0328961000000
0.0265089000000
0.0196332000000
0.0122056000000
0.0056891600000
-0.0031845700000
-0.0094339400000
-0.0163649000000
-0.0245083000000
-0.0335238000000
-0.0413541000000
-0.0445457000000
-0.0442040000000
-0.0421066000000
-0.0365097000000
-0.0326027000000
-0.0266814000000
-0.0198452000000
-0.0147371000000
-0.0086864200000
-0.0028205200000
-0.0004894990000
-0.0016009600000
-0.0049039200000
-0.0081132900000
-0.0110565000000
-0.0141602000000
-0.0182972000000
-0.0216936000000
-0.0263006000000
-0.0330014000000
-0.0375398000000
-0.0402898000000
-0.0408611000000
-0.0382751000000
-0.0325667000000
-0.0255615000000
-0.0163484000000
-0.0072638100000
-0.0037402100000
-0.0043851600000
-0.0052391100000
-0.0072914400000
-0.0092706100000
-0.0082232300000
-0.0058222400000
-0.0033033500000
-0.0051210800000
-0.0086277400000
-0.0116926000000
-0.0136286000000
-0.0128897000000
-0.0110169000000
-0.0088347900000
-0.0091505400000
-0.0091636000000
-0.0078746400000
-0.0064490200000
-0.0026829000000
0.0030737900000
0.0080852900000
0.0110562000000
0.0109484000000
0.0112141000000
0.0129707000000
0.0162639000000
0.0158739000000
0.0129596000000
0.0063427100000
-0.0010310400000
-0.0055081800000
-0.0084555100000
-0.0083782600000
-0.0073904900000
-0.0066142800000
-0.0048174300000
-0.0047473100000
-0.0104443000000
-0.0181613000000
-0.0211253000000
-0.0157479000000
-0.0091670700000
-0.0004779610000
0.0074306700000
0.0124772000000
0.0157675000000
0.0204889000000
0.0229794000000
0.0230286000000
0.0226498000000
0.0179267000000
0.0124767000000
0.0082076800000
0.0007142150000
-0.0052932100000
-0.0089373700000
-0.0120460000000
-0.0127339000000
-0.0106112000000
-0.0103387000000
-0.0067077100000
-0.0004923190000
0.0098753100000
0.0232940000000
0.0298571000000
0.0292693000000
0.0279575000000
0.0251829000000
0.0212738000000
0.0176757000000
0.0132938000000
0.0108461000000
0.0103070000000
0.0069560300000
0.0058411900000
0.0074121800000
0.0084995600000
0.0081950000000
0.0084132900000
0.0103899000000
0.0135714000000
0.0188792000000
0.0267842000000
0.0330284000000
0.0378198000000
0.0392082000000
0.0376177000000
0.0347393000000
0.0308204000000
0.0278941000000
0.0231796000000
0.0183556000000
0.0115596000000
0.0021641000000
-0.0078468100000
-0.0187056000000
-0.0280735000000
-0.0344993000000
-0.0379720000000
-0.0393192000000
-0.0344798000000
-0.0281434000000
-0.0214080000000
-0.0146737000000
-0.0090043300000
-0.0064736800000
-0.0058386900000
-0.0013551800000
0.0062816300000
0.0130385000000
0.0175689000000
0.0195677000000
0.0167792000000
0.0129354000000
0.0080392200000
0.0024663100000
-0.0037492000000
-0.0097277900000
-0.0158316000000
-0.0202180000000
-0.0238457000000
-0.0269122000000
-0.0254430000000
-0.0166335000000
-0.0054226500000
0.0025355100000
0.0056527800000
0.0053186700000
0.0052547400000
0.0065351000000
0.0109580000000
0.0152500000000
0.0201562000000
0.0225934000000
0.0229286000000
0.0226851000000
0.0208808000000
0.0177108000000
0.0146670000000
0.0119894000000
0.0083942500000
0.0046600000000
0.0019114300000
-0.0009443860000
-0.0062771500000
-0.0124198000000
-0.0283945000000
-0.0430653000000
-0.0485500000000
-0.0489399000000
-0.0497781000000
-0.0442047000000
-0.0382710000000
-0.0151883000000
0.0113132000000
0.0164469000000
0.0165662000000
0.0165644000000
0.0151329000000
0.0134308000000
0.0150117000000
0.0148218000000
0.0147271000000
0.0111423000000
0.0052392600000
-0.0003870550000
-0.0035697300000
-0.0024618600000
0.0004499320000
0.0024047000000
0.0036379100000
0.0017784400000
-0.0010132400000
-0.0052765600000
-0.0072666100000
-0.0070690600000
-0.0066369700000
-0.0065284700000
-0.0059967900000
-0.0045054800000
0.0017990800000
0.0077054600000
0.0143306000000
0.0190187000000
0.0233756000000
0.0236870000000
0.0218105000000
0.0187549000000
0.0155616000000
0.0114066000000
0.0088109600000
0.0054514400000
0.0015564800000
-0.0028993600000
-0.0072124600000
-0.0129421000000
-0.0185948000000
-0.0226503000000
-0.0249126000000
-0.0235290000000
-0.0221301000000
-0.0195478000000
-0.0176202000000
-0.0182449000000
-0.0199122000000
-0.0183874000000
-0.0138449000000
-0.0085641000000
-0.0060764600000
-0.0030277500000
-0.0011843900000
-0.0003214090000
-0.0025010900000
-0.0086102400000
-0.0161368000000
-0.0211951000000
-0.0256786000000
-0.0280286000000
-0.0283260000000
-0.0291715000000
-0.0279353000000
-0.0263022000000
-0.0236951000000
-0.0191391000000
-0.0120310000000
-0.0059464700000
0.0008453860000
0.0093496600000
0.0162639000000
0.0229363000000
0.0261672000000
0.0295769000000
0.0313912000000
0.0294664000000
0.0243997000000
0.0148642000000
0.0088115400000
0.0064455100000
0.0024709400000
-0.0007565630000
-0.0005583800000
0.0020957300000
0.0001925460000
-0.0047404600000
-0.0075394800000
-0.0092675800000
-0.0097774400000
-0.0057713100000
0.0014886700000
0.0110249000000
0.0224152000000
0.0326057000000
0.0374760000000
0.0383400000000
0.0351781000000
0.0288776000000
0.0219951000000
0.0152653000000
0.0099012300000
0.0052986400000
0.0025216800000
0.0010154500000
-0.0003495900000
-0.0016864800000
-0.0018721000000
-0.0013637900000
-0.0011589500000
0.0018932600000
0.0039355600000
0.0071044300000
0.0085044600000
0.0075722600000
0.0057279000000
0.0060955600000
0.0068993500000
0.0090463100000
0.0122923000000
0.0117711000000
0.0103718000000
0.0065242800000
0.0026229600000
0.0017975000000
0.0043193100000
0.0084270700000
0.0117801000000
0.0130590000000
0.0132919000000
0.0105533000000
0.0080405000000
0.0084438500000
0.0087034700000
0.0105401000000
0.0108199000000
0.0087364900000
0.0058219800000
0.0035614900000
0.0020791400000
-0.0025019600000
-0.0084542800000
-0.0125803000000
-0.0136881000000
-0.0159177000000
-0.0138850000000
-0.0111741000000
-0.0079566300000
-0.0057851300000
-0.0046829500000
-0.0088052200000
-0.0154180000000
-0.0213027000000
-0.0254533000000
-0.0259746000000
-0.0215064000000
-0.0198243000000
-0.0194582000000
-0.0206150000000
-0.0220355000000
-0.0208154000000
-0.0212474000000
-0.0214375000000
-0.0214882000000
-0.0215213000000
-0.0238976000000
-0.0242778000000
-0.0230421000000
-0.0195768000000
-0.0141269000000
-0.0082324500000
-0.0014983700000
0.0031169900000
0.0068926500000
0.0093384800000
0.0101022000000
0.0093017400000
0.0083407800000
0.0061849300000
0.0058747700000
0.0071138800000
0.0052789200000
0.0005718340000
-0.0025465000000
-0.0024979900000
-0.0023150900000
-0.0024017600000
-0.0022593700000
-0.0020350700000
-0.0019844300000
-0.0046729500000
-0.0075630700000
-0.0090872600000
-0.0104036000000
-0.0080020400000
-0.0064260300000
-0.0060393600000
-0.0054062000000
-0.0045638600000
-0.0039074800000
-0.0030041300000
-0.0005060470000
0.0026076900000
0.0041964800000
0.0031897600000
-0.0009890760000
-0.0066945100000
-0.0088346900000
-0.0081672600000
-0.0088351400000
-0.0063472700000
-0.0038900400000
-0.0000322318000
0.0038480100000
0.0065843200000
0.0092533000000
0.0118052000000
0.0139681000000
0.0157825000000
0.0155753000000
0.0147471000000
0.0142750000000
0.0137263000000
0.0145086000000
0.0165200000000
0.0181140000000
0.0186769000000
0.0175079000000
0.0164098000000
0.0153494000000
0.0143380000000
0.0132911000000
0.0123558000000
0.0113503000000
0.0106163000000
0.0114086000000
0.0127882000000
0.0124607000000
0.0126131000000
0.0115729000000
0.0104872000000
0.0093847800000
0.0079859900000
0.0052638800000
0.0044298700000
0.0036698000000
0.0028124600000
-0.0010899900000
-0.0030860000000
-0.0061552400000
-0.0090147000000
-0.0099941600000
-0.0120088000000
-0.0142277000000
-0.0164650000000
-0.0187929000000
-0.0176119000000
-0.0149036000000
-0.0098547000000
-0.0062350500000
-0.0038083200000
-0.0045650800000
-0.0041197700000
-0.0024581100000
0.0021905900000
0.0067368500000
0.0106791000000
0.0106125000000
0.0069931100000
0.0012531300000
-0.0054908600000
-0.0131502000000
-0.0172152000000
-0.0175835000000
-0.0148397000000
-0.0113710000000
-0.0060597900000
-0.0032281900000
-0.0019911600000
-0.0001859090000
0.0023187100000
0.0034603700000
0.0025225100000
0.0019117800000
0.0012383800000
-0.0009764760000
-0.0010972900000
-0.0021920700000
-0.0046704800000
-0.0065063500000
-0.0082605900000
-0.0108622000000
-0.0135191000000
-0.0142179000000
-0.0126747000000
-0.0067643300000
-0.0008350690000
0.0044773600000
0.0109269000000
0.0166824000000
0.0202696000000
0.0219922000000
0.0222908000000
0.0198247000000
0.0171987000000
0.0130755000000
0.0087517000000
0.0059233000000
0.0029568600000
0.0002974990000
-0.0010729600000
-0.0023873100000
-0.0044445800000
-0.0047368400000
-0.0068210600000
-0.0075067200000
-0.0067599100000
-0.0058884300000
-0.0054684500000
-0.0046575000000
-0.0042243900000
-0.0035158900000
-0.0027397700000
0.0009352010000
0.0033925400000
0.0056886900000
0.0081341600000
0.0099712800000
0.0095332900000
0.0087628200000
0.0085305400000
0.0076814100000
0.0096385500000
0.0115381000000
0.0133244000000
0.0131475000000
0.0096274200000
0.0055884300000
0.0001843970000
-0.0034313900000
-0.0054051400000
-0.0052667900000
-0.0019234000000
0.0021379600000
0.0054848400000
0.0082526400000
0.0083036800000
0.0090590800000
0.0085548700000
0.0086037900000
0.0089451600000
0.0080643900000
0.0084697300000
0.0086214000000
0.0096518500000
0.0100230000000
0.0069969900000
0.0017477500000
-0.0037929000000
-0.0058712500000
-0.0071766900000
-0.0073573600000
-0.0048202800000
-0.0005584540000
0.0043461100000
0.0099871300000
0.0116822000000
0.0111903000000
0.0106643000000
0.0074962600000
0.0050005900000
0.0007932260000
-0.0053402300000
-0.0121327000000
-0.0178570000000
-0.0223618000000
-0.0259066000000
-0.0275558000000
-0.0249048000000
-0.0211966000000
-0.0172985000000
-0.0132842000000
-0.0096553400000
-0.0061940800000
-0.0075839400000
-0.0097504700000
-0.0100452000000
-0.0092087900000
-0.0108453000000
-0.0140362000000
-0.0158268000000
-0.0157328000000
-0.0157212000000
-0.0137872000000
-0.0104667000000
-0.0073564900000
-0.0057594900000
-0.0040027200000
-0.0023735000000
-0.0013960500000
-0.0038972900000
-0.0058230100000
-0.0052442800000
-0.0044532400000
-0.0044632000000
-0.0036982700000
-0.0046406900000
-0.0050231500000
-0.0042554000000
-0.0019206600000
-0.0016313700000
0.0007493720000
0.0033162400000
0.0032232500000
0.0009466530000
-0.0010780000000
-0.0034141800000
-0.0041761300000
-0.0062757800000
-0.0077386500000
-0.0096913500000
-0.0095143900000
-0.0080668100000
-0.0071327400000
-0.0060930000000
-0.0051631300000
-0.0034860200000
-0.0012672000000
0.0008100960000
0.0024312100000
0.0058917600000
0.0095065300000
0.0121915000000
0.0151484000000
0.0167329000000
0.0185677000000
0.0176956000000
0.0180197000000
0.0160412000000
0.0149016000000
0.0122931000000
0.0091866200000
0.0058257800000
0.0016564500000
-0.0035524000000
-0.0070959400000
-0.0096952200000
-0.0114329000000
-0.0110036000000
-0.0072265200000
-0.0023891300000
0.0033182800000
0.0101961000000
0.0138288000000
0.0179789000000
0.0199831000000
0.0198710000000
0.0184517000000
0.0147264000000
0.0136324000000
0.0132665000000
0.0138306000000
0.0156461000000
0.0159213000000
0.0159444000000
0.0134553000000
0.0086942700000
0.0057305400000
0.0047805300000
0.0035531400000
0.0013232300000
0.0022319100000
0.0015581400000
-0.0002652910000
-0.0017865900000
-0.0022519900000
-0.0021091500000
-0.0023696200000
-0.0022930300000
-0.0008003360000
0.0018373600000
0.0037249100000
0.0046957000000
0.0050452000000
0.0070945500000
0.0085909200000
0.0092108600000
0.0059994800000
0.0026776300000
-0.0017477100000
-0.0042637200000
-0.0074823300000
-0.0107356000000
-0.0128278000000
-0.0140133000000
-0.0133787000000
-0.0127439000000
-0.0121746000000
-0.0116462000000
-0.0110666000000
-0.0104758000000
-0.0098369000000
-0.0079564900000
-0.0050068400000
-0.0044157800000
-0.0043127100000
-0.0049848100000
-0.0049058800000
-0.0034507400000
-0.0034108900000
-0.0034832400000
-0.0030315100000
-0.0044548500000
-0.0071825800000
-0.0079835800000
-0.0097412400000
-0.0097700800000
-0.0088811800000
-0.0080914800000
-0.0076519800000
-0.0057515200000
-0.0054591300000
-0.0059171600000
-0.0051347500000
-0.0045424600000
-0.0040898800000
-0.0035577400000
-0.0030055300000
-0.0024484600000
-0.0029325700000
-0.0069963600000
-0.0096247600000
-0.0081663400000
-0.0099964600000
-0.0105353000000
-0.0089509900000
-0.0076107700000
-0.0067670100000
-0.0030305700000
0.0016829400000
0.0075002100000
0.0132371000000
0.0176599000000
0.0199440000000
0.0212879000000
0.0223220000000
0.0205729000000
0.0205414000000
0.0221181000000
0.0222101000000
0.0211686000000
0.0212281000000
0.0203273000000
0.0186916000000
0.0168805000000
0.0165536000000
0.0149504000000
0.0124744000000
0.0126602000000
0.0120330000000
0.0108916000000
0.0109984000000
0.0087695700000
0.0057983900000
0.0032517200000
0.0021331300000
0.0011689200000
0.0002955850000
-0.0006413300000
-0.0028089700000
-0.0075929300000
-0.0112819000000
-0.0157531000000
-0.0193657000000
-0.0210200000000
-0.0192826000000
-0.0160333000000
-0.0150376000000
-0.0146311000000
-0.0136951000000
-0.0130675000000
-0.0125133000000
-0.0120633000000
-0.0112947000000
-0.0108391000000
-0.0101090000000
-0.0096813800000
-0.0077670400000
-0.0062820000000
-0.0050299500000
-0.0068624600000
-0.0080453500000
-0.0086507900000
-0.0105668000000
-0.0105580000000
-0.0095155000000
-0.0081529600000
-0.0050924700000
-0.0033264800000
-0.0016306900000
0.0012804000000
0.0034296800000
0.0024282900000
0.0008095270000
0.0009532920000
0.0011464700000
0.0009252930000
0.0009254690000
0.0016436700000
0.0041323500000
0.0050371700000
0.0074999700000
0.0084848300000
0.0075076900000
0.0062407700000
0.0034786700000
0.0019764200000
0.0034814300000
0.0054047000000
0.0063090500000
0.0077576700000
0.0052137100000
0.0016648700000
-0.0008082170000
-0.0046783000000
-0.0053694300000
-0.0047656400000
-0.0056943300000
-0.0093414500000
-0.0107466000000
-0.0129392000000
-0.0144729000000
-0.0141944000000
-0.0131639000000
-0.0090821400000
-0.0040470500000
0.0017817900000
0.0064198300000
0.0121730000000
0.0176334000000
0.0212598000000
0.0197044000000
0.0164241000000
0.0118716000000
0.0080465200000
0.0049784700000
0.0005804560000
-0.0033535000000
-0.0068655700000
-0.0103188000000
-0.0120491000000
-0.0136139000000
-0.0145977000000
-0.0123376000000
-0.0084472000000
-0.0050528800000
-0.0021561300000
0.0011792200000
0.0029823100000
0.0028192200000
0.0028671200000
0.0031205200000
0.0019358700000
0.0009833740000
0.0025167100000
0.0017985400000
0.0004187750000
-0.0004193410000
0.0008747100000
0.0023155200000
0.0023306400000
0.0040584200000
0.0057450000000
0.0104425000000
0.0123663000000
0.0125502000000
0.0114645000000
0.0116865000000
0.0114756000000
0.0102014000000
0.0096474700000
0.0088182700000
0.0083656500000
0.0067553100000
0.0049437300000
0.0019384300000
-0.0002863250000
-0.0001829110000
-0.0002462440000
-0.0001420450000
0.0015629100000
0.0031033700000
0.0049516500000
0.0064507100000
0.0063523500000
0.0036511700000
0.0007922880000
0.0006426410000
0.0008015070000
0.0021493300000
0.0038207200000
0.0022440500000
-0.0007469680000
-0.0035426500000
-0.0063433400000
-0.0097551300000
-0.0094264100000
-0.0110336000000
-0.0127857000000
-0.0116551000000
-0.0108318000000
-0.0101103000000
-0.0094542900000
-0.0073997300000
-0.0057438100000
-0.0035673100000
-0.0009902820000
-0.0000127882000
0.0013592400000
-0.0014147700000
-0.0030119900000
-0.0021702300000
-0.0019611800000
-0.0018632800000
-0.0016906600000
-0.0014273300000
-0.0018936600000
-0.0046240000000
-0.0047983000000
-0.0038488200000
-0.0037049600000
-0.0026189000000
0.0005570560000
0.0033121600000
0.0052826300000
0.0078652200000
0.0095538000000
0.0090601900000
0.0082294100000
0.0080808200000
0.0071091100000
0.0067897300000
0.0019857400000
-0.0034098200000
-0.0080555400000
-0.0116500000000
-0.0131469000000
-0.0134277000000
-0.0127498000000
-0.0101765000000
-0.0074702600000
-0.0024198300000
0.0036229900000
0.0070736200000
0.0108139000000
0.0138543000000
0.0164411000000
0.0156784000000
0.0156882000000
0.0159222000000
0.0142631000000
0.0114456000000
0.0102733000000
0.0086370300000
0.0051222300000
0.0008375990000
-0.0009375890000
-0.0003216730000
-0.0017550500000
-0.0019345300000
-0.0021106000000
-0.0030009300000
-0.0028812900000
-0.0027028000000
-0.0019118300000
-0.0005846960000
-0.0007722040000
-0.0008236490000
-0.0008410890000
-0.0008072970000
-0.0010022800000
-0.0021177000000
-0.0046893900000
-0.0050389200000
-0.0046474000000
-0.0043139300000
-0.0044197000000
-0.0015472700000
0.0007109770000
0.0017852100000
0.0022383400000
0.0010312100000
-0.0004917270000
-0.0005826770000
-0.0004618610000
-0.0007236240000
-0.0008694820000
-0.0001816670000
0.0023611800000
0.0032081000000
0.0026266900000
0.0022431500000
0.0019895200000
0.0016144100000
0.0013476800000
0.0010182000000
0.0007567420000
0.0003910190000
0.0002965110000
-0.0009225670000
-0.0035190500000
-0.0046664700000
-0.0046980200000
-0.0083172100000
-0.0107608000000
-0.0133993000000
-0.0150876000000
-0.0152320000000
-0.0148319000000
-0.0130055000000
-0.0105703000000
-0.0086235500000
-0.0054756400000
-0.0036019600000
-0.0015036300000
0.0010959900000
0.0013062600000
0.0012436600000
0.0028056700000
0.0053734500000
0.0054838700000
0.0050733800000
0.0039941200000
0.0027134100000
0.0026308900000
0.0029470100000
0.0041636400000
0.0043261600000
0.0047541100000
0.0072071800000
0.0078325900000
0.0085128800000
0.0089425900000
0.0104333000000
0.0122290000000
0.0122352000000
0.0109982000000
0.0080105300000
0.0051339700000
0.0044826700000
0.0040133000000
0.0032671400000
0.0026497600000
0.0020850000000
0.0017470100000
0.0011624800000
0.0008381680000
-0.0023457600000
-0.0042886200000
-0.0037584700000
-0.0039458800000
-0.0049890500000
-0.0076170700000
-0.0082115200000
-0.0077066400000
-0.0073093000000
-0.0072501500000
-0.0056371900000
-0.0028341600000
0.0012679300000
0.0039521300000
0.0059092100000
0.0058912800000
0.0039012500000
0.0032082600000
0.0011735800000
-0.0017074600000
-0.0019106000000
-0.0039862000000
-0.0065610100000
-0.0061934500000
-0.0058231800000
-0.0058722600000
-0.0058045900000
-0.0055359600000
-0.0053060500000
-0.0050876900000
-0.0049390400000
-0.0041924500000
-0.0017657500000
0.0008761230000
0.0014808100000
-0.0006186870000
-0.0034857900000
-0.0055278700000
-0.0087370800000
-0.0121969000000
-0.0151104000000
-0.0152423000000
-0.0144663000000
-0.0149542000000
-0.0130132000000
-0.0077941000000
-0.0036734200000
-0.0005527360000
0.0031568500000
0.0048157200000
0.0046057700000
0.0034720000000
0.0034274500000
0.0036397100000
0.0026369300000
0.0021451900000
0.0033982500000
0.0033796700000
0.0031858700000
0.0022213000000
-0.0009319640000
-0.0010391600000
-0.0029358800000
-0.0047386100000
-0.0044087800000
-0.0068748700000
-0.0067596100000
-0.0056715600000
-0.0050483200000
-0.0043737800000
-0.0035128600000
-0.0028111700000
-0.0021043200000
-0.0003934280000
0.0027244000000
0.0034941600000
0.0037585500000
0.0037295300000
0.0063274000000
0.0087155700000
0.0115121000000
0.0143084000000
0.0160697000000
0.0168573000000
0.0159288000000
0.0150622000000
0.0139094000000
0.0114691000000
0.0102254000000
0.0088152100000
0.0055656700000
0.0040234100000
0.0008747940000
-0.0002515580000
0.0001826290000
-0.0010214800000
-0.0034006500000
-0.0035291100000
-0.0031250400000
-0.0011351800000
0.0017355400000
0.0045215000000
0.0092581700000
0.0117040000000
0.0124933000000
0.0118459000000
0.0109593000000
0.0101553000000
0.0092379400000
0.0083461000000
0.0076363400000
0.0058108400000
0.0026598800000
0.0013622000000
0.0007540310000
-0.0012606900000
-0.0015937400000
-0.0026939000000
-0.0038936200000
-0.0037520100000
-0.0036029600000
-0.0036792800000
-0.0025498100000
-0.0014289800000
-0.0015539000000
-0.0000352781000
0.0003120330000
-0.0001363290000
-0.0003446440000
-0.0005424960000
-0.0007170390000
-0.0009849980000
-0.0002897090000
0.0008317990000
0.0004045290000
0.0017555600000
0.0036893700000
0.0034341500000
0.0024870400000
0.0020681100000
0.0001930510000
-0.0010459800000
-0.0011728000000
-0.0014670200000
-0.0028834700000
-0.0042195900000
-0.0041275500000
-0.0041673400000
-0.0043282900000
-0.0045429800000
-0.0045087700000
-0.0058343600000
-0.0066799700000
-0.0061371600000
-0.0070497400000
-0.0082375600000
-0.0091137400000
-0.0094218900000
-0.0089829800000
-0.0084261000000
-0.0089709500000
-0.0097485600000
-0.0091147900000
-0.0087381400000
-0.0094805500000
-0.0076637600000
-0.0066301400000
-0.0063915300000
-0.0058054000000
-0.0053258200000
-0.0048745500000
-0.0044118500000
-0.0039681100000
-0.0035190300000
-0.0031978200000
-0.0027903500000
-0.0024600800000
-0.0019882800000
-0.0017710500000
-0.0002511270000
0.0010880800000
0.0025738000000
0.0031555600000
0.0030824500000
0.0021605200000
0.0008652580000
0.0010900900000
0.0012591300000
0.0012933000000
0.0013358900000
0.0013475200000
0.0014484100000
0.0016177600000
0.0017630000000
0.0017928200000
0.0017509200000
0.0025074400000
0.0050913400000
0.0060457900000
0.0053877900000
0.0034743900000
0.0028910400000
0.0030726900000
0.0028923100000
0.0027563100000
0.0025777000000
0.0015510500000
0.0025338300000
0.0038872000000
0.0048008800000
0.0052918700000
0.0047567100000
0.0046079300000
0.0042588600000
0.0040058200000
0.0035668100000
0.0033163100000
0.0030155400000
0.0028165300000
0.0025925700000
0.0024093700000
0.0033264400000
0.0023341900000
0.0019003900000
0.0026907500000
0.0009911250000
0.0020832200000
0.0030661600000
0.0040691900000
0.0041024600000
0.0035962300000
0.0032809200000
0.0029082800000
0.0024732000000
0.0020077100000
0.0016764900000
0.0013362700000
0.0010345900000
-0.0005128230000
-0.0018405400000
-0.0015959900000
-0.0023551700000
-0.0038081300000
-0.0039939200000
-0.0036686900000
-0.0052556300000
-0.0059757600000
-0.0076020300000
-0.0089960800000
-0.0083947200000
-0.0089563800000
-0.0094633900000
-0.0084401400000
-0.0078287600000
-0.0070754000000
-0.0065796900000
-0.0057988700000
-0.0053612500000
-0.0046345600000
-0.0043185800000
-0.0026873400000
-0.0010560500000
0.0005376400000
0.0013698900000
0.0015591200000
0.0020940400000
0.0046466400000
0.0046671000000
0.0031294000000
0.0017585300000
0.0009952280000
-0.0009415170000
-0.0023222200000
-0.0017045600000
-0.0013483800000
-0.0011505700000
-0.0007731570000
-0.0003671960000
-0.0000517098000
0.0002606600000
0.0004338560000
0.0017179500000
0.0045082600000
0.0058032000000
0.0064614100000
0.0075352000000
0.0079120600000
0.0072464400000
0.0069648200000
0.0064956500000
0.0072531900000
0.0077712400000
0.0082986300000
0.0093244200000
0.0109446000000
0.0100779000000
0.0089667700000
0.0079507500000
0.0052959500000
0.0030074000000
0.0025495700000
0.0021217900000
0.0016514600000
0.0012156100000
0.0009295180000
0.0005268600000
0.0003104760000
-0.0000754612000
-0.0002989430000
-0.0002613270000
0.0016558900000
0.0021919400000
0.0036941900000
0.0045299100000
0.0035931100000
0.0027887900000
0.0022849600000
0.0005346000000
-0.0009761760000
-0.0024451100000
-0.0031806200000
-0.0032788200000
-0.0036052600000
-0.0037705900000
-0.0038983000000
-0.0039803000000
-0.0040900900000
-0.0042141500000
-0.0042631500000
-0.0052829100000
-0.0061237700000
-0.0069512100000
-0.0070823100000
-0.0066026200000
-0.0064928900000
-0.0061938500000
-0.0059258200000
-0.0061187900000
-0.0068557900000
-0.0072308100000
-0.0074778800000
-0.0068856500000
-0.0064377900000
-0.0059096400000
-0.0054738800000
-0.0049198500000
-0.0035572700000
-0.0017009600000
-0.0006009550000
0.0012845000000
0.0013362400000
0.0010851200000
0.0010252600000
0.0009936680000
0.0007123120000
0.0006884060000
-0.0001529430000
-0.0008913010000
-0.0025836400000
-0.0036994000000
-0.0049270300000
-0.0046311200000
-0.0046079900000
-0.0031904600000
-0.0015652000000
-0.0017895800000
-0.0007027370000
-0.0004202850000
0.0006822750000
0.0019941400000
0.0035569500000
0.0038112200000
0.0034080200000
0.0032916200000
0.0030832400000
0.0030190100000
0.0037729800000
0.0045382200000
0.0041337100000
0.0037795600000
0.0034634400000
0.0031550400000
0.0027356600000
0.0027976500000
0.0027057900000
0.0019326200000
0.0010181400000
0.0002943340000
-0.0010310400000
-0.0017042400000
-0.0019397000000
-0.0023819900000
-0.0025582200000
-0.0028248500000
-0.0024535400000
-0.0015009700000
-0.0008088240000
0.0002397230000
0.0012662900000
0.0014750200000
0.0013571700000
0.0013324300000
0.0012726300000
0.0012255200000
0.0007142840000
0.0003423320000
-0.0000488035000
-0.0001246470000
0.0000633401000
0.0001195010000
0.0002294690000
0.0002051060000
-0.0001121080000
-0.0001181370000
0.0001296150000
0.0001671650000
0.0006605130000
0.0010014900000
0.0014828000000
0.0018532700000
0.0017553600000
0.0016313900000
0.0015588200000
0.0014441800000
0.0013451800000
0.0012322200000
0.0011472900000
0.0010688500000
0.0009874810000
0.0008298610000
0.0004421070000
-0.0000433984000
-0.0001854550000
-0.0003062970000
-0.0003493640000
-0.0002287510000
-0.0001198330000
-0.0000462933000
0.0000341724000
0.0002593230000
0.0006421510000
0.0008740540000
0.0011759200000
0.0013696400000
0.0012345400000
0.0010673900000
0.0012350600000
0.0011355500000
0.0009646340000
0.0009106500000
0.0008307160000
0.0007039840000
0.0004867510000
0.0002188590000
0.0000617727000
-0.0000301562000
-0.0002247360000
-0.0003737210000
-0.0004984820000
-0.0005905930000
-0.0006666760000
-0.0006835130000
-0.0006750010000
-0.0007336940000
-0.0007419180000
-0.0006849800000
-0.0006058650000
-0.0005940110000
-0.0005014900000
-0.0003984910000
-0.0003986650000
-0.0003846790000
-0.0003953180000
-0.0004151150000
-0.0004260080000
-0.0004412370000
-0.0004696000000
-0.0004837420000
-0.0004880500000
-0.0004900010000
-0.0004954040000
-0.0004697250000
-0.0004388110000
-0.0004230880000
-0.0003865470000
-0.0003500500000
-0.0003169490000
-0.0002828920000
-0.0002430210000
-0.0002179330000
-0.0001958650000
-0.0001733690000
-0.0001524300000
-0.0001333060000
-0.0001150780000
-0.0000978874000
-0.0000814981000
-0.0000637082000
-0.0000482892000
-0.0000369889000
-0.0000302536000
-0.0000197483000
-0.0000087007200
0.0000001184770
0.0000088974100
0.0000159609000
0.0000221789000
0.0000284774000
0.0000338239000
0.0000387163000
0.0000428038000
0.0000459265000
0.0000489621000
0.0000508469000
0.0000520687000
0.0000526245000
0.0000526537000
0.0000519751000
0.0000510158000
0.0000495611000
0.0000477352000
0.0000454898000
0.0000429398000
0.0000400381000
0.0000368580000
0.0000333894000
0.0000296737000
0.0000257217000
0.0000215580000
0.0000000000000