0 -1.35828 -0.675577 1.10669
0 -1.35828 -0.675577 1.10669
0 -1.35828 -0.675577 1.10669
0 -1.35828 -0.675577 1.10669
0 -1.35828 -0.675577 1.10669
0 -1.35828 -0.675577 1.10669
0 -1.35828 -0.675577 1.10669
0 -1.35828 -0.675577 1.10669
0 -1.35828 -0.675577 1.10669
0 -1.35828 -0.675577 1.10669
