0.1 0 6.72863e-16 1.16367e-15 1.42837e-15
0.2 0 1.13857e-15 1.97395e-15 2.47453e-15
0.3 0 1.73306e-15 3.03035e-15 3.81259e-15
0.4 0 2.55925e-15 4.45127e-15 5.55078e-15
0.5 0 3.00079e-15 5.3072e-15 6.70369e-15
0.6 0 3.80176e-15 6.65081e-15 8.37158e-15
0.7 0 4.35748e-15 7.65649e-15 9.71221e-15
0.8 0 4.98214e-15 8.84952e-15 1.12676e-14
0.9 0 5.74492e-15 1.01843e-14 1.29632e-14
1 0 6.43913e-15 1.14635e-14 1.46405e-14
