mass	4	0.1418	1.00E-12	1.00E-12	;
mass	6	0.1418	1.00E-12	1.00E-12	;
mass	7	0.1418	1.00E-12	1.00E-12	;
mass	9	0.1418	1.00E-12	1.00E-12	;
mass	10	0.1418	1.00E-12	1.00E-12	;
mass	12	0.1418	1.00E-12	1.00E-12	;
