0.0000049903600
0.0000049818300
0.0000049976900
0.0000050046900
0.0000049729400
0.0000049868100
0.0000050940300
0.0000051600000
0.0000049125900
0.0000046063500
0.0000048938300
0.0000056340900
0.0000057488000
0.0000051007800
0.0000043837600
0.0000044235700
0.0000044795400
0.0000035742200
0.0000034189600
0.0000048373200
0.0000060590500
0.0000062461500
0.0000052360100
0.0000045894000
0.0000009225830
-0.0000072968400
-0.0000075812500
0.0000010125100
0.0000085396600
0.0000095165300
0.0000028407200
0.0000031205400
0.0000131851000
0.0000113735000
0.0000033118300
0.0000075641800
0.0000169939000
0.0000162883000
0.0000072518800
0.0000018719000
0.0000072961800
0.0000150216000
0.0000077114800
-0.0000041594400
-0.0000007056000
0.0000099185200
0.0000079902900
-0.0000050240700
-0.0000061270300
0.0000043598700
0.0000078014400
-0.0000001630190
-0.0000107444000
-0.0000119231000
0.0000104315000
0.0000192428000
0.0000012023600
-0.0000156617000
-0.0000063210600
0.0000184228000
0.0000196903000
0.0000025359300
-0.0000037487600
0.0000099235200
0.0000155822000
-0.0000229488000
-0.0000322871000
0.0000086474300
0.0000333805000
0.0000288848000
0.0000050287400
-0.0000103071000
-0.0000065705600
-0.0000187216000
-0.0000253564000
-0.0000222450000
-0.0000111307000
-0.0000178780000
-0.0000837136000
-0.0001078960000
-0.0000199922000
0.0000564874000
0.0000376583000
-0.0000064304400
-0.0000416337000
-0.0000263188000
-0.0000018995500
-0.0000158629000
-0.0000134651000
0.0000050081600
-0.0000199782000
-0.0000797685000
-0.0000692145000
0.0000147725000
0.0000774502000
0.0000809809000
0.0000499270000
0.0000431667000
0.0000818955000
0.0000321776000
-0.0000767141000
-0.0000688484000
0.0000092413700
0.0000048188300
-0.0000526360000
-0.0000388058000
0.0000271232000
0.0000744179000
0.0000345437000
-0.0000324722000
-0.0000560733000
-0.0000109658000
0.0000268941000
0.0000099182600
-0.0000064763000
-0.0000088748600
-0.0000101115000
0.0000184699000
0.0000721735000
0.0000878503000
0.0000848669000
0.0001095610000
0.0001080130000
0.0000302433000
-0.0000341407000
-0.0000469298000
-0.0000208900000
0.0000464676000
0.0000825643000
0.0000416546000
-0.0000208431000
-0.0000222608000
0.0000626676000
0.0001326950000
0.0001176360000
0.0000181743000
-0.0000525051000
-0.0000493829000
-0.0000055507100
0.0000429811000
0.0000758426000
0.0000814717000
0.0000681757000
0.0001467230000
0.0001773100000
0.0000931346000
0.0000345564000
0.0000243961000
0.0000004978180
-0.0000763487000
-0.0000926116000
-0.0000260433000
0.0000135434000
0.0000160957000
0.0000053009600
0.0000291937000
0.0000267112000
-0.0000054884300
-0.0000060641200
-0.0000010369600
-0.0000098130900
-0.0000553564000
-0.0000676828000
-0.0000270698000
-0.0000089740900
-0.0000284325000
-0.0000409176000
-0.0000568866000
-0.0000437861000
0.0000182307000
0.0000119327000
-0.0000337276000
-0.0000151786000
0.0000002695740
-0.0000233819000
-0.0000593915000
-0.0000611915000
-0.0000164576000
-0.0000070157400
-0.0000460144000
-0.0000834407000
-0.0001313210000
-0.0001912980000
-0.0000940432000
0.0000490779000
0.0000390455000
-0.0000029783700
0.0000194178000
0.0000290495000
0.0000042575300
0.0000299647000
0.0000664381000
0.0000628771000
0.0000081841500
-0.0000282165000
-0.0000067488300
0.0000475304000
0.0001101950000
0.0002031460000
0.0001983380000
-0.0000483804000
-0.0002731150000
-0.0002258190000
0.0000186288000
0.0001827810000
0.0001299710000
0.0000396923000
0.0000442725000
0.0000591326000
-0.0000029059500
-0.0000961117000
-0.0000665012000
0.0000092385500
-0.0000492184000
-0.0001596760000
-0.0000796795000
0.0000776185000
0.0000395424000
-0.0000688757000
-0.0001306800000
-0.0001040850000
-0.0000352315000
-0.0000292201000
-0.0000583563000
-0.0001010550000
-0.0001242360000
-0.0001620330000
-0.0002022630000
-0.0000973799000
0.0000641960000
0.0000611030000
-0.0000705591000
-0.0001764360000
-0.0000456406000
0.0001211060000
0.0001459930000
0.0000952769000
0.0000769822000
0.0001209870000
0.0001242930000
0.0000273697000
0.0000044227200
0.0001457170000
0.0001783030000
0.0001179620000
0.0000724710000
0.0000851831000
0.0000770996000
0.0000340717000
0.0000112349000
-0.0000353041000
-0.0000753241000
-0.0000422013000
-0.0000256639000
-0.0001188370000
-0.0001866800000
-0.0000816637000
-0.0000303303000
-0.0000729000000
-0.0000031897300
0.0000809380000
0.0000126742000
-0.0000617133000
0.0000913837000
0.0002031260000
0.0000169459000
-0.0001532970000
-0.0001450490000
-0.0001454520000
-0.0002718920000
-0.0002271120000
-0.0000088993200
0.0000535280000
-0.0000130823000
-0.0000088250100
0.0000774820000
0.0000995323000
0.0000929947000
0.0001085470000
0.0000399564000
-0.0000788925000
-0.0000962847000
-0.0000229358000
0.0000704276000
0.0001372960000
0.0001700310000
0.0001546830000
0.0001048350000
0.0000618744000
0.0000004652300
-0.0000195925000
0.0000321492000
0.0000678902000
0.0000715830000
-0.0000424413000
-0.0003308920000
-0.0003266170000
-0.0000304593000
0.0001276700000
0.0000841386000
0.0000624658000
0.0001037130000
0.0000642086000
-0.0000667401000
-0.0001436630000
-0.0001597350000
-0.0000978616000
0.0000133695000
0.0000995183000
0.0001515500000
0.0000825739000
-0.0000198843000
-0.0000179837000
0.0000152887000
0.0000221008000
0.0000287008000
0.0000398445000
-0.0000039378700
-0.0000302570000
-0.0000475069000
-0.0000633485000
0.0000092345900
0.0000507148000
-0.0000130829000
-0.0000970604000
-0.0000893819000
-0.0000120233000
0.0000737343000
0.0001538790000
0.0002242150000
0.0001616830000
-0.0001000200000
-0.0002814500000
-0.0001728210000
0.0000081253700
-0.0000055682500
-0.0001198190000
-0.0001416090000
-0.0000375110000
0.0000192072000
0.0000181429000
0.0001387370000
0.0002038050000
0.0001340330000
0.0000004478360
-0.0001264420000
-0.0001251900000
-0.0000425225000
-0.0000108785000
-0.0000065912100
0.0000021640700
0.0000428642000
0.0000729009000
0.0001193660000
0.0002244800000
0.0002176100000
0.0000569673000
-0.0000700909000
-0.0000846677000
0.0000067502000
0.0000917780000
-0.0000428784000
-0.0001822900000
-0.0001362530000
-0.0000340764000
-0.0000363891000
-0.0000213359000
0.0001035040000
0.0002228480000
0.0001610700000
0.0000638166000
0.0000081240300
-0.0000952689000
-0.0001451630000
-0.0000650582000
0.0000022672100
-0.0001058430000
-0.0001201070000
0.0000361806000
0.0000948131000
-0.0000489161000
-0.0001702840000
-0.0000798214000
0.0000757532000
0.0001439690000
0.0001150310000
0.0000354843000
-0.0000082999100
0.0000479374000
0.0000849471000
0.0000009721930
-0.0000683076000
0.0000219084000
0.0001342810000
0.0000890649000
0.0000264472000
-0.0000099768100
-0.0000511978000
-0.0000621384000
-0.0000586781000
-0.0000263958000
0.0000311464000
0.0001534920000
0.0001670870000
0.0000103254000
-0.0000710353000
0.0000675101000
0.0002615130000
0.0002298380000
-0.0000148586000
-0.0001371250000
-0.0000496151000
0.0001234910000
0.0001793200000
0.0000599124000
-0.0000648344000
-0.0001022440000
-0.0000414328000
0.0000727908000
0.0001431450000
0.0001410860000
0.0000883513000
0.0000274925000
0.0000166886000
0.0000259852000
0.0000670191000
0.0000106999000
-0.0000765056000
0.0000104143000
0.0001285010000
0.0001087520000
-0.0000132497000
-0.0000923100000
-0.0000366400000
0.0000631971000
0.0000459021000
-0.0000272672000
0.0000423984000
0.0002188150000
0.0002440600000
0.0000052252700
-0.0002172860000
-0.0001919320000
-0.0001376670000
-0.0002841670000
-0.0001998100000
0.0001144660000
0.0001844490000
0.0000024062600
-0.0001686610000
-0.0001822360000
-0.0000650781000
0.0000485498000
0.0000549641000
0.0000058269900
0.0000347852000
0.0000328259000
-0.0000697461000
-0.0000893925000
-0.0000309081000
-0.0000470370000
-0.0001568670000
-0.0002226020000
-0.0000927727000
0.0000571650000
0.0001032290000
0.0000329226000
-0.0000481185000
-0.0000711539000
-0.0000558349000
-0.0000204504000
-0.0000905979000
-0.0001551930000
-0.0001222740000
-0.0000473452000
-0.0000163851000
-0.0000663320000
-0.0000219311000
0.0000843469000
0.0000472698000
0.0000024991300
0.0000161572000
0.0000065096600
-0.0000188334000
-0.0000788636000
-0.0000875098000
0.0000319395000
0.0000981544000
-0.0000991632000
-0.0003563390000
-0.0002898670000
-0.0000896018000
-0.0000391925000
-0.0000720156000
0.0000147346000
0.0001535260000
0.0000682139000
-0.0000302920000
0.0000740765000
0.0001938380000
0.0000932531000
-0.0000617137000
0.0000523905000
0.0002742680000
0.0002939500000
0.0001123050000
-0.0000308122000
0.0000100490000
0.0000755265000
0.0000361267000
-0.0000396982000
-0.0000523195000
-0.0000618376000
-0.0001030810000
-0.0001015780000
-0.0000574944000
-0.0000038749900
0.0000363689000
0.0000018389100
-0.0000460576000
-0.0000599737000
-0.0000726075000
-0.0001492210000
-0.0003577460000
-0.0005480430000
-0.0006085940000
-0.0006317310000
-0.0006335770000
-0.0005061010000
-0.0003107600000
-0.0002249500000
-0.0002166040000
-0.0001151000000
0.0000887918000
0.0001600730000
0.0000275461000
-0.0000621349000
0.0000257009000
0.0001965820000
0.0003194660000
0.0004724310000
0.0006669580000
0.0006178650000
0.0000356680000
-0.0006605620000
-0.0009837570000
-0.0009652300000
-0.0008421550000
-0.0007150690000
-0.0003241560000
0.0002000810000
0.0003605490000
-0.0000409421000
-0.0005612290000
-0.0008644090000
-0.0010204300000
-0.0010971800000
-0.0010916600000
-0.0010040800000
-0.0009200930000
-0.0008177730000
-0.0005559590000
-0.0002370250000
-0.0001618470000
-0.0003518230000
-0.0007459200000
-0.0013278700000
-0.0017676200000
-0.0017779200000
-0.0011696700000
-0.0002755400000
0.0002878940000
0.0002972580000
0.0000206677000
-0.0001102690000
0.0000725663000
0.0002316630000
0.0001279070000
-0.0002270640000
-0.0009244920000
-0.0020242600000
-0.0031276500000
-0.0036461400000
-0.0034421700000
-0.0030564200000
-0.0031493700000
-0.0038661900000
-0.0048001700000
-0.0055025200000
-0.0056950300000
-0.0051634600000
-0.0040319000000
-0.0027115900000
-0.0016029500000
-0.0009964700000
-0.0009480600000
-0.0012320600000
-0.0015259000000
-0.0017195300000
-0.0020316200000
-0.0026532800000
-0.0033774100000
-0.0035926100000
-0.0028295000000
-0.0012827300000
0.0003966620000
0.0016004400000
0.0020605500000
0.0017008000000
0.0006635510000
-0.0004098070000
-0.0010163500000
-0.0010534400000
-0.0005737230000
0.0003141670000
0.0014645000000
0.0026943500000
0.0038233200000
0.0047132100000
0.0054541400000
0.0062814300000
0.0071566300000
0.0075935900000
0.0072856800000
0.0067047600000
0.0064611600000
0.0062884900000
0.0055489300000
0.0042667300000
0.0027788800000
0.0015815500000
0.0013242200000
0.0022430100000
0.0042874000000
0.0068168600000
0.0087060400000
0.0093181000000
0.0087461600000
0.0078196200000
0.0070575700000
0.0065354100000
0.0062456400000
0.0058397000000
0.0050039900000
0.0036947900000
0.0022412200000
0.0010639000000
0.0004583750000
0.0004488430000
0.0006796100000
0.0009403560000
0.0014292900000
0.0022047100000
0.0027905900000
0.0024276200000
0.0007622990000
-0.0017530700000
-0.0042695000000
-0.0059140900000
-0.0060049200000
-0.0043712200000
-0.0016359100000
0.0013020100000
0.0037473400000
0.0052801200000
0.0056174600000
0.0045470400000
0.0021858700000
-0.0007967610000
-0.0033014500000
-0.0043293500000
-0.0036142500000
-0.0016391300000
0.0005249300000
0.0015855000000
0.0008418740000
-0.0016508200000
-0.0051887000000
-0.0088130800000
-0.0115919000000
-0.0128553000000
-0.0125971000000
-0.0112462000000
-0.0096654000000
-0.0086952800000
-0.0089580600000
-0.0105385000000
-0.0125838000000
-0.0133638000000
-0.0119104000000
-0.0086555400000
-0.0047442300000
-0.0013798800000
0.0008770220000
0.0019187800000
0.0018427500000
0.0007419080000
-0.0013845800000
-0.0044761900000
-0.0082928600000
-0.0121882000000
-0.0152600000000
-0.0164647000000
-0.0151446000000
-0.0116497000000
-0.0070148700000
-0.0026910200000
-0.0000208360000
0.0005091080000
-0.0006171970000
-0.0022899500000
-0.0034559000000
-0.0035285200000
-0.0026333400000
-0.0010189400000
0.0011390900000
0.0031874300000
0.0046381300000
0.0058153100000
0.0069572100000
0.0079861300000
0.0086331300000
0.0085479300000
0.0077994900000
0.0070907000000
0.0072511800000
0.0086248900000
0.0105163000000
0.0118020000000
0.0117533000000
0.0099642400000
0.0067485200000
0.0036605000000
0.0025605800000
0.0046460600000
0.0101549000000
0.0181685000000
0.0267059000000
0.0336308000000
0.0372945000000
0.0369613000000
0.0331796000000
0.0274435000000
0.0218351000000
0.0182196000000
0.0171356000000
0.0180044000000
0.0197144000000
0.0211863000000
0.0211941000000
0.0186151000000
0.0135123000000
0.0073482200000
0.0018452000000
-0.0021513300000
-0.0047712100000
-0.0067549100000
-0.0086244600000
-0.0103210000000
-0.0117884000000
-0.0133901000000
-0.0152095000000
-0.0165602000000
-0.0165975000000
-0.0148526000000
-0.0113065000000
-0.0062323100000
-0.0002962200000
0.0053892800000
0.0095126400000
0.0112528000000
0.0107409000000
0.0086830800000
0.0059281100000
0.0032602000000
0.0015033700000
0.0011053600000
0.0014341800000
0.0013369100000
0.0004818090000
-0.0002403020000
0.0004254720000
0.0028894200000
0.0066645100000
0.0107858000000
0.0137756000000
0.0137510000000
0.0095715000000
0.0021335900000
-0.0060434400000
-0.0126496000000
-0.0170880000000
-0.0198953000000
-0.0212936000000
-0.0212098000000
-0.0199356000000
-0.0179736000000
-0.0159036000000
-0.0142492000000
-0.0135704000000
-0.0146629000000
-0.0176705000000
-0.0216296000000
-0.0249376000000
-0.0261746000000
-0.0245982000000
-0.0205131000000
-0.0148580000000
-0.0088138300000
-0.0036931200000
-0.0002700390000
0.0020771700000
0.0049168200000
0.0090537400000
0.0135729000000
0.0167201000000
0.0172025000000
0.0145469000000
0.0092349000000
0.0027089200000
-0.0030609300000
-0.0066366100000
-0.0077820500000
-0.0070460200000
-0.0055169200000
-0.0044755900000
-0.0046998300000
-0.0063480600000
-0.0092801700000
-0.0134031000000
-0.0185168000000
-0.0240232000000
-0.0289237000000
-0.0321523000000
-0.0329605000000
-0.0312249000000
-0.0275368000000
-0.0230700000000
-0.0188867000000
-0.0150446000000
-0.0111745000000
-0.0074019600000
-0.0039997100000
-0.0012227400000
0.0004928370000
0.0009415660000
0.0005756220000
0.0000980476000
0.0001470120000
0.0010509800000
0.0021276000000
0.0024637600000
0.0021240700000
0.0020992800000
0.0031574700000
0.0046557200000
0.0046569600000
0.0016452200000
-0.0042319900000
-0.0113044000000
-0.0172087000000
-0.0198152000000
-0.0179342000000
-0.0125162000000
-0.0064963600000
-0.0027682400000
-0.0026235200000
-0.0053920100000
-0.0090593500000
-0.0118352000000
-0.0127301000000
-0.0113457000000
-0.0073943000000
-0.0012745200000
0.0054928000000
0.0110562000000
0.0135370000000
0.0123163000000
0.0085159300000
0.0044229700000
0.0024953100000
0.0041606300000
0.0094335900000
0.0170345000000
0.0248871000000
0.0306322000000
0.0326049000000
0.0307352000000
0.0264488000000
0.0216319000000
0.0175955000000
0.0149715000000
0.0136226000000
0.0131517000000
0.0132234000000
0.0134623000000
0.0137367000000
0.0138380000000
0.0130531000000
0.0109144000000
0.0078100500000
0.0045061700000
0.0014100100000
-0.0019605500000
-0.0061599200000
-0.0107102000000
-0.0140880000000
-0.0147423000000
-0.0117842000000
-0.0053474400000
0.0034768000000
0.0125761000000
0.0194116000000
0.0226151000000
0.0230618000000
0.0228122000000
0.0229633000000
0.0230525000000
0.0218932000000
0.0183439000000
0.0120814000000
0.0039420700000
-0.0040521500000
-0.0091291500000
-0.0091716000000
-0.0043890300000
0.0023309200000
0.0073410200000
0.0079006200000
0.0035208000000
-0.0036910700000
-0.0107436000000
-0.0157438000000
-0.0184106000000
-0.0193600000000
-0.0194808000000
-0.0193530000000
-0.0186755000000
-0.0165680000000
-0.0126219000000
-0.0075712500000
-0.0030068600000
-0.0001166410000
0.0009775470000
0.0007545710000
0.0002463160000
0.0002466660000
0.0008122670000
0.0012018200000
0.0003357920000
-0.0017560200000
-0.0030956900000
-0.0014075000000
0.0036599600000
0.0097978700000
0.0136900000000
0.0134587000000
0.0101545000000
0.0065649900000
0.0045724500000
0.0043241700000
0.0045078700000
0.0032673100000
-0.0001661280000
-0.0048110700000
-0.0090559400000
-0.0117705000000
-0.0128090000000
-0.0133115000000
-0.0145397000000
-0.0167794000000
-0.0194755000000
-0.0217784000000
-0.0228901000000
-0.0222745000000
-0.0199770000000
-0.0170506000000
-0.0152631000000
-0.0153476000000
-0.0163453000000
-0.0167019000000
-0.0153073000000
-0.0120764000000
-0.0081033800000
-0.0045795800000
-0.0015760300000
0.0017929000000
0.0068288100000
0.0144460000000
0.0240505000000
0.0334803000000
0.0396595000000
0.0399142000000
0.0336553000000
0.0227886000000
0.0104420000000
-0.0008601950000
-0.0102684000000
-0.0182279000000
-0.0250020000000
-0.0295518000000
-0.0300968000000
-0.0257085000000
-0.0171169000000
-0.0068099700000
0.0019240700000
0.0067445500000
0.0073636600000
0.0054273700000
0.0034456700000
0.0027763300000
0.0030246200000
0.0033046000000
0.0034779300000
0.0045563400000
0.0084413900000
0.0164078000000
0.0274678000000
0.0384162000000
0.0455059000000
0.0462707000000
0.0405259000000
0.0304898000000
0.0198815000000
0.0123427000000
0.0101582000000
0.0132157000000
0.0191435000000
0.0248766000000
0.0283907000000
0.0291697000000
0.0275642000000
0.0240479000000
0.0191707000000
0.0137443000000
0.0088997800000
0.0059526800000
0.0056039800000
0.0076772900000
0.0110834000000
0.0137104000000
0.0130294000000
0.0076087900000
-0.0016083300000
-0.0117280000000
-0.0195441000000
-0.0233633000000
-0.0232397000000
-0.0200757000000
-0.0149455000000
-0.0086702100000
-0.0019783400000
0.0043710100000
0.0094098500000
0.0118220000000
0.0105870000000
0.0062412000000
0.0006624580000
-0.0033547200000
-0.0031409200000
0.0022482600000
0.0111865000000
0.0202254000000
0.0261382000000
0.0272974000000
0.0235355000000
0.0163378000000
0.0086671900000
0.0033394600000
0.0012354700000
0.0009786210000
0.0001751680000
-0.0024931700000
-0.0066019900000
-0.0111204000000
-0.0156062000000
-0.0205187000000
-0.0262656000000
-0.0320152000000
-0.0359636000000
-0.0361301000000
-0.0312181000000
-0.0216074000000
-0.0098972400000
0.0000685258000
0.0048876500000
0.0034751600000
-0.0027689600000
-0.0111005000000
-0.0187011000000
-0.0237059000000
-0.0257480000000
-0.0255681000000
-0.0239726000000
-0.0216003000000
-0.0192521000000
-0.0177508000000
-0.0174807000000
-0.0184274000000
-0.0205079000000
-0.0237208000000
-0.0277465000000
-0.0317630000000
-0.0347259000000
-0.0358773000000
-0.0350917000000
-0.0330914000000
-0.0310547000000
-0.0300615000000
-0.0305550000000
-0.0318777000000
-0.0325332000000
-0.0311257000000
-0.0272683000000
-0.0216523000000
-0.0155439000000
-0.0102555000000
-0.0067898900000
-0.0057572900000
-0.0068407800000
-0.0089828400000
-0.0108882000000
-0.0111804000000
-0.0088758700000
-0.0039237400000
0.0024483900000
0.0083155500000
0.0118619000000
0.0115785000000
0.0068458100000
-0.0012417600000
-0.0099726800000
-0.0160193000000
-0.0167781000000
-0.0117187000000
-0.0027473700000
0.0073276600000
0.0163760000000
0.0237606000000
0.0296580000000
0.0337153000000
0.0348823000000
0.0325622000000
0.0276279000000
0.0223272000000
0.0194682000000
0.0212370000000
0.0284864000000
0.0395486000000
0.0505138000000
0.0569049000000
0.0556627000000
0.0462987000000
0.0306947000000
0.0122896000000
-0.0046697800000
-0.0158250000000
-0.0180349000000
-0.0107051000000
0.0040714700000
0.0220222000000
0.0381332000000
0.0480139000000
0.0494466000000
0.0430211000000
0.0311725000000
0.0173336000000
0.0047207100000
-0.0046573600000
-0.0104566000000
-0.0135713000000
-0.0153395000000
-0.0168984000000
-0.0183091000000
-0.0189132000000
-0.0186331000000
-0.0184388000000
-0.0199154000000
-0.0244848000000
-0.0323517000000
-0.0424004000000
-0.0524252000000
-0.0594674000000
-0.0611118000000
-0.0568482000000
-0.0481901000000
-0.0376354000000
-0.0272813000000
-0.0187103000000
-0.0126842000000
-0.0083969500000
-0.0041822600000
0.0013297400000
0.0086652100000
0.0172448000000
0.0258530000000
0.0338635000000
0.0414105000000
0.0485253000000
0.0547294000000
0.0592661000000
0.0617251000000
0.0624285000000
0.0621513000000
0.0613999000000
0.0600877000000
0.0576592000000
0.0536010000000
0.0477232000000
0.0402273000000
0.0317315000000
0.0228451000000
0.0139796000000
0.0053927000000
-0.0033257200000
-0.0130617000000
-0.0242134000000
-0.0357301000000
-0.0451113000000
-0.0497679000000
-0.0483111000000
-0.0413815000000
-0.0315492000000
-0.0218321000000
-0.0141029000000
-0.0081960900000
-0.0019996200000
0.0069890900000
0.0201897000000
0.0370627000000
0.0550430000000
0.0707596000000
0.0815355000000
0.0863766000000
0.0862629000000
0.0838655000000
0.0820871000000
0.0827175000000
0.0861399000000
0.0915246000000
0.0974443000000
0.1019660000000
0.1030630000000
0.0997444000000
0.0923139000000
0.0814628000000
0.0682847000000
0.0542470000000
0.0411376000000
0.0308087000000
0.0246557000000
0.0231680000000
0.0254350000000
0.0287957000000
0.0295711000000
0.0246415000000
0.0132468000000
-0.0026074600000
-0.0194183000000
-0.0339726000000
-0.0444354000000
-0.0500856000000
-0.0509415000000
-0.0481061000000
-0.0440095000000
-0.0419121000000
-0.0446149000000
-0.0532601000000
-0.0676716000000
-0.0866648000000
-0.1082850000000
-0.1298920000000
-0.1478970000000
-0.1580840000000
-0.1568060000000
-0.1426660000000
-0.1179690000000
-0.0882278000000
-0.0604051000000
-0.0408140000000
-0.0330088000000
-0.0368250000000
-0.0483805000000
-0.0613751000000
-0.0703465000000
-0.0733257000000
-0.0716144000000
-0.0686479000000
-0.0675720000000
-0.0692348000000
-0.0713672000000
-0.0695810000000
-0.0599970000000
-0.0408455000000
-0.0130629000000
0.0196358000000
0.0516908000000
0.0778246000000
0.0948599000000
0.1021230000000
0.1007230000000
0.0925461000000
0.0800063000000
0.0660944000000
0.0536136000000
0.0442586000000
0.0384666000000
0.0355689000000
0.0339552000000
0.0321544000000
0.0293983000000
0.0261237000000
0.0242830000000
0.0260148000000
0.0316892000000
0.0393139000000
0.0459825000000
0.0495454000000
0.0488937000000
0.0442069000000
0.0372156000000
0.0303305000000
0.0254217000000
0.0230045000000
0.0221779000000
0.0214076000000
0.0188965000000
0.0124393000000
-0.0003783650000
-0.0212056000000
-0.0497913000000
-0.0834810000000
-0.1182470000000
-0.1499300000000
-0.1749640000000
-0.1909130000000
-0.1971740000000
-0.1954860000000
-0.1896100000000
-0.1837660000000
-0.1807260000000
-0.1813300000000
-0.1849700000000
-0.1905370000000
-0.1970750000000
-0.2036590000000
-0.2078970000000
-0.2045060000000
-0.1878850000000
-0.1561120000000
-0.1127070000000
-0.0653070000000
-0.0222547000000
0.0104201000000
0.0301240000000
0.0381845000000
0.0387412000000
0.0368087000000
0.0370263000000
0.0429026000000
0.0563129000000
0.0769746000000
0.1026690000000
0.1302870000000
0.1566170000000
0.1789780000000
0.1957790000000
0.2063860000000
0.2113570000000
0.2119160000000
0.2091380000000
0.2033610000000
0.1942170000000
0.1811940000000
0.1645880000000
0.1461650000000
0.1290890000000
0.1166180000000
0.1108980000000
0.1120950000000
0.1181180000000
0.1257520000000
0.1322320000000
0.1349830000000
0.1319920000000
0.1229410000000
0.1087420000000
0.0909141000000
0.0712485000000
0.0516399000000
0.0334711000000
0.0174376000000
0.0036473500000
-0.0085221000000
-0.0203084000000
-0.0327889000000
-0.0466511000000
-0.0616843000000
-0.0759992000000
-0.0868660000000
-0.0924190000000
-0.0925083000000
-0.0885183000000
-0.0826465000000
-0.0766894000000
-0.0710972000000
-0.0650919000000
-0.0576501000000
-0.0481718000000
-0.0369303000000
-0.0255583000000
-0.0164730000000
-0.0117902000000
-0.0124349000000
-0.0170675000000
-0.0223675000000
-0.0246664000000
-0.0209065000000
-0.0100023000000
0.0063441700000
0.0245694000000
0.0407303000000
0.0513743000000
0.0537635000000
0.0460495000000
0.0277240000000
0.0003713180000
-0.0322009000000
-0.0648317000000
-0.0922956000000
-0.1106240000000
-0.1178950000000
-0.1145210000000
-0.1028850000000
-0.0867168000000
-0.0704693000000
-0.0586304000000
-0.0541482000000
-0.0570504000000
-0.0649490000000
-0.0745049000000
-0.0825918000000
-0.0869415000000
-0.0869184000000
-0.0835030000000
-0.0783495000000
-0.0728115000000
-0.0674574000000
-0.0622776000000
-0.0572814000000
-0.0527687000000
-0.0494829000000
-0.0481421000000
-0.0491550000000
-0.0524680000000
-0.0575827000000
-0.0639644000000
-0.0710419000000
-0.0779436000000
-0.0837347000000
-0.0867933000000
-0.0839260000000
-0.0713354000000
-0.0473182000000
-0.0139194000000
0.0233697000000
0.0573611000000
0.0817636000000
0.0932284000000
0.0918646000000
0.0804413000000
0.0635485000000
0.0463024000000
0.0328251000000
0.0250612000000
0.0230592000000
0.0256674000000
0.0309384000000
0.0364524000000
0.0398146000000
0.0388822000000
0.0324112000000
0.0198920000000
0.0016041000000
-0.0208169000000
-0.0446755000000
-0.0672208000000
-0.0857877000000
-0.0982906000000
-0.1037640000000
-0.1025550000000
-0.0962248000000
-0.0873295000000
-0.0788651000000
-0.0728268000000
-0.0691972000000
-0.0662138000000
-0.0612888000000
-0.0523246000000
-0.0385745000000
-0.0206997000000
-0.0002773690000
0.0210337000000
0.0418324000000
0.0611986000000
0.0791153000000
0.0962498000000
0.1131770000000
0.1294870000000
0.1440570000000
0.1556540000000
0.1632240000000
0.1660730000000
0.1639640000000
0.1572120000000
0.1474990000000
0.1373600000000
0.1290510000000
0.1236150000000
0.1206760000000
0.1187240000000
0.1156970000000
0.1090580000000
0.0969269000000
0.0787663000000
0.0552505000000
0.0282750000000
0.0003117880000
-0.0264210000000
-0.0502691000000
-0.0699495000000
-0.0842375000000
-0.0919396000000
-0.0922610000000
-0.0856874000000
-0.0740739000000
-0.0599977000000
-0.0462312000000
-0.0350958000000
-0.0271721000000
-0.0208965000000
-0.0135100000000
-0.0023143800000
0.0142793000000
0.0359378000000
0.0603044000000
0.0838484000000
0.1028900000000
0.1140650000000
0.1152930000000
0.1070790000000
0.0916032000000
0.0718689000000
0.0511449000000
0.0321636000000
0.0166959000000
0.0056644300000
-0.0006778280000
-0.0026549000000
-0.0009618990000
0.0033056100000
0.0082472700000
0.0115366000000
0.0110335000000
0.0054044900000
-0.0052038200000
-0.0194606000000
-0.0351302000000
-0.0495173000000
-0.0602565000000
-0.0658767000000
-0.0662397000000
-0.0621341000000
-0.0545154000000
-0.0444162000000
-0.0329703000000
-0.0214394000000
-0.0113993000000
-0.0042286500000
-0.0004895550000
0.0002029310000
-0.0007604970000
-0.0015746900000
-0.0003059920000
0.0047135900000
0.0137642000000
0.0252908000000
0.0363683000000
0.0434911000000
0.0434436000000
0.0345298000000
0.0177210000000
-0.0035591300000
-0.0247009000000
-0.0418049000000
-0.0531031000000
-0.0584526000000
-0.0583951000000
-0.0541309000000
-0.0473794000000
-0.0398434000000
-0.0331121000000
-0.0284746000000
-0.0269252000000
-0.0288877000000
-0.0336911000000
-0.0393877000000
-0.0435887000000
-0.0439122000000
-0.0379104000000
-0.0239728000000
-0.0022323500000
0.0249848000000
0.0537514000000
0.0793259000000
0.0973678000000
0.1053180000000
0.1033290000000
0.0941423000000
0.0818971000000
0.0706583000000
0.0636079000000
0.0624640000000
0.0669360000000
0.0747199000000
0.0823506000000
0.0864427000000
0.0846462000000
0.0760982000000
0.0613434000000
0.0419108000000
0.0197263000000
-0.0027656600000
-0.0228517000000
-0.0380521000000
-0.0464748000000
-0.0471496000000
-0.0411736000000
-0.0318905000000
-0.0236574000000
-0.0202075000000
-0.0232140000000
-0.0315743000000
-0.0420536000000
-0.0504302000000
-0.0529336000000
-0.0483184000000
-0.0381816000000
-0.0251385000000
-0.0119260000000
-0.0005238550000
0.0084974100000
0.0161922000000
0.0241452000000
0.0330258000000
0.0422050000000
0.0499618000000
0.0544214000000
0.0548642000000
0.0521207000000
0.0480143000000
0.0447364000000
0.0443346000000
0.0478754000000
0.0550448000000
0.0643953000000
0.0738180000000
0.0808893000000
0.0831345000000
0.0787653000000
0.0673428000000
0.0497535000000
0.0280404000000
0.0048571000000
-0.0170786000000
-0.0350304000000
-0.0472058000000
-0.0534842000000
-0.0551026000000
-0.0541756000000
-0.0532890000000
-0.0546682000000
-0.0595135000000
-0.0676386000000
-0.0771457000000
-0.0851461000000
-0.0894130000000
-0.0892431000000
-0.0852943000000
-0.0789005000000
-0.0716379000000
-0.0650482000000
-0.0596951000000
-0.0554222000000
-0.0520069000000
-0.0494727000000
-0.0481186000000
-0.0480754000000
-0.0494135000000
-0.0518756000000
-0.0544278000000
-0.0552583000000
-0.0525910000000
-0.0456439000000
-0.0353217000000
-0.0237780000000
-0.0136961000000
-0.0078746000000
-0.0080658700000
-0.0140456000000
-0.0239582000000
-0.0351446000000
-0.0449794000000
-0.0516510000000
-0.0544180000000
-0.0533343000000
-0.0491975000000
-0.0427021000000
-0.0339020000000
-0.0229636000000
-0.0107385000000
0.0012798600000
0.0114582000000
0.0184380000000
0.0215899000000
0.0213675000000
0.0193174000000
0.0176507000000
0.0180778000000
0.0211903000000
0.0264328000000
0.0321618000000
0.0366457000000
0.0386166000000
0.0376201000000
0.0342314000000
0.0299540000000
0.0263814000000
0.0247879000000
0.0259774000000
0.0298655000000
0.0353646000000
0.0410239000000
0.0454906000000
0.0481804000000
0.0493631000000
0.0495271000000
0.0490146000000
0.0479899000000
0.0463942000000
0.0444706000000
0.0432048000000
0.0440905000000
0.0481873000000
0.0555860000000
0.0653825000000
0.0760167000000
0.0853832000000
0.0913692000000
0.0925543000000
0.0887430000000
0.0810604000000
0.0714014000000
0.0617780000000
0.0539269000000
0.0490880000000
0.0478306000000
0.0501411000000
0.0553691000000
0.0625602000000
0.0703187000000
0.0770758000000
0.0814458000000
0.0822680000000
0.0789621000000
0.0711889000000
0.0584322000000
0.0404424000000
0.0182987000000
-0.0051263600000
-0.0261434000000
-0.0411282000000
-0.0474554000000
-0.0452039000000
-0.0372744000000
-0.0277966000000
-0.0202772000000
-0.0171960000000
-0.0198285000000
-0.0274693000000
-0.0379449000000
-0.0482475000000
-0.0554030000000
-0.0579029000000
-0.0557085000000
-0.0500845000000
-0.0432021000000
-0.0373706000000
-0.0343716000000
-0.0349208000000
-0.0386877000000
-0.0446788000000
-0.0513956000000
-0.0574446000000
-0.0620437000000
-0.0649661000000
-0.0663885000000
-0.0668193000000
-0.0667495000000
-0.0666344000000
-0.0665802000000
-0.0664720000000
-0.0660638000000
-0.0645998000000
-0.0614247000000
-0.0563847000000
-0.0495831000000
-0.0417134000000
-0.0340685000000
-0.0281542000000
-0.0249581000000
-0.0245332000000
-0.0260865000000
-0.0285613000000
-0.0314180000000
-0.0342675000000
-0.0366517000000
-0.0382543000000
-0.0386216000000
-0.0368907000000
-0.0323334000000
-0.0254042000000
-0.0174745000000
-0.0103530000000
-0.0056795500000
-0.0043054500000
-0.0060652100000
-0.0097166100000
-0.0132698000000
-0.0149151000000
-0.0138163000000
-0.0103891000000
-0.0060351500000
-0.0027528400000
-0.0025999500000
-0.0065020400000
-0.0135546000000
-0.0220333000000
-0.0295432000000
-0.0334432000000
-0.0320068000000
-0.0250619000000
-0.0142334000000
-0.0019585200000
0.0097258900000
0.0194635000000
0.0268116000000
0.0320838000000
0.0360780000000
0.0397833000000
0.0439090000000
0.0488097000000
0.0543643000000
0.0601039000000
0.0655860000000
0.0702652000000
0.0730648000000
0.0732137000000
0.0706006000000
0.0653301000000
0.0580381000000
0.0498522000000
0.0418487000000
0.0349780000000
0.0297299000000
0.0263525000000
0.0247790000000
0.0249602000000
0.0264480000000
0.0281846000000
0.0289371000000
0.0278160000000
0.0246353000000
0.0198729000000
0.0142575000000
0.0086089500000
0.0041100100000
0.0018488700000
0.0025503200000
0.0064841500000
0.0130172000000
0.0210735000000
0.0297046000000
0.0378992000000
0.0442724000000
0.0471950000000
0.0453306000000
0.0382959000000
0.0270418000000
0.0137460000000
0.0008957870000
-0.0095029700000
-0.0160393000000
-0.0182055000000
-0.0170494000000
-0.0144242000000
-0.0120785000000
-0.0112756000000
-0.0126157000000
-0.0156787000000
-0.0192073000000
-0.0221423000000
-0.0243377000000
-0.0261742000000
-0.0280636000000
-0.0306891000000
-0.0346252000000
-0.0397622000000
-0.0454929000000
-0.0506951000000
-0.0540566000000
-0.0549765000000
-0.0538804000000
-0.0522124000000
-0.0517727000000
-0.0539131000000
-0.0588738000000
-0.0658722000000
-0.0731669000000
-0.0784552000000
-0.0798721000000
-0.0765457000000
-0.0689161000000
-0.0584955000000
-0.0472733000000
-0.0372296000000
-0.0302136000000
-0.0273653000000
-0.0283596000000
-0.0317226000000
-0.0353566000000
-0.0372583000000
-0.0363355000000
-0.0326821000000
-0.0271696000000
-0.0208636000000
-0.0146022000000
-0.0086589800000
-0.0026385900000
0.0041220100000
0.0115885000000
0.0185658000000
0.0233522000000
0.0247769000000
0.0226766000000
0.0179690000000
0.0123806000000
0.0081635900000
0.0071716100000
0.0098666600000
0.0155763000000
0.0232817000000
0.0316613000000
0.0393065000000
0.0448314000000
0.0468971000000
0.0446553000000
0.0374954000000
0.0256263000000
0.0110611000000
-0.0027504200000
-0.0122415000000
-0.0150980000000
-0.0109930000000
-0.0017832600000
0.0089029600000
0.0166523000000
0.0181410000000
0.0124577000000
0.0010377400000
-0.0130852000000
-0.0264014000000
-0.0357883000000
-0.0394138000000
-0.0374910000000
-0.0318213000000
-0.0244874000000
-0.0171543000000
-0.0107623000000
-0.0057104500000
-0.0019383400000
0.0010018700000
0.0038108600000
0.0069999400000
0.0108673000000
0.0152090000000
0.0191950000000
0.0219425000000
0.0230742000000
0.0228736000000
0.0222737000000
0.0226663000000
0.0249484000000
0.0291137000000
0.0342143000000
0.0384010000000
0.0396048000000
0.0361968000000
0.0277798000000
0.0157561000000
0.0032367800000
-0.0061736500000
-0.0098790900000
-0.0068673100000
0.0015584900000
0.0121058000000
0.0212559000000
0.0264166000000
0.0262703000000
0.0210273000000
0.0121520000000
0.0016696300000
-0.0083897100000
-0.0165130000000
-0.0223245000000
-0.0260973000000
-0.0283212000000
-0.0295117000000
-0.0297653000000
-0.0289382000000
-0.0271948000000
-0.0249635000000
-0.0226819000000
-0.0202665000000
-0.0173831000000
-0.0140625000000
-0.0106316000000
-0.0076936500000
-0.0058564400000
-0.0059262200000
-0.0082805000000
-0.0120829000000
-0.0157049000000
-0.0175024000000
-0.0168111000000
-0.0143304000000
-0.0115717000000
-0.0100828000000
-0.0108259000000
-0.0138168000000
-0.0179756000000
-0.0216346000000
-0.0234596000000
-0.0230508000000
-0.0208156000000
-0.0176321000000
-0.0139480000000
-0.0095178400000
-0.0038881200000
0.0033640000000
0.0118205000000
0.0203183000000
0.0273622000000
0.0316873000000
0.0328389000000
0.0312933000000
0.0283400000000
0.0259671000000
0.0261569000000
0.0298710000000
0.0367203000000
0.0451737000000
0.0533810000000
0.0599215000000
0.0642206000000
0.0660178000000
0.0653729000000
0.0624965000000
0.0575483000000
0.0510353000000
0.0436013000000
0.0357315000000
0.0277014000000
0.0197588000000
0.0123089000000
0.0059846800000
0.0015475500000
-0.0007200960000
-0.0015679500000
-0.0020963200000
-0.0032383200000
-0.0056520300000
-0.0096795300000
-0.0149438000000
-0.0204552000000
-0.0251615000000
-0.0281509000000
-0.0291018000000
-0.0286979000000
-0.0278194000000
-0.0268318000000
-0.0257515000000
-0.0238501000000
-0.0204059000000
-0.0155010000000
-0.0095813000000
-0.0032749300000
0.0027054800000
0.0077434000000
0.0118911000000
0.0155858000000
0.0190670000000
0.0226273000000
0.0263897000000
0.0300118000000
0.0332364000000
0.0361665000000
0.0384319000000
0.0394977000000
0.0393250000000
0.0380262000000
0.0354737000000
0.0317224000000
0.0270399000000
0.0213173000000
0.0146170000000
0.0077193000000
0.0015439100000
-0.0030911100000
-0.0055924400000
-0.0059655800000
-0.0050924500000
-0.0043996800000
-0.0050141500000
-0.0075939700000
-0.0124232000000
-0.0188968000000
-0.0254255000000
-0.0304941000000
-0.0333349000000
-0.0338682000000
-0.0324694000000
-0.0295462000000
-0.0254539000000
-0.0207343000000
-0.0159896000000
-0.0121096000000
-0.0102406000000
-0.0112169000000
-0.0152758000000
-0.0217459000000
-0.0292217000000
-0.0361809000000
-0.0411830000000
-0.0429819000000
-0.0409213000000
-0.0354092000000
-0.0281242000000
-0.0210732000000
-0.0156892000000
-0.0129189000000
-0.0128284000000
-0.0145253000000
-0.0167824000000
-0.0187834000000
-0.0201039000000
-0.0203519000000
-0.0192068000000
-0.0164856000000
-0.0119876000000
-0.0058575700000
0.0013728200000
0.0088513000000
0.0151240000000
0.0187430000000
0.0193598000000
0.0178179000000
0.0154760000000
0.0136686000000
0.0133198000000
0.0144989000000
0.0162783000000
0.0174749000000
0.0174554000000
0.0164175000000
0.0153411000000
0.0154042000000
0.0172145000000
0.0204957000000
0.0243044000000
0.0275049000000
0.0288032000000
0.0271605000000
0.0227686000000
0.0169456000000
0.0117259000000
0.0088809800000
0.0093486800000
0.0130476000000
0.0186363000000
0.0236592000000
0.0258302000000
0.0240656000000
0.0184946000000
0.0104164000000
0.0018831400000
-0.0049631600000
-0.0089614800000
-0.0100982000000
-0.0089233800000
-0.0062504400000
-0.0030423100000
-0.0001357380000
0.0017735500000
0.0024341600000
0.0016571600000
-0.0008304810000
-0.0050466400000
-0.0107395000000
-0.0173945000000
-0.0243506000000
-0.0306638000000
-0.0351587000000
-0.0368168000000
-0.0351137000000
-0.0304956000000
-0.0240621000000
-0.0168508000000
-0.0103244000000
-0.0061191300000
-0.0051896600000
-0.0074377200000
-0.0119252000000
-0.0173194000000
-0.0223487000000
-0.0257327000000
-0.0265365000000
-0.0247463000000
-0.0212341000000
-0.0172691000000
-0.0137734000000
-0.0113667000000
-0.0104653000000
-0.0111217000000
-0.0126258000000
-0.0138235000000
-0.0138851000000
-0.0124926000000
-0.0097222800000
-0.0060629700000
-0.0023477500000
0.0002926020000
0.0008839410000
-0.0008703450000
-0.0040753000000
-0.0073647700000
-0.0098946700000
-0.0116354000000
-0.0127466000000
-0.0133188000000
-0.0134314000000
-0.0128148000000
-0.0107031000000
-0.0062817800000
0.0002686940000
0.0075609300000
0.0138044000000
0.0174698000000
0.0177755000000
0.0153056000000
0.0118446000000
0.0096183100000
0.0102909000000
0.0142498000000
0.0206385000000
0.0278087000000
0.0339624000000
0.0379661000000
0.0392936000000
0.0380666000000
0.0350448000000
0.0310152000000
0.0262497000000
0.0210709000000
0.0162232000000
0.0128310000000
0.0119562000000
0.0139334000000
0.0181392000000
0.0229622000000
0.0263933000000
0.0267358000000
0.0230712000000
0.0158171000000
0.0068179400000
-0.0017900100000
-0.0082355400000
-0.0114624000000
-0.0114121000000
-0.0085670100000
-0.0038170700000
0.0015866900000
0.0063484700000
0.0093351900000
0.0098520400000
0.0077112400000
0.0032948300000
-0.0025478600000
-0.0086082000000
-0.0132321000000
-0.0144046000000
-0.0111938000000
-0.0042937800000
0.0045794300000
0.0130264000000
0.0185244000000
0.0193027000000
0.0150303000000
0.0072755000000
-0.0010638700000
-0.0073247200000
-0.0102695000000
-0.0104108000000
-0.0094412100000
-0.0090207100000
-0.0101311000000
-0.0127755000000
-0.0161690000000
-0.0194639000000
-0.0221357000000
-0.0242792000000
-0.0267911000000
-0.0304773000000
-0.0354097000000
-0.0408306000000
-0.0450496000000
-0.0468532000000
-0.0458351000000
-0.0420896000000
-0.0363195000000
-0.0298299000000
-0.0240181000000
-0.0197764000000
-0.0173149000000
-0.0160070000000
-0.0150937000000
-0.0141660000000
-0.0132419000000
-0.0124364000000
-0.0118700000000
-0.0116507000000
-0.0115300000000
-0.0108163000000
-0.0089240500000
-0.0059490500000
-0.0027319100000
-0.0002207610000
0.0010834200000
0.0006266850000
-0.0017073800000
-0.0050000200000
-0.0080164700000
-0.0099135600000
-0.0103483000000
-0.0096926200000
-0.0087486500000
-0.0081266700000
-0.0081416400000
-0.0087962100000
-0.0095888200000
-0.0097341400000
-0.0086578000000
-0.0061388000000
-0.0021956200000
0.0029315600000
0.0088529600000
0.0147067000000
0.0193555000000
0.0220688000000
0.0228514000000
0.0218284000000
0.0193093000000
0.0159899000000
0.0129262000000
0.0110386000000
0.0108017000000
0.0124753000000
0.0161785000000
0.0213213000000
0.0265587000000
0.0304322000000
0.0319963000000
0.0309377000000
0.0276573000000
0.0233513000000
0.0195496000000
0.0174373000000
0.0173582000000
0.0188186000000
0.0208471000000
0.0223889000000
0.0228022000000
0.0220564000000
0.0207474000000
0.0198198000000
0.0199239000000
0.0211256000000
0.0229262000000
0.0246459000000
0.0258430000000
0.0263010000000
0.0258837000000
0.0244964000000
0.0222450000000
0.0192310000000
0.0155977000000
0.0119169000000
0.0089468000000
0.0074318800000
0.0075298300000
0.0086215900000
0.0097353300000
0.0097978900000
0.0079703200000
0.0039001700000
-0.0020574200000
-0.0088613000000
-0.0151860000000
-0.0198956000000
-0.0223110000000
-0.0221141000000
-0.0195764000000
-0.0156740000000
-0.0111859000000
-0.0066814300000
-0.0027960500000
-0.0002027120000
0.0007618990000
0.0003171960000
-0.0011391800000
-0.0027935800000
-0.0039315100000
-0.0038971200000
-0.0022017900000
0.0009609040000
0.0049053300000
0.0088404800000
0.0120998000000
0.0140756000000
0.0144036000000
0.0131158000000
0.0102974000000
0.0060701300000
0.0009150430000
-0.0045583200000
-0.0097153000000
-0.0138942000000
-0.0165206000000
-0.0173895000000
-0.0169315000000
-0.0157859000000
-0.0147332000000
-0.0147408000000
-0.0163326000000
-0.0192103000000
-0.0226322000000
-0.0259150000000
-0.0283694000000
-0.0294764000000
-0.0290175000000
-0.0269923000000
-0.0239247000000
-0.0203010000000
-0.0161074000000
-0.0114517000000
-0.0067311000000
-0.0020765300000
0.0022249200000
0.0053444300000
0.0064030600000
0.0049791300000
0.0014630800000
-0.0034324800000
-0.0086850500000
-0.0130745000000
-0.0156659000000
-0.0159416000000
-0.0135253000000
-0.0085417900000
-0.0018512800000
0.0052624100000
0.0114884000000
0.0157020000000
0.0171844000000
0.0157622000000
0.0117963000000
0.0063542200000
0.0008937480000
-0.0033387800000
-0.0053220200000
-0.0044172200000
-0.0007213360000
0.0050232200000
0.0115606000000
0.0173882000000
0.0212043000000
0.0222388000000
0.0203964000000
0.0163419000000
0.0115309000000
0.0073397800000
0.0046637000000
0.0040318900000
0.0050188900000
0.0067569900000
0.0086006100000
0.0101729000000
0.0112932000000
0.0118371000000
0.0119116000000
0.0117133000000
0.0113405000000
0.0111677000000
0.0117669000000
0.0133167000000
0.0159791000000
0.0196929000000
0.0237811000000
0.0274783000000
0.0301848000000
0.0315507000000
0.0316893000000
0.0311684000000
0.0306766000000
0.0306487000000
0.0313352000000
0.0327431000000
0.0343755000000
0.0356287000000
0.0361743000000
0.0357347000000
0.0343202000000
0.0320163000000
0.0288752000000
0.0252955000000
0.0219216000000
0.0192470000000
0.0173561000000
0.0159906000000
0.0149667000000
0.0140539000000
0.0126496000000
0.0102976000000
0.0070141200000
0.0031284800000
-0.0010056800000
-0.0049994400000
-0.0081238300000
-0.0097690400000
-0.0099498800000
-0.0091232500000
-0.0077116000000
-0.0059339000000
-0.0040832600000
-0.0030589200000
-0.0035670800000
-0.0054833000000
-0.0083864900000
-0.0117646000000
-0.0147686000000
-0.0164942000000
-0.0161552000000
-0.0133323000000
-0.0086307200000
-0.0035246500000
0.0003921840000
0.0018846900000
0.0004185500000
-0.0037935800000
-0.0099456900000
-0.0168062000000
-0.0229990000000
-0.0270168000000
-0.0278679000000
-0.0256700000000
-0.0213822000000
-0.0161823000000
-0.0112640000000
-0.0079325700000
-0.0069332100000
-0.0079358600000
-0.0098699700000
-0.0118017000000
-0.0130939000000
-0.0130575000000
-0.0113656000000
-0.0083241400000
-0.0043178000000
0.0000192878000
0.0039567700000
0.0071811200000
0.0094474800000
0.0104153000000
0.0099463400000
0.0081191500000
0.0054479100000
0.0028933300000
0.0010164900000
-0.0002479330000
-0.0011670900000
-0.0021144200000
-0.0036159700000
-0.0059980600000
-0.0091204000000
-0.0124334000000
-0.0152478000000
-0.0170534000000
-0.0177715000000
-0.0176842000000
-0.0174911000000
-0.0178739000000
-0.0189388000000
-0.0202255000000
-0.0212864000000
-0.0219119000000
-0.0222570000000
-0.0226522000000
-0.0230571000000
-0.0233335000000
-0.0237390000000
-0.0244852000000
-0.0253655000000
-0.0261991000000
-0.0270005000000
-0.0274273000000
-0.0269868000000
-0.0255982000000
-0.0234662000000
-0.0209529000000
-0.0183087000000
-0.0157423000000
-0.0135589000000
-0.0117862000000
-0.0102641000000
-0.0088750100000
-0.0075411600000
-0.0063253900000
-0.0054032400000
-0.0047973500000
-0.0043232800000
-0.0036039900000
-0.0023672300000
-0.0008650350000
0.0001752490000
0.0000222257000
-0.0016114200000
-0.0046101700000
-0.0084997300000
-0.0125968000000
-0.0159818000000
-0.0179526000000
-0.0184177000000
-0.0177903000000
-0.0162718000000
-0.0140804000000
-0.0117812000000
-0.0098636200000
-0.0086889400000
-0.0084571900000
-0.0091184500000
-0.0106561000000
-0.0130680000000
-0.0161065000000
-0.0191754000000
-0.0215849000000
-0.0228296000000
-0.0228718000000
-0.0218823000000
-0.0200862000000
-0.0180275000000
-0.0162676000000
-0.0151946000000
-0.0149861000000
-0.0156927000000
-0.0169076000000
-0.0179404000000
-0.0180853000000
-0.0170025000000
-0.0148491000000
-0.0121037000000
-0.0094100300000
-0.0074811200000
-0.0069872800000
-0.0080055700000
-0.0100142000000
-0.0123977000000
-0.0143138000000
-0.0148952000000
-0.0137863000000
-0.0113509000000
-0.0086027400000
-0.0068322200000
-0.0067837500000
-0.0085089200000
-0.0115469000000
-0.0150991000000
-0.0183505000000
-0.0203612000000
-0.0204127000000
-0.0184074000000
-0.0146870000000
-0.0097538100000
-0.0043046100000
0.0007038540000
0.0044064800000
0.0064187300000
0.0069638500000
0.0066675300000
0.0064272500000
0.0071318000000
0.0093473600000
0.0129399000000
0.0172306000000
0.0215405000000
0.0255463000000
0.0291239000000
0.0322874000000
0.0353927000000
0.0388914000000
0.0427845000000
0.0464966000000
0.0494313000000
0.0512795000000
0.0519131000000
0.0513660000000
0.0498684000000
0.0477875000000
0.0457026000000
0.0440197000000
0.0428547000000
0.0421359000000
0.0417244000000
0.0413594000000
0.0407171000000
0.0398753000000
0.0389100000000
0.0380243000000
0.0373177000000
0.0366095000000
0.0359587000000
0.0355432000000
0.0353521000000
0.0351554000000
0.0345092000000
0.0330282000000
0.0304351000000
0.0266266000000
0.0217559000000
0.0164016000000
0.0115576000000
0.0081864600000
0.0071049300000
0.0086254000000
0.0120012000000
0.0159392000000
0.0191392000000
0.0205430000000
0.0195932000000
0.0164522000000
0.0119143000000
0.0072016200000
0.0035433100000
0.0016384300000
0.0018000200000
0.0040643500000
0.0078131500000
0.0118540000000
0.0148562000000
0.0160392000000
0.0154180000000
0.0134157000000
0.0104380000000
0.0071199700000
0.0046097000000
0.0033468800000
0.0029721500000
0.0031261600000
0.0035872700000
0.0040279000000
0.0038151400000
0.0024151500000
-0.0001726840000
-0.0035302200000
-0.0071090300000
-0.0104688000000
-0.0127975000000
-0.0136010000000
-0.0134596000000
-0.0132030000000
-0.0133355000000
-0.0140501000000
-0.0152419000000
-0.0168198000000
-0.0184803000000
-0.0197876000000
-0.0205418000000
-0.0207808000000
-0.0205453000000
-0.0198980000000
-0.0189792000000
-0.0177829000000
-0.0162821000000
-0.0145250000000
-0.0125645000000
-0.0105848000000
-0.0091082800000
-0.0084615900000
-0.0085266100000
-0.0091552800000
-0.0102721000000
-0.0118154000000
-0.0134269000000
-0.0146150000000
-0.0151404000000
-0.0150277000000
-0.0142903000000
-0.0127738000000
-0.0107514000000
-0.0087288000000
-0.0071427600000
-0.0060970300000
-0.0055135400000
-0.0051690200000
-0.0046532000000
-0.0033845200000
-0.0008285870000
0.0029281100000
0.0068930900000
0.0100487000000
0.0115689000000
0.0108836000000
0.0080157000000
0.0038163800000
-0.0005908000000
-0.0045580000000
-0.0077895300000
-0.0100624000000
-0.0112262000000
-0.0113797000000
-0.0108304000000
-0.0099733700000
-0.0092316800000
-0.0089651000000
-0.0091838300000
-0.0097538900000
-0.0104023000000
-0.0108452000000
-0.0109791000000
-0.0107086000000
-0.0099464000000
-0.0088435200000
-0.0077393400000
-0.0068104300000
-0.0058853600000
-0.0045609400000
-0.0024769400000
0.0002989930000
0.0033397700000
0.0061288700000
0.0080032800000
0.0084280000000
0.0071025200000
0.0042070800000
0.0005283470000
-0.0030227600000
-0.0053489800000
-0.0054157300000
-0.0029919000000
0.0013292700000
0.0064944700000
0.0112932000000
0.0147557000000
0.0162531000000
0.0154568000000
0.0129934000000
0.0098319300000
0.0067925000000
0.0045973300000
0.0039506700000
0.0051718300000
0.0079082600000
0.0112912000000
0.0143171000000
0.0162609000000
0.0167846000000
0.0157600000000
0.0133135000000
0.0099383600000
0.0064750200000
0.0034759200000
0.0009988540000
-0.0010845900000
-0.0027321900000
-0.0039570200000
-0.0048979800000
-0.0054961900000
-0.0054878400000
-0.0049093500000
-0.0040915900000
-0.0034162800000
-0.0032461800000
-0.0040421700000
-0.0059348100000
-0.0085754200000
-0.0113422000000
-0.0135029000000
-0.0144339000000
-0.0136831000000
-0.0113822000000
-0.0080713100000
-0.0045840800000
-0.0018440400000
-0.0005741040000
-0.0010283100000
-0.0029120000000
-0.0057142300000
-0.0087570600000
-0.0110793000000
-0.0121122000000
-0.0118751000000
-0.0107348000000
-0.0089621400000
-0.0067662500000
-0.0046110000000
-0.0030962200000
-0.0025402500000
-0.0029658200000
-0.0044546800000
-0.0066804700000
-0.0088300300000
-0.0102159000000
-0.0101993000000
-0.0086150600000
-0.0059451400000
-0.0027252700000
0.0005375040000
0.0036484500000
0.0064227100000
0.0086153000000
0.0103200000000
0.0115185000000
0.0120092000000
0.0116846000000
0.0105003000000
0.0086734300000
0.0064887200000
0.0044177100000
0.0032727100000
0.0032981600000
0.0040405900000
0.0049745600000
0.0057783100000
0.0062993600000
0.0066355900000
0.0068924200000
0.0071092000000
0.0075325200000
0.0084012200000
0.0095767500000
0.0107108000000
0.0117571000000
0.0126442000000
0.0131533000000
0.0131187000000
0.0127434000000
0.0121429000000
0.0112140000000
0.0098454900000
0.0080182500000
0.0058196400000
0.0032830200000
0.0005586670000
-0.0018476400000
-0.0034057400000
-0.0039222800000
-0.0034161100000
-0.0021394800000
-0.0006832340000
0.0003029560000
0.0001995440000
-0.0012821200000
-0.0036708700000
-0.0061465300000
-0.0080688700000
-0.0090272200000
-0.0088212600000
-0.0073611600000
-0.0048823900000
-0.0019946300000
0.0008005520000
0.0029971200000
0.0041833200000
0.0041605200000
0.0030925700000
0.0013604800000
-0.0006548980000
-0.0024626300000
-0.0039295200000
-0.0051622200000
-0.0060068400000
-0.0061432300000
-0.0056194300000
-0.0046165900000
-0.0034282700000
-0.0026980200000
-0.0027015100000
-0.0033519200000
-0.0043607800000
-0.0051794700000
-0.0050442600000
-0.0035500100000
-0.0010162000000
0.0019816500000
0.0049685200000
0.0072763100000
0.0083482400000
0.0081122800000
0.0065317400000
0.0035926600000
-0.0002615060000
-0.0043449700000
-0.0080401700000
-0.0106723000000
-0.0118042000000
-0.0115435000000
-0.0104123000000
-0.0093284800000
-0.0091813400000
-0.0104507000000
-0.0131750000000
-0.0167009000000
-0.0202297000000
-0.0230472000000
-0.0241880000000
-0.0232785000000
-0.0208796000000
-0.0176623000000
-0.0140633000000
-0.0106180000000
-0.0078364400000
-0.0060099400000
-0.0047296000000
-0.0038780000000
-0.0036810700000
-0.0037900900000
-0.0035025100000
-0.0027524000000
-0.0017232900000
-0.0005520840000
0.0004106250000
0.0009197280000
0.0010561800000
0.0010689300000
0.0011273300000
0.0012762400000
0.0015767400000
0.0019075100000
0.0019778600000
0.0014911500000
0.0005022980000
-0.0006199790000
-0.0016850000000
-0.0027034100000
-0.0038873200000
-0.0051920000000
-0.0064170400000
-0.0076337500000
-0.0086155800000
-0.0093227600000
-0.0100321000000
-0.0105249000000
-0.0105902000000
-0.0100125000000
-0.0087244500000
-0.0071786600000
-0.0058796000000
-0.0048791700000
-0.0039125200000
-0.0028701800000
-0.0019237400000
-0.0011154800000
-0.0005190260000
-0.0002766920000
-0.0004328130000
-0.0007792190000
-0.0008382060000
-0.0005372010000
0.0000022996100
0.0009164960000
0.0021520200000
0.0034905900000
0.0046428500000
0.0053785800000
0.0059182400000
0.0061488100000
0.0057815300000
0.0049403300000
0.0040234100000
0.0034513400000
0.0035952300000
0.0047936400000
0.0069367700000
0.0096150700000
0.0123790000000
0.0145167000000
0.0154572000000
0.0149167000000
0.0131027000000
0.0104670000000
0.0073679500000
0.0042258000000
0.0017764500000
0.0005763760000
0.0004952140000
0.0012454600000
0.0026018900000
0.0042035600000
0.0055770700000
0.0063731600000
0.0064504600000
0.0056862000000
0.0039635100000
0.0012028100000
-0.0020396500000
-0.0048450400000
-0.0066313700000
-0.0072157500000
-0.0066105900000
-0.0050675800000
-0.0031090500000
-0.0015349500000
-0.0009875780000
-0.0016300300000
-0.0031987700000
-0.0052598800000
-0.0072981600000
-0.0086884300000
-0.0091350500000
-0.0087777500000
-0.0077397900000
-0.0060671500000
-0.0040746500000
-0.0023325700000
-0.0011910700000
-0.0009700020000
-0.0020879000000
-0.0041415100000
-0.0063797200000
-0.0083235500000
-0.0095674300000
-0.0095650500000
-0.0081421700000
-0.0056645000000
-0.0026741900000
0.0002058150000
0.0023402900000
0.0035045200000
0.0037996800000
0.0033304300000
0.0023323200000
0.0012585000000
0.0003953430000
0.0000940792000
0.0005505150000
0.0015857900000
0.0031247700000
0.0054665400000
0.0083629500000
0.0111873000000
0.0137219000000
0.0157604000000
0.0169675000000
0.0170281000000
0.0158684000000
0.0140003000000
0.0122996000000
0.0113027000000
0.0110920000000
0.0115980000000
0.0125135000000
0.0133020000000
0.0134583000000
0.0126229000000
0.0107645000000
0.0081998900000
0.0053575900000
0.0026200900000
0.0002053710000
-0.0018013200000
-0.0034806600000
-0.0051264500000
-0.0067965100000
-0.0082422300000
-0.0094642800000
-0.0106224000000
-0.0116006000000
-0.0119296000000
-0.0114576000000
-0.0105271000000
-0.0094880800000
-0.0084594300000
-0.0075020300000
-0.0067721800000
-0.0062360200000
-0.0058076400000
-0.0054057800000
-0.0049606700000
-0.0044628800000
-0.0037649600000
-0.0028595500000
-0.0019670500000
-0.0013348800000
-0.0010463300000
-0.0010144500000
-0.0011087800000
-0.0012626500000
-0.0014820300000
-0.0014544200000
-0.0010515100000
-0.0004941890000
0.0000307499000
0.0004068170000
0.0005369940000
0.0003483150000
-0.0003164400000
-0.0015692800000
-0.0031452200000
-0.0045324900000
-0.0054885000000
-0.0058739800000
-0.0056056800000
-0.0045841200000
-0.0028216300000
-0.0006680390000
0.0013497200000
0.0028224700000
0.0033582100000
0.0026926000000
0.0008377120000
-0.0017248100000
-0.0041704000000
-0.0057775200000
-0.0062184500000
-0.0055218100000
-0.0037582200000
-0.0013890000000
0.0005741930000
0.0016094600000
0.0016851800000
0.0009477240000
-0.0001918190000
-0.0011471700000
-0.0014534000000
-0.0011268700000
-0.0002850510000
0.0009258680000
0.0020426400000
0.0024493800000
0.0018762600000
0.0007193320000
-0.0005451190000
-0.0016536700000
-0.0022775000000
-0.0021297200000
-0.0010913700000
0.0007533230000
0.0029430400000
0.0048604900000
0.0060877300000
0.0064444300000
0.0057356500000
0.0039213100000
0.0014316900000
-0.0011676400000
-0.0033672800000
-0.0046365800000
-0.0049291400000
-0.0047355300000
-0.0045485400000
-0.0045969400000
-0.0049861100000
-0.0057344800000
-0.0067908400000
-0.0079242500000
-0.0088297100000
-0.0092650600000
-0.0089198200000
-0.0077212900000
-0.0058219300000
-0.0035193100000
-0.0011575100000
0.0011219400000
0.0029349400000
0.0037441200000
0.0032272700000
0.0019220600000
0.0004917670000
-0.0008403900000
-0.0017422600000
-0.0017256700000
-0.0005962030000
0.0013311900000
0.0034355500000
0.0051518100000
0.0059999900000
0.0056025800000
0.0038934800000
0.0012588400000
-0.0017426900000
-0.0044834100000
-0.0065989900000
-0.0079039300000
-0.0083099200000
-0.0080734300000
-0.0075685800000
-0.0066528400000
-0.0054578300000
-0.0045433100000
-0.0041826900000
-0.0042972400000
-0.0047798900000
-0.0053208100000
-0.0055275500000
-0.0050418000000
-0.0034069200000
-0.0008304930000
0.0021536300000
0.0052483100000
0.0082956400000
0.0111536000000
0.0138256000000
0.0162898000000
0.0186300000000
0.0208329000000
0.0225875000000
0.0233870000000
0.0230954000000
0.0219923000000
0.0203243000000
0.0184574000000
0.0167458000000
0.0153310000000
0.0144052000000
0.0140459000000
0.0139506000000
0.0141168000000
0.0144125000000
0.0141774000000
0.0129621000000
0.0109106000000
0.0084381300000
0.0061210800000
0.0045889300000
0.0042161800000
0.0050254800000
0.0066849000000
0.0084926700000
0.0098794100000
0.0105343000000
0.0103748000000
0.0095458000000
0.0083260100000
0.0069844400000
0.0057252700000
0.0047928300000
0.0044016300000
0.0044560400000
0.0047060600000
0.0051293400000
0.0056448100000
0.0061680000000
0.0065959400000
0.0066295500000
0.0062487000000
0.0055447300000
0.0045913700000
0.0035985200000
0.0027550100000
0.0021829500000
0.0019908500000
0.0021508900000
0.0024872200000
0.0028797600000
0.0031120600000
0.0029161000000
0.0022429200000
0.0010857900000
-0.0005838600000
-0.0021652000000
-0.0031506500000
-0.0035099000000
-0.0033407200000
-0.0026681800000
-0.0016589900000
-0.0007500590000
-0.0006081420000
-0.0017937400000
-0.0041664400000
-0.0072106700000
-0.0101987000000
-0.0125218000000
-0.0138540000000
-0.0137290000000
-0.0119844000000
-0.0091212600000
-0.0057664900000
-0.0024259400000
0.0002494780000
0.0017821900000
0.0020369100000
0.0013348800000
-0.0000950239000
-0.0018137500000
-0.0031028000000
-0.0035338300000
-0.0031971400000
-0.0022321800000
-0.0009772100000
0.0002004800000
0.0012452600000
0.0019911300000
0.0023771600000
0.0026554200000
0.0030001000000
0.0033791100000
0.0035384600000
0.0032186700000
0.0025148600000
0.0015379000000
0.0002137750000
-0.0012764600000
-0.0025801700000
-0.0036330900000
-0.0045720500000
-0.0054681500000
-0.0062822000000
-0.0070077100000
-0.0079822600000
-0.0095796900000
-0.0115453000000
-0.0134729000000
-0.0150451000000
-0.0159780000000
-0.0162587000000
-0.0159977000000
-0.0152529000000
-0.0140039000000
-0.0122038000000
-0.0098233100000
-0.0069303600000
-0.0039415900000
-0.0012353500000
0.0010201400000
0.0026854300000
0.0036827400000
0.0042134400000
0.0047025100000
0.0053954900000
0.0063869300000
0.0074076600000
0.0079044100000
0.0075523100000
0.0064204900000
0.0049020000000
0.0034465900000
0.0020777700000
0.0006543180000
-0.0006787100000
-0.0017845700000
-0.0026614400000
-0.0033774400000
-0.0040360600000
-0.0046017300000
-0.0051763900000
-0.0059614700000
-0.0070373000000
-0.0082445100000
-0.0095167600000
-0.0107515000000
-0.0114392000000
-0.0111859000000
-0.0101876000000
-0.0088715400000
-0.0074100500000
-0.0060496000000
-0.0052028300000
-0.0049788200000
-0.0054115700000
-0.0064280600000
-0.0075868400000
-0.0082821000000
-0.0079731500000
-0.0064510900000
-0.0039638500000
-0.0010878200000
0.0015377600000
0.0035578700000
0.0049104700000
0.0056262500000
0.0057740100000
0.0055569900000
0.0053456100000
0.0053932900000
0.0057083900000
0.0060220500000
0.0058074700000
0.0047799600000
0.0029785500000
0.0006216750000
-0.0019672800000
-0.0042940500000
-0.0057816900000
-0.0064079200000
-0.0065281700000
-0.0065977800000
-0.0069960800000
-0.0076513400000
-0.0081504100000
-0.0080114800000
-0.0070574600000
-0.0054760200000
-0.0035806700000
-0.0017287300000
-0.0002513480000
0.0005601070000
0.0006329720000
0.0003931530000
0.0002266440000
0.0001554540000
0.0000283814000
-0.0001662630000
-0.0001431270000
0.0002253330000
0.0007056690000
0.0010355400000
0.0011006600000
0.0008524770000
0.0000584117000
-0.0015996500000
-0.0038276300000
-0.0059293400000
-0.0074368000000
-0.0080966300000
-0.0079619300000
-0.0072619000000
-0.0061748900000
-0.0051879700000
-0.0047314700000
-0.0048356000000
-0.0053293000000
-0.0060559200000
-0.0066636800000
-0.0067781500000
-0.0061559100000
-0.0047263900000
-0.0026889500000
-0.0002040430000
0.0024922900000
0.0049898800000
0.0070751600000
0.0085990300000
0.0094226700000
0.0097830500000
0.0100533000000
0.0102879000000
0.0102207000000
0.0099334300000
0.0096895600000
0.0094460100000
0.0089638700000
0.0081009400000
0.0070662300000
0.0061233300000
0.0054251100000
0.0049529600000
0.0044503400000
0.0039226400000
0.0034198800000
0.0028708300000
0.0022905300000
0.0015934500000
0.0008961060000
0.0006221620000
0.0007530040000
0.0009277820000
0.0007856020000
0.0002730830000
-0.0004000640000
-0.0010784100000
-0.0014066500000
-0.0014748900000
-0.0014752000000
-0.0012433100000
-0.0005866520000
0.0003575200000
0.0014085500000
0.0025270700000
0.0036718600000
0.0046946700000
0.0055896800000
0.0064832200000
0.0072406900000
0.0078099900000
0.0082402400000
0.0084857900000
0.0084057400000
0.0078958000000
0.0070851500000
0.0063187700000
0.0057225000000
0.0052497200000
0.0046976500000
0.0040237000000
0.0033858400000
0.0027745700000
0.0020051000000
0.0010104500000
-0.0001864830000
-0.0016389200000
-0.0033090500000
-0.0050652000000
-0.0067114600000
-0.0080932400000
-0.0089869800000
-0.0091317800000
-0.0084978900000
-0.0073153800000
-0.0059238200000
-0.0044196400000
-0.0028068300000
-0.0011214600000
0.0003418430000
0.0011752300000
0.0014591800000
0.0013282800000
0.0008803670000
0.0002604940000
-0.0002593230000
-0.0003878830000
-0.0001003460000
0.0005854200000
0.0015580800000
0.0026499600000
0.0036972200000
0.0047377700000
0.0057247200000
0.0063395300000
0.0064350000000
0.0061799900000
0.0056977300000
0.0050020000000
0.0042551600000
0.0036848600000
0.0034649200000
0.0038048100000
0.0048510600000
0.0062524200000
0.0075339500000
0.0084366900000
0.0088774900000
0.0088638900000
0.0084194900000
0.0075954800000
0.0067976900000
0.0065662700000
0.0069791200000
0.0076477700000
0.0084341300000
0.0093792600000
0.0103301000000
0.0110216000000
0.0113127000000
0.0112165000000
0.0108207000000
0.0101650000000
0.0092790600000
0.0083535100000
0.0075638900000
0.0064397000000
0.0051769000000
0.0038559800000
0.0025042200000
0.0010348700000
-0.0003429700000
-0.0013865000000
-0.0019634600000
-0.0021213400000
-0.0020419200000
-0.0016947700000
-0.0009197580000
0.0002130170000
0.0013998100000
0.0024399300000
0.0033622200000
0.0041018300000
0.0044138300000
0.0043332500000
0.0042471200000
0.0042709400000
0.0043464600000
0.0044896700000
0.0046827800000
0.0048523300000
0.0047672300000
0.0043119600000
0.0034584400000
0.0022770900000
0.0008519660000
-0.0008437110000
-0.0027049300000
-0.0043850600000
-0.0058510800000
-0.0071560800000
-0.0080692300000
-0.0082765400000
-0.0078710800000
-0.0071825100000
-0.0064185000000
-0.0058207900000
-0.0054899200000
-0.0054291300000
-0.0057423100000
-0.0062376400000
-0.0066173700000
-0.0066928100000
-0.0063285900000
-0.0055144300000
-0.0043051700000
-0.0028954200000
-0.0012016500000
0.0007274390000
0.0023531900000
0.0033481700000
0.0036995100000
0.0034002100000
0.0025117700000
0.0012931100000
-0.0001639230000
-0.0018663700000
-0.0035977900000
-0.0050985000000
-0.0063564700000
-0.0075977000000
-0.0089918200000
-0.0105298000000
-0.0121014000000
-0.0135931000000
-0.0149275000000
-0.0161281000000
-0.0171311000000
-0.0177999000000
-0.0180523000000
-0.0177367000000
-0.0166604000000
-0.0148461000000
-0.0125920000000
-0.0102973000000
-0.0083901500000
-0.0071857300000
-0.0068697200000
-0.0073855700000
-0.0084601400000
-0.0096753000000
-0.0106673000000
-0.0112414000000
-0.0111156000000
-0.0099958300000
-0.0079809100000
-0.0055588400000
-0.0032884400000
-0.0013716800000
-0.0000722832000
0.0002095510000
-0.0003838720000
-0.0014395500000
-0.0024730100000
-0.0030524100000
-0.0031321700000
-0.0028414000000
-0.0022918300000
-0.0016199800000
-0.0011563000000
-0.0010656800000
-0.0012523100000
-0.0016126000000
-0.0019218400000
-0.0020750700000
-0.0018815700000
-0.0011102300000
0.0001858840000
0.0018207300000
0.0036120600000
0.0053981000000
0.0070950500000
0.0085222800000
0.0094437600000
0.0098035100000
0.0098342000000
0.0096949400000
0.0095137900000
0.0093167700000
0.0089639300000
0.0085605000000
0.0082190600000
0.0078585100000
0.0074369800000
0.0069876700000
0.0064981400000
0.0059343800000
0.0053121800000
0.0047806500000
0.0043590900000
0.0038343700000
0.0032033300000
0.0026595800000
0.0021815300000
0.0016533800000
0.0010603500000
0.0004909410000
-0.0001460710000
-0.0009685660000
-0.0018782700000
-0.0026838600000
-0.0032871100000
-0.0036590900000
-0.0038051600000
-0.0037488800000
-0.0035868000000
-0.0034697900000
-0.0035397700000
-0.0039472100000
-0.0045773400000
-0.0051987300000
-0.0056913400000
-0.0060308700000
-0.0062317300000
-0.0063614800000
-0.0065855200000
-0.0067326400000
-0.0065662600000
-0.0063308500000
-0.0062748700000
-0.0063844500000
-0.0065543000000
-0.0067517400000
-0.0068819500000
-0.0067288500000
-0.0060956600000
-0.0049310500000
-0.0034271800000
-0.0017708300000
-0.0001358510000
0.0013081000000
0.0025123600000
0.0034683600000
0.0041413000000
0.0044874700000
0.0045399500000
0.0044269200000
0.0043160700000
0.0042766600000
0.0042869300000
0.0042733600000
0.0042060100000
0.0040941000000
0.0038542100000
0.0032786000000
0.0023325000000
0.0013377900000
0.0004719580000
-0.0003012610000
-0.0009941060000
-0.0015420100000
-0.0018231600000
-0.0017757000000
-0.0015268200000
-0.0012240600000
-0.0008936290000
-0.0005431370000
-0.0002035730000
0.0000619975000
0.0002207440000
0.0002929850000
0.0002645640000
0.0001943190000
0.0002042060000
0.0003697900000
0.0006456240000
0.0009385730000
0.0012977200000
0.0016817100000
0.0019102500000
0.0019102300000
0.0017257500000
0.0015608000000
0.0014686000000
0.0013781000000
0.0013799100000
0.0015054800000
0.0016524800000
0.0017909300000
0.0019928600000
0.0022373900000
0.0024915600000
0.0027960100000
0.0030806300000
0.0032709600000
0.0033779100000
0.0034438300000
0.0034772000000
0.0033743300000
0.0030627700000
0.0026219400000
0.0021693300000
0.0017691600000
0.0015585400000
0.0015123100000
0.0014936800000
0.0014559400000
0.0013937200000
0.0013359400000
0.0012947200000
0.0012606600000
0.0012442000000
0.0013092900000
0.0014714900000
0.0016258700000
0.0017414600000
0.0018625100000
0.0019748600000
0.0020113100000
0.0019342900000
0.0017850600000
0.0016291700000
0.0014966300000
0.0013861600000
0.0013187900000
0.0013317600000
0.0014373200000
0.0015674000000
0.0016407400000
0.0016274300000
0.0015186800000
0.0013091900000
0.0010489200000
0.0007813250000
0.0005869760000
0.0005182340000
0.0005257410000
0.0005119270000
0.0004183340000
0.0002353440000
-0.0000306160000
-0.0003351590000
-0.0005979670000
-0.0007642080000
-0.0008162600000
-0.0007862940000
-0.0007237700000
-0.0006430650000
-0.0005625910000
-0.0005540400000
-0.0006529920000
-0.0008069090000
-0.0009483670000
-0.0010862700000
-0.0012508800000
-0.0013767800000
-0.0014271100000
-0.0014672500000
-0.0015278100000
-0.0015735700000
-0.0015918400000
-0.0016021500000
-0.0016166200000
-0.0016162900000
-0.0015807800000
-0.0014997900000
-0.0013774800000
-0.0012067100000
-0.0009953810000
-0.0007829630000
-0.0006014270000
-0.0004580290000
-0.0003404630000
-0.0002334670000
-0.0001357550000
-0.0000454144000
0.0000497579000
0.0001545490000
0.0002578290000
0.0003389980000
0.0003925260000
0.0004202990000
0.0004213460000
0.0004033360000
0.0003823550000
0.0003751910000
0.0003937070000
0.0004280980000
0.0004581420000
0.0004692450000
0.0004525040000
0.0004154660000
0.0003693160000
0.0003274060000
0.0003088620000
0.0003242790000
0.0003638320000
0.0004108510000
0.0004482000000
0.0004638150000
0.0004485240000
0.0003968710000
0.0003194940000
0.0002371430000
0.0001651590000
0.0001068040000
0.0000629769000
0.0000350446000
0.0000177329000
0.0000057879100
-0.0000037967600
-0.0000127256000
-0.0000230694000
-0.0000362362000
-0.0000550899000
-0.0000798003000
-0.0001035980000
-0.0001208160000
-0.0001304010000
-0.0001321690000
-0.0001263710000
-0.0001162320000
-0.0001050600000
-0.0000951137000
-0.0000875520000
-0.0000826944000
-0.0000805178000
-0.0000805925000
-0.0000822135000
-0.0000849508000
-0.0000878217000
-0.0000901086000
-0.0000916104000
-0.0000921880000
-0.0000920474000
-0.0000917270000
-0.0000917955000
-0.0000924326000
-0.0000939225000
-0.0000962882000
-0.0000989750000
-0.0001014260000
-0.0001032520000
-0.0001040300000
-0.0001035980000
-0.0001021160000
-0.0000997873000
-0.0000968519000
-0.0000934822000
-0.0000898738000
-0.0000861895000
-0.0000825166000
-0.0000788967000
-0.0000752910000
-0.0000716955000
-0.0000681242000
-0.0000645766000
-0.0000610207000
-0.0000574172000
-0.0000537874000
-0.0000501743000
-0.0000466008000
-0.0000430720000
-0.0000395875000
-0.0000361418000
-0.0000327220000
-0.0000293131000
-0.0000259072000
-0.0000225050000
-0.0000191093000
-0.0000157219000
-0.0000123440000
-0.0000089755600
-0.0000056169100
0.0000000000000
0.0000000000000
0.0000000000000
0.0000000000000
